{
  "latest_date": "2026-04-13",
  "updated_at": "2026-04-13T03:10:00Z",
  "dates": [
    "2026-04-13",
    "2026-04-12",
    "2026-04-11",
    "2026-04-10",
    "2026-04-08",
    "2026-04-07",
    "2026-04-06",
    "2026-04-05",
    "2026-04-04",
    "2026-04-03",
    "2026-04-02",
    "2026-04-01",
    "2026-03-31",
    "2026-03-30",
    "2026-03-29",
    "2026-03-28",
    "2026-03-26",
    "2026-03-25",
    "2026-03-24",
    "2026-03-23",
    "2026-03-22",
    "2026-03-21",
    "2026-03-20",
    "2026-03-19",
    "2026-03-18",
    "2026-03-17",
    "2026-03-16",
    "2026-03-15",
    "2026-03-14",
    "2026-03-13",
    "2026-03-12",
    "2026-03-11",
    "2026-03-10",
    "2026-03-09",
    "2026-03-08",
    "2026-03-07",
    "2026-03-06",
    "2026-03-05"
  ],
  "total_items": 537,
  "page": 18,
  "page_size": 20,
  "total_pages": 27,
  "items": [
    {
      "id": "f3fcf5ae",
      "lang": "en",
      "title_en": "Meta gets ready to launch two new Ray-Ban AI glasses",
      "title_zh": "Meta准备推出两款新Ray-Ban AI眼镜",
      "summary_en": "The Verge: Two new Meta Ray-Ban smart glasses models codenamed 'Scriber' and 'Blazer' have passed through the FCC, signaling an imminent launch. The new models are expected to expand on the AI assistant capabilities of the current Ray-Ban Meta lineup.",
      "summary_zh": "The Verge：代号「Scriber」和「Blazer」的两款Meta Ray-Ban新款智能眼镜已通过FCC认证，预示即将发布。新机型预计将在现有Ray-Ban Meta基础上进一步强化AI助手功能。",
      "tags": [
        "硬件",
        "产品发布"
      ],
      "source_name": "The Verge",
      "source_url": "https://www.theverge.com/column/901314/meta-new-ray-ban-ai-glasses",
      "published_at": "2026-03-26T16:30:00Z",
      "collected_at": "2026-03-28T03:00:00Z",
      "importance": 3,
      "merged_sources": []
    },
    {
      "id": "7e087842",
      "lang": "en",
      "title_en": "Wikipedia bans AI-generated articles",
      "title_zh": "维基百科禁止AI生成文章",
      "summary_en": "The Verge: Wikipedia has formally banned the use of AI for generating or rewriting articles, citing that LLM-produced content \"often violates several of Wikipedia's core content policies\" including accuracy, neutrality, and verifiability standards.",
      "summary_zh": "The Verge：维基百科正式禁止使用AI生成或改写文章，理由是大语言模型产出的内容「往往违反维基百科多项核心内容政策」，包括准确性、中立性和可查证性标准。",
      "tags": [
        "AI政策",
        "内容生成"
      ],
      "source_name": "The Verge",
      "source_url": "https://www.theverge.com/tech/901461/wikipedia-ai-generated-article-ban",
      "published_at": "2026-03-26T15:02:52Z",
      "collected_at": "2026-03-28T03:00:00Z",
      "importance": 4,
      "merged_sources": []
    },
    {
      "id": "8443f89c",
      "lang": "en",
      "title_en": "Senators are pushing to find out how much electricity data centers actually use",
      "title_zh": "美国参议员敦促披露数据中心实际用电量",
      "summary_en": "The Verge: Senators Warren and Hawley sent a bipartisan letter demanding the Energy Information Administration require mandatory annual electricity-use disclosures from data centers, as AI-driven expansion raises grid and ratepayer concerns.",
      "summary_zh": "The Verge：沃伦与霍利两党参议员联名致信能源信息署，要求强制数据中心每年披露用电量，原因是AI驱动的数据中心扩张对电网和电费带来持续压力。",
      "tags": [
        "AI政策",
        "基础设施"
      ],
      "source_name": "The Verge",
      "source_url": "https://www.theverge.com/policy/901404/senators-warren-hawley-eia-letter-data-centers",
      "published_at": "2026-03-26T14:25:32Z",
      "collected_at": "2026-03-28T03:00:00Z",
      "importance": 3,
      "merged_sources": []
    },
    {
      "id": "b87dbb63",
      "lang": "en",
      "title_en": "Mistral releases a new open-source model for speech generation",
      "title_zh": "Mistral发布开源语音生成模型，可在智能手表上运行",
      "summary_en": "Mistral: Released a lightweight open-source text-to-speech model designed to run on smartphones and smartwatches, continuing the company push toward highly compact on-device AI models.",
      "summary_zh": "Mistral：发布轻量级开源文字转语音模型，可在智能手机和智能手表上运行，延续公司打造极致轻量端侧AI的战略布局。",
      "tags": [
        "模型发布",
        "语音合成",
        "开源",
        "端侧AI"
      ],
      "source_name": "TechCrunch",
      "source_url": "https://techcrunch.com/2026/03/26/mistral-releases-a-new-open-source-model-for-speech-generation/",
      "published_at": "2026-03-26T14:00:00Z",
      "collected_at": "2026-03-26T15:00:00Z",
      "importance": 4,
      "merged_sources": []
    },
    {
      "id": "629db6f4",
      "lang": "en",
      "title_en": "Cohere launches an open-source voice model specifically for transcription",
      "title_zh": "Cohere发布专为语音转写设计的开源语音模型",
      "summary_en": "Cohere: Released a 2-billion-parameter open-source speech transcription model optimized for consumer-grade GPUs and self-hosting, supporting 14 languages and targeting enterprise deployments needing local inference.",
      "summary_zh": "Cohere：发布20亿参数开源语音转写模型，专为消费级GPU和私有化部署优化，支持14种语言，面向需本地推理的企业用户。",
      "tags": [
        "模型发布",
        "语音识别",
        "开源"
      ],
      "source_name": "TechCrunch",
      "source_url": "https://techcrunch.com/2026/03/26/cohere-launches-an-open-source-voice-model-specifically-for-transcription/",
      "published_at": "2026-03-26T13:00:00Z",
      "collected_at": "2026-03-26T15:00:00Z",
      "importance": 4,
      "merged_sources": []
    },
    {
      "id": "79e059fa",
      "lang": "en",
      "title_en": "Wikipedia bans AI-generated articles",
      "title_zh": "维基百科禁止AI生成内容",
      "summary_en": "Wikipedia: The platform is banning the use of AI for generating or rewriting articles, stating that LLM-generated content often violates core content policies around sourcing, neutrality, and verifiability.",
      "summary_zh": "维基百科：平台宣布禁止使用AI生成或改写文章，称LLM产生的内容常违反来源、中立性和可核实性等核心内容政策。",
      "tags": [
        "AI治理",
        "内容政策"
      ],
      "source_name": "The Verge",
      "source_url": "https://www.theverge.com/tech/901461/wikipedia-ai-generated-article-ban",
      "published_at": "2026-03-26T12:00:00Z",
      "collected_at": "2026-03-26T15:00:00Z",
      "importance": 4,
      "merged_sources": []
    },
    {
      "id": "8ba3ea30",
      "lang": "en",
      "title_en": "A pound of flesh from data centers: one senator's answer to AI job losses",
      "title_zh": "向数据中心征税：参议员提出AI失业补偿方案",
      "summary_en": "Sen. Mark Warner: Proposed taxing data centers to fund worker transition programs as fears of AI-driven job displacement intensify, framing it as making the AI industry pay for the economic disruption it causes.",
      "summary_zh": "美国参议员马克·华纳：提议对数据中心征税，用于资助受AI冲击工人的转型项目，要求AI行业为其引发的经济冲击承担责任。",
      "tags": [
        "AI政策",
        "就业影响",
        "美国"
      ],
      "source_name": "TechCrunch",
      "source_url": "https://techcrunch.com/2026/03/26/a-pound-of-flesh-from-data-centers-one-senators-answer-to-ai-job-losses/",
      "published_at": "2026-03-26T11:00:00Z",
      "collected_at": "2026-03-26T15:00:00Z",
      "importance": 3,
      "merged_sources": []
    },
    {
      "id": "8495a270",
      "lang": "en",
      "title_en": "EU backs nude app ban and delays to landmark AI rules",
      "title_zh": "欧盟支持裸体应用禁令，推迟AI法关键条款实施",
      "summary_en": "EU Parliament: Voted to delay August deadlines for high-risk AI compliance and watermarking requirements by at least a year, while backing bans on nude-image-generating apps under the AI Act.",
      "summary_zh": "欧洲议会：投票将高风险AI合规及水印要求的8月截止日期延迟至少一年，同时支持依据AI法案禁止裸体图像生成应用。",
      "tags": [
        "AI监管",
        "欧盟AI法"
      ],
      "source_name": "The Verge",
      "source_url": "https://www.theverge.com/ai-artificial-intelligence/901315/eu-ai-act-delays-ban-nude-apps",
      "published_at": "2026-03-26T10:00:00Z",
      "collected_at": "2026-03-26T15:00:00Z",
      "importance": 4,
      "merged_sources": []
    },
    {
      "id": "6cbd57a8",
      "lang": "zh",
      "title_en": "How to claim a share of Tencent's 6 million yuan AI grant",
      "title_zh": "在线等：如何优雅地分走鹅厂这600+万AI资金",
      "summary_en": "Tencent: Made over 6 million yuan available for AI-related projects through a developer incentive program, with community tips circulating on qualifying and maximizing grant applications.",
      "summary_zh": "腾讯：推出逾600万元AI项目资助计划，面向开发者开放申请，业界人士总结高效申请技巧并在网络广泛流传。",
      "tags": [
        "行业动态",
        "资金支持",
        "腾讯"
      ],
      "source_name": "量子位",
      "source_url": "https://www.qbitai.com/2026/03/392641.html",
      "published_at": "2026-03-26T10:00:00Z",
      "collected_at": "2026-03-26T15:00:00Z",
      "importance": 3,
      "merged_sources": []
    },
    {
      "id": "4a4ab509",
      "lang": "en",
      "title_en": "OpenAI shelves erotic chatbot indefinitely",
      "title_zh": "OpenAI无限期搁置成人模式情色聊天机器人计划",
      "summary_en": "OpenAI: Has paused its planned adult mode for ChatGPT indefinitely, citing a refocus on core products as the company faces pressure to demonstrate responsible AI deployment amid rapid growth.",
      "summary_zh": "OpenAI：无限期搁置ChatGPT成人模式计划，官方表示将重心回归核心产品，此举被解读为公司面对舆论压力主动收缩敏感功能。",
      "tags": [
        "OpenAI",
        "产品动态",
        "AI伦理"
      ],
      "source_name": "The Verge",
      "source_url": "https://www.theverge.com/ai-artificial-intelligence/901293/openai-adult-mode-erotic-chatbot-shelved",
      "published_at": "2026-03-26T09:00:00Z",
      "collected_at": "2026-03-26T15:00:00Z",
      "importance": 3,
      "merged_sources": []
    },
    {
      "id": "178d687b",
      "lang": "zh",
      "title_en": "Alibaba Qoder multi-agent mode: 13 AI programmers from a single prompt",
      "title_zh": "1段话喊来13个程序员，阿里Qoder新模式让你躺着当CTO",
      "summary_en": "Alibaba: Qoder new multi-agent orchestration mode spawns up to 13 specialized AI programmer agents from a single natural-language prompt, enabling complex parallel coding tasks with minimal human intervention.",
      "summary_zh": "阿里巴巴：Qoder推出多智能体编排新模式，一句话即可唤起最多13个专业AI程序员协作，以极低人工干预完成复杂并行编程任务。",
      "tags": [
        "Agent",
        "代码工具",
        "阿里巴巴"
      ],
      "source_name": "量子位",
      "source_url": "https://www.qbitai.com/2026/03/392281.html",
      "published_at": "2026-03-26T09:00:00Z",
      "collected_at": "2026-03-26T15:00:00Z",
      "importance": 4,
      "merged_sources": []
    },
    {
      "id": "01e0d22e",
      "lang": "zh",
      "title_en": "10 of 11 xAI co-founders have left Musk's AI company",
      "title_zh": "马斯克xAI联创11跑10！仅剩特斯拉嫡系独苗留守",
      "summary_en": "xAI: Reports confirm that 10 of 11 original co-founders have departed Elon Musk's AI startup, leaving only one Tesla-linked loyalist, raising concerns about talent retention and internal culture.",
      "summary_zh": "xAI：据报道马斯克AI公司11位联合创始人中已有10位离职，仅剩1名特斯拉系人员留守，外界对其人才保留与内部文化愈发担忧。",
      "tags": [
        "xAI",
        "人事动态",
        "初创公司"
      ],
      "source_name": "量子位",
      "source_url": "https://www.qbitai.com/2026/03/392245.html",
      "published_at": "2026-03-26T08:30:00Z",
      "collected_at": "2026-03-26T15:00:00Z",
      "importance": 4,
      "merged_sources": []
    },
    {
      "id": "52e0391b",
      "lang": "zh",
      "title_en": "Google paper on 6x KV cache compression shakes memory stock prices",
      "title_zh": "谷歌新论文把内存股价干崩了！KV cache压缩6倍",
      "summary_en": "Google Research: Published a paper demonstrating 6x compression of KV cache in large language models, a breakthrough that could significantly reduce AI inference hardware costs and rattled memory chip stocks.",
      "summary_zh": "谷歌：发布论文实现大模型KV cache 6倍压缩，可大幅降低AI推理硬件成本，消息一出导致内存芯片股价大幅下跌。",
      "tags": [
        "模型优化",
        "推理",
        "谷歌"
      ],
      "source_name": "量子位",
      "source_url": "https://www.qbitai.com/2026/03/392215.html",
      "published_at": "2026-03-26T08:00:00Z",
      "collected_at": "2026-03-26T15:00:00Z",
      "importance": 4,
      "merged_sources": []
    },
    {
      "id": "e5781b5d",
      "lang": "zh",
      "title_zh": "它石智航用“吉尼斯纶录”交卷：1小时百次完成亚毫米柔性线束装配",
      "title_en": "Yishi Intelligence delivers Guinness record: 100+ sub-millimeter flexible harness assemblies in one hour",
      "summary_zh": "量子位：具身智能公司它石智航（天使轮2.42亿美元）发布A1机器人，1小时内完成亚毫米级柔性线束装配任务逆余次，创吉尼斯世界约录；创始人丁文超表示从无Plan B，坚持以技术工程和产业落地为核心。",
      "summary_en": "Qbitai: Embodied AI startup Yishi Intelligence ($242M angel round) unveiled the A1 robot, completing over 100 sub-millimeter flexible wire harness assembly tasks in one hour to set a Guinness World Record, with founder Ding Wenchao emphasizing industrial deployment as the only strategy with no fallback plan.",
      "tags": [
        "具身智能",
        "机器人",
        "行业动态"
      ],
      "source_name": "量子位",
      "source_url": "https://www.qbitai.com/2026/03/392137.html",
      "published_at": "2026-03-26T02:00:00Z",
      "collected_at": "2026-03-26T03:00:00Z",
      "importance": 4,
      "merged_sources": []
    },
    {
      "id": "4ace6df7",
      "lang": "en",
      "title_en": "Improving Composer through real-time RL",
      "title_zh": "Cursor 通过实时强化学习提升 Composer",
      "summary_en": "Cursor: Cursor applies online reinforcement learning to its Composer coding agent, serving updated model checkpoints to production and using real user interactions as reward signals. Improved checkpoints are shipped multiple times per day, enabling rapid iteration based on live developer feedback.",
      "summary_zh": "Cursor：Cursor 将在线强化学习应用于 Composer 编程智能体，将模型检查点直接部署到生产环境，并以真实用户交互作为奖励信号。每天多次发布改进后的检查点，实现基于开发者实时反馈的快速迭代。",
      "tags": [
        "强化学习",
        "编程助手",
        "产品发布"
      ],
      "source_name": "Cursor",
      "source_url": "https://cursor.com/blog/real-time-rl-for-composer",
      "published_at": "2026-03-26T00:00:00Z",
      "collected_at": "2026-03-28T09:10:00Z",
      "importance": 4,
      "merged_sources": []
    },
    {
      "id": "99987d70",
      "lang": "en",
      "title_en": "The AI skills gap is here: power users are pulling ahead",
      "title_zh": "AI技能鸿沟已至：重度用户与普通用户差距加剧",
      "summary_en": "Anthropic: New research finds AI has not replaced jobs yet, but early data reveals growing inequality as experienced AI users accumulate compounding productivity advantages, raising concerns about widening workforce disparities.",
      "summary_zh": "Anthropic：最新研究发现AI尚未大规模取代工作，但初步数据显示重度AI用户正积累显著生产力优势，随着AI普及加速，劳动力市场技能鸿沟令人担忧。",
      "tags": [
        "AI影响",
        "行业研究"
      ],
      "source_name": "TechCrunch",
      "source_url": "https://techcrunch.com/2026/03/25/the-ai-skills-gap-is-here-says-ai-company-and-power-users-are-pulling-ahead/",
      "published_at": "2026-03-25T21:44:00Z",
      "collected_at": "2026-03-26T00:00:00Z",
      "importance": 4,
      "merged_sources": []
    },
    {
      "id": "c8de106d",
      "lang": "en",
      "title_en": "Google unveils TurboQuant, a new AI memory compression algorithm",
      "title_zh": "谷歌发布TurboQuant：新一代AI内存压缩算法",
      "summary_en": "Google Research: TurboQuant significantly reduces large AI model working memory requirements at inference time, promising lower cost and faster performance; the algorithm has drawn internet comparisons to Silicon Valley's Pied Piper.",
      "summary_zh": "Google Research：TurboQuant算法大幅压缩大型AI模型推理时的工作内存占用，有望降低推理成本并提升速度，被网友戏称为《硅谷》剧中Pied Piper现实版。",
      "tags": [
        "技术突破",
        "推理优化",
        "基础设施"
      ],
      "source_name": "TechCrunch",
      "source_url": "https://techcrunch.com/2026/03/25/google-turboquant-ai-memory-compression-silicon-valley-pied-piper/",
      "published_at": "2026-03-25T20:38:00Z",
      "collected_at": "2026-03-26T00:00:00Z",
      "importance": 4,
      "merged_sources": []
    },
    {
      "id": "934a9484",
      "lang": "en",
      "title_en": "Sanders and AOC propose a ban on new data center construction over AI energy concerns",
      "title_zh": "桑德斯与AOC提议暂停新数据中心建设，应对AI能耗危机",
      "summary_en": "U.S. Congress: Senator Bernie Sanders and Rep. Alexandria Ocasio-Cortez introduced legislation to halt new data center construction until Congress passes laws governing AI energy usage and regulation, citing power grid and environmental concerns.",
      "summary_zh": "美国国会：参议员桑德斯和众议员AOC联合提出立法，要求在国会出台AI能源使用和监管法规前，暂停新数据中心建设，理由是电网承载能力和环境压力。",
      "tags": [
        "政策监管",
        "基础设施",
        "环境"
      ],
      "source_name": "TechCrunch",
      "source_url": "https://techcrunch.com/2026/03/25/bernie-sanders-and-aoc-propose-a-ban-on-data-center-construction/",
      "published_at": "2026-03-25T17:15:00Z",
      "collected_at": "2026-03-26T00:00:00Z",
      "importance": 4,
      "merged_sources": []
    },
    {
      "id": "a9132e9f",
      "lang": "en",
      "title_en": "Meta is laying off hundreds of employees as it pours money into AI",
      "title_zh": "Meta大规模裁员数百人，同时加码AI投入",
      "summary_en": "Meta: Hundreds of employees are being laid off across departments including recruiting and social media, even as the company continues ramping up AI investment, highlighting the tension between AI spending and cost cutting at large tech firms.",
      "summary_zh": "Meta：公司在招聘、社交媒体等多个部门裁减数百名员工，同时持续加大AI投入，凸显大型科技企业AI扩张与降本增效之间的内在矛盾。",
      "tags": [
        "行业动态",
        "裁员"
      ],
      "source_name": "The Verge",
      "source_url": "https://www.theverge.com/tech/900946/meta-layoffs-hundreds-employees",
      "published_at": "2026-03-25T17:10:32Z",
      "collected_at": "2026-03-26T00:00:00Z",
      "importance": 3,
      "merged_sources": []
    },
    {
      "id": "81ecd67a",
      "lang": "en",
      "title_en": "Reddit introduces human verification requirements to fight AI-driven bots",
      "title_zh": "Reddit推出人类验证机制，打击AI机器人账号泛滥",
      "summary_en": "Reddit: CEO Steve Huffman announced new human verification requirements for accounts showing bot-like behavior, as the platform ramps up efforts to combat AI-driven spam, vote manipulation, and automated content generation.",
      "summary_zh": "Reddit：CEO史蒂夫·霍夫曼宣布对可疑机器人行为账号实施人类验证要求，加大打击AI驱动的垃圾内容、刷量及自动帖子生成等行为。",
      "tags": [
        "平台安全",
        "AI滥用"
      ],
      "source_name": "TechCrunch",
      "source_url": "https://techcrunch.com/2026/03/25/reddit-bots-new-human-verification-requirements/",
      "published_at": "2026-03-25T16:10:00Z",
      "collected_at": "2026-03-26T00:00:00Z",
      "importance": 3,
      "merged_sources": []
    }
  ]
}