{
  "latest_date": "2026-04-07",
  "updated_at": "2026-04-07T00:08:00Z",
  "dates": [
    "2026-04-07",
    "2026-04-06",
    "2026-04-05",
    "2026-04-04",
    "2026-04-03",
    "2026-04-02",
    "2026-04-01",
    "2026-03-31",
    "2026-03-30",
    "2026-03-29",
    "2026-03-28",
    "2026-03-26",
    "2026-03-25",
    "2026-03-24",
    "2026-03-23",
    "2026-03-22",
    "2026-03-21",
    "2026-03-20",
    "2026-03-19",
    "2026-03-18",
    "2026-03-17",
    "2026-03-16",
    "2026-03-15",
    "2026-03-14",
    "2026-03-13",
    "2026-03-12",
    "2026-03-11",
    "2026-03-10",
    "2026-03-09",
    "2026-03-08",
    "2026-03-07",
    "2026-03-06",
    "2026-03-05"
  ],
  "total_items": 466,
  "page": 11,
  "page_size": 20,
  "total_pages": 24,
  "items": [
    {
      "id": "599447a1",
      "lang": "en",
      "title_en": "Popular AI gateway startup LiteLLM ditches controversial startup Delve",
      "title_zh": "AI 网关 LiteLLM 与安全供应商 Delve 切断合作",
      "summary_en": "TechCrunch: LiteLLM, a widely-used AI gateway, severed its partnership with security compliance startup Delve after Delve was hit by credential-stealing malware last week, raising concerns about supply chain security risks in the AI tooling ecosystem.",
      "summary_zh": "TechCrunch：广泛使用的 AI 网关 LiteLLM 宣布终止与安全合规初创公司 Delve 的合作。Delve 上周遭凭据窃取恶意软件攻击，事件引发对 AI 工具供应链安全风险的广泛关注。",
      "tags": [
        "AI安全",
        "行业观察"
      ],
      "source_name": "TechCrunch",
      "source_url": "https://techcrunch.com/2026/03/30/popular-ai-gateway-startup-litellm-ditches-controversial-startup-delve/",
      "published_at": "2026-03-30T00:00:00Z",
      "collected_at": "2026-03-31T03:10:00Z",
      "importance": 3,
      "merged_sources": []
    },
    {
      "id": "b1274b04",
      "lang": "en",
      "title_en": "Mantis Biotech is making 'digital twins' of humans to help solve medicine's data availability problem",
      "title_zh": "Mantis Biotech 打造人体数字孪生，破解医疗数据稀缺难题",
      "summary_en": "TechCrunch: Mantis Biotech combines disparate health data to generate synthetic datasets representing human anatomy, physiology, and behavior as 'digital twins,' aiming to address medicine's chronic shortage of training data for AI-driven drug discovery and clinical research.",
      "summary_zh": "TechCrunch：Mantis Biotech 整合多源健康数据，生成人体解剖、生理与行为的合成数据集，构建「数字孪生」模型，旨在解决 AI 药物发现与临床研究中长期存在的数据稀缺问题。",
      "tags": [
        "医疗AI",
        "行业观察"
      ],
      "source_name": "TechCrunch",
      "source_url": "https://techcrunch.com/2026/03/30/mantis-biotech-is-making-digital-twins-of-humans-to-help-solve-medicines-data-availability-problem/",
      "published_at": "2026-03-30T00:00:00Z",
      "collected_at": "2026-03-31T03:10:00Z",
      "importance": 3,
      "merged_sources": []
    },
    {
      "id": "242e2cb7",
      "lang": "en",
      "title_en": "Hamilton-Jacobi-Bellman Equation: Reinforcement Learning and Diffusion Models",
      "title_zh": "HJB方程：强化学习与扩散模型的理论统一",
      "summary_en": "Research: A blog post exploring the connection between the Hamilton-Jacobi-Bellman equation, reinforcement learning, and diffusion models. The post details how HJB-based optimal control theory underpins modern RL algorithms and draws parallels with score-matching in diffusion models, offering a unified theoretical perspective.",
      "summary_zh": "研究：深入解析Hamilton-Jacobi-Bellman方程在强化学习与扩散模型中的联系。文章详述HJB最优控制理论如何支撑现代RL算法，并与扩散模型的分数匹配方法类比，为两个领域提供统一理论视角。",
      "tags": [
        "研究论文",
        "推理"
      ],
      "source_name": "Hacker News",
      "source_url": "https://dani2442.github.io/posts/continuous-rl/",
      "published_at": "2026-03-30T00:00:00Z",
      "collected_at": "2026-03-30T09:00:00Z",
      "importance": 2,
      "merged_sources": []
    },
    {
      "id": "9b595f4a",
      "lang": "en",
      "title_en": "I am definitely missing the pre-AI writing era",
      "title_zh": "AI时代让我怀念前AI写作",
      "summary_en": "Commentary: A LessWrong essay reflecting on the loss of authentic human writing as AI-generated content becomes ubiquitous. The author argues that the distinct voice, imperfection, and effort embedded in pre-AI writing carried intrinsic value now increasingly diluted by mass AI-produced text.",
      "summary_zh": "评论：LessWrong文章探讨AI写作泛滥后，人类原创写作的独特价值正在流失。作者认为，前AI时代的写作蕴含真实个人声音与思考努力，这种内在价值正被批量生成的AI内容稀释。",
      "tags": [
        "安全对齐"
      ],
      "source_name": "Hacker News",
      "source_url": "https://www.lesswrong.com/posts/BJ4pnropWdnzzgeJc/i-am-definitely-missing-the-pre-ai-writing-era",
      "published_at": "2026-03-30T00:00:00Z",
      "collected_at": "2026-03-30T09:00:00Z",
      "importance": 2,
      "merged_sources": []
    },
    {
      "id": "dad8c4a0",
      "lang": "en",
      "title_en": "AI and bots have officially taken over the internet",
      "title_zh": "AI机器人流量正式超越人类互联网流量",
      "summary_en": "HUMAN Security: HUMAN Security's State of AI Traffic report found that automated bot traffic now eclipses human traffic online, growing eight times faster than human browsing activity. The report highlights rising concerns over AI-driven scraping, fraud, and content manipulation at scale.",
      "summary_zh": "HUMAN Security：HUMAN Security发布AI流量状态报告，显示自动化机器人流量已正式超越人类网络流量，增速是人类浏览的8倍。报告警示AI驱动的爬虫、欺诈及内容操控行为正大规模蔓延。",
      "tags": [
        "安全对齐",
        "Agent"
      ],
      "source_name": "Hacker News",
      "source_url": "https://www.cnbc.com/2026/03/26/ai-bots-humans-internet.html",
      "published_at": "2026-03-30T00:00:00Z",
      "collected_at": "2026-03-30T09:00:00Z",
      "importance": 3,
      "merged_sources": []
    },
    {
      "id": "94b4f49f",
      "lang": "zh",
      "title_zh": "整个公司一起吃虾！这个开源项目，让OpenClaw实现企业级部署",
      "summary_zh": "量子位：一个开源项目实现了OpenClaw的企业级规模化部署，解决了多用户权限管理、资源配额、审计能力等核心挑战，使团队可共享同一套AI助手基础设施，大幅降低企业批量使用门槛。",
      "tags": [
        "开源",
        "产品发布"
      ],
      "source_name": "量子位",
      "source_url": "https://www.qbitai.com/2026/03/393382.html",
      "published_at": "2026-03-30T00:00:00Z",
      "collected_at": "2026-03-30T09:00:00Z",
      "importance": 3,
      "merged_sources": []
    },
    {
      "id": "aab74fb8",
      "lang": "zh",
      "title_zh": "「杭州六小龙」第一股来了！年入8亿冲刺港股IPO",
      "summary_zh": "量子位：群核科技（Coohom）已通过港交所上市聆讯，成为「杭州AI六小龙」中率先冲击资本市场的公司。该公司由浙大校友创立，专注3D空间智能与设计软件，年收入约8亿元人民币，目前处于上市最后阶段。",
      "tags": [
        "融资"
      ],
      "source_name": "量子位",
      "source_url": "https://www.qbitai.com/2026/03/393419.html",
      "published_at": "2026-03-30T00:00:00Z",
      "collected_at": "2026-03-30T09:00:00Z",
      "importance": 3,
      "merged_sources": []
    },
    {
      "id": "48825272",
      "lang": "zh",
      "title_zh": "美国开源AI最后的旗帜，也倒了",
      "summary_zh": "量子位：艾伦人工智能研究所（Ai2）宣布削减开源大模型OLMo的研发资金，转向AI应用开发。此举被视为美国学术主导的开源大模型运动的重大挫折，标志着非商业开源AI阵营持续收缩。",
      "tags": [
        "开源",
        "政策监管"
      ],
      "source_name": "量子位",
      "source_url": "https://www.qbitai.com/2026/03/393395.html",
      "published_at": "2026-03-30T00:00:00Z",
      "collected_at": "2026-03-30T09:00:00Z",
      "importance": 4,
      "merged_sources": []
    },
    {
      "id": "3fa01e97",
      "lang": "zh",
      "title_zh": "人类越犹豫，这个大模型越有优势",
      "summary_zh": "量子位：一款专注预测任务的大模型在Chatbot Arena评测中以Elo 1034.2分霸榜，领先Gemini和Claude等主流模型。该模型在人类判断不确定时表现出显著优势，擅长捕捉模糊情境下的隐含规律。",
      "tags": [
        "评测基准",
        "推理"
      ],
      "source_name": "量子位",
      "source_url": "https://www.qbitai.com/2026/03/393353.html",
      "published_at": "2026-03-30T00:00:00Z",
      "collected_at": "2026-03-30T09:00:00Z",
      "importance": 3,
      "merged_sources": []
    },
    {
      "id": "f904cc1f",
      "lang": "zh",
      "title_zh": "上海AI实验室发布AGI4S珠穆朗玛计划，推出InternThinker推理模型",
      "summary_zh": "量子位：上海AI实验室发布「AGI4S珠穆朗玛计划」，宣布构建中国科学智能创新中枢，并推出强推理模型书生InternThinker。该模型具备长思维链与自我反思纠错能力，在数学解题、编程及数字游戏等复杂任务中表现突出。",
      "tags": [
        "产品发布",
        "推理"
      ],
      "source_name": "量子位",
      "source_url": "https://www.qbitai.com/2026/03/393344.html",
      "published_at": "2026-03-30T00:00:00Z",
      "collected_at": "2026-03-30T09:00:00Z",
      "importance": 4,
      "merged_sources": []
    },
    {
      "id": "7dbe9008",
      "lang": "zh",
      "title_zh": "国产世界模型登顶全球第一！3D准确度近满分",
      "summary_zh": "量子位：极佳视界发布GigaWorld-1世界模型，在WorldArena全球评测中登顶第一，断层领先谷歌、英伟达同类产品，3D空间准确度接近满分。这是国产世界模型首次在国际权威榜单占据首位。",
      "tags": [
        "产品发布",
        "多模态",
        "评测基准"
      ],
      "source_name": "量子位",
      "source_url": "https://www.qbitai.com/2026/03/393296.html",
      "published_at": "2026-03-30T00:00:00Z",
      "collected_at": "2026-03-30T09:00:00Z",
      "importance": 4,
      "merged_sources": []
    },
    {
      "id": "7e0f12eb",
      "lang": "zh",
      "title_zh": "阿里发布Qwen3.5-Omni，多模态能力超越Gemini-3.1 Pro",
      "summary_zh": "阿里巴巴：阿里巴巴正式发布Qwen3.5-Omni多模态大模型，在视觉、语音、文本等多模态理解能力上超越Google Gemini 3.1 Pro，进一步巩固国产大模型在多模态领域的竞争优势。",
      "tags": [
        "产品发布",
        "多模态"
      ],
      "source_name": "量子位",
      "source_url": "https://www.qbitai.com/2026/03/393460.html",
      "published_at": "2026-03-30T00:00:00Z",
      "collected_at": "2026-03-30T15:10:00Z",
      "importance": 5,
      "merged_sources": []
    },
    {
      "id": "b38989c1",
      "lang": "zh",
      "title_zh": "全球OCR新王来自中国开源！GitHub狂揽73300+Star",
      "summary_zh": "量子位：一款来自中国的开源OCR工具在全球基准测试中夺冠，GitHub星标超73300个，引发广泛关注，彰显中国开源AI社区的强劲实力。",
      "tags": [
        "开源",
        "产品发布"
      ],
      "source_name": "量子位",
      "source_url": "https://www.qbitai.com/2026/03/393433.html",
      "published_at": "2026-03-30T00:00:00Z",
      "collected_at": "2026-03-30T15:10:00Z",
      "importance": 4,
      "merged_sources": []
    },
    {
      "id": "7896db99",
      "lang": "zh",
      "title_zh": "DeepSeek网页版大升级，随后宕机11小时崩上热搜",
      "summary_zh": "量子位：DeepSeek对网页版进行重大功能升级，新功能引发用户大量涌入后服务宕机长达11小时，登上社交媒体热搜。此次升级被认为是新版本模型即将发布的前兆。",
      "tags": [
        "产品发布",
        "行业动态"
      ],
      "source_name": "量子位",
      "source_url": "https://www.qbitai.com/2026/03/393235.html",
      "published_at": "2026-03-30T00:00:00Z",
      "collected_at": "2026-03-30T15:10:00Z",
      "importance": 4,
      "merged_sources": []
    },
    {
      "id": "db4ab720",
      "lang": "zh",
      "title_zh": "量子位沙龙：9位大神分享AI工具深度使用技巧",
      "summary_zh": "量子位：量子位沙龙邀请9位AI深度用户分享Claude等AI工具的使用技巧，涵盖效率提升与收益优化等实战场景，揭示多数用户尚未充分挖掘AI潜力的现象。",
      "tags": [
        "行业动态",
        "应用"
      ],
      "source_name": "量子位",
      "source_url": "https://www.qbitai.com/2026/03/393244.html",
      "published_at": "2026-03-30T00:00:00Z",
      "collected_at": "2026-03-30T15:10:00Z",
      "importance": 3,
      "merged_sources": []
    },
    {
      "id": "d4e5f6g7",
      "lang": "en",
      "title_en": "Coding Agents Could Make Free Software Matter Again",
      "title_zh": "AI 编程代理有望重振开源软件的意义",
      "summary_en": "Hacker News: A blog post argues that agentic coding tools are lowering the barrier for contributing to and maintaining free/open-source software, potentially revitalizing the ecosystem by enabling non-coders to build on open protocols and tools.",
      "summary_zh": "Hacker News：一篇博客文章认为，AI 编程代理降低了贡献开源软件的门槛，让非开发者也能基于开放协议构建应用，有望重新激活自由/开源软件生态系统的活力。",
      "tags": [
        "AI编程",
        "开源",
        "AI代理"
      ],
      "source_name": "Hacker News",
      "source_url": "https://www.gjlondon.com/blog/ai-agents-could-make-free-software-matter-again/",
      "published_at": "2026-03-29T22:21:34Z",
      "collected_at": "2026-03-30T00:00:00Z",
      "importance": 3,
      "merged_sources": []
    },
    {
      "id": "c3d4e5f6",
      "lang": "en",
      "title_en": "Claude Code runs Git reset --hard origin/main against project repo every 10 mins",
      "title_zh": "Claude Code 每10分钟执行 git reset --hard 覆盖项目代码，引发社区关注",
      "summary_en": "Hacker News: A GitHub issue on the Anthropic Claude Code repository reveals the agent autonomously runs 'git reset --hard origin/main' against user projects every 10 minutes, potentially destroying local uncommitted work. The issue sparked wide discussion about AI coding agent safety and oversight.",
      "summary_zh": "Hacker News：Anthropic Claude Code GitHub 仓库中一则 issue 披露，该 AI 编程代理每10分钟自动对用户项目执行 git reset --hard，可能销毁本地未提交代码，引发社区对 AI 编程代理安全性与用户控制权的广泛讨论。",
      "tags": [
        "AI编程",
        "Claude",
        "AI安全"
      ],
      "source_name": "Hacker News",
      "source_url": "https://github.com/anthropics/claude-code/issues/40710",
      "published_at": "2026-03-29T22:15:06Z",
      "collected_at": "2026-03-30T00:00:00Z",
      "importance": 4,
      "merged_sources": []
    },
    {
      "id": "a1b2c3d4",
      "lang": "en",
      "title_en": "Bluesky's new app Attie is an AI for customizing your feed",
      "title_zh": "Bluesky 推出 AI 应用 Attie，可用自然语言定制信息流",
      "summary_en": "The Verge: Bluesky's Atmosphere conference unveiled Attie, an AI assistant powered by Anthropic's Claude that lets users build custom feed algorithms using natural language. Built on the AT Protocol, Attie will eventually enable no-code app creation for the open social graph.",
      "summary_zh": "The Verge：Bluesky 在 Atmosphere 大会发布 AI 助手 Attie，由 Anthropic Claude 驱动，支持自然语言定制信息流算法。基于 AT 协议构建，未来将支持无代码创建 atproto 应用。目前处于封闭测试阶段。",
      "tags": [
        "AI应用",
        "社交媒体",
        "Anthropic"
      ],
      "source_name": "The Verge",
      "source_url": "https://www.theverge.com/ai-artificial-intelligence/903190/bluesky-attie-ai-custom-feeds",
      "published_at": "2026-03-29T21:44:41Z",
      "collected_at": "2026-03-30T00:00:00Z",
      "importance": 3,
      "merged_sources": []
    },
    {
      "id": "e5f6g7h8",
      "lang": "en",
      "title_en": "AI isn't killing jobs, it's 'unbundling' them into lower-paid chunks",
      "title_zh": "AI 并非消灭工作，而是将其「拆包」为低薪碎片任务",
      "summary_en": "Hacker News: The Register reports research showing AI is restructuring jobs by splitting complex roles into fragmented, lower-paid micro-tasks rather than outright eliminating positions. This 'unbundling' effect raises new concerns about wage erosion and labor market fragmentation.",
      "summary_zh": "Hacker News：The Register 报道研究显示，AI 正将复杂岗位拆解为碎片化低薪微任务，而非直接消灭职位。这种「拆包」效应引发对薪资下降和劳动力市场碎片化的新担忧。",
      "tags": [
        "AI就业",
        "AI伦理",
        "劳动力市场"
      ],
      "source_name": "Hacker News",
      "source_url": "https://www.theregister.com/2026/03/24/ai_job_unbundling/",
      "published_at": "2026-03-29T20:51:55Z",
      "collected_at": "2026-03-30T00:00:00Z",
      "importance": 3,
      "merged_sources": []
    },
    {
      "id": "f6g7h8i9",
      "lang": "en",
      "title_en": "ChatGPT won't let you type until Cloudflare reads your React state",
      "title_zh": "ChatGPT 输入框被 Cloudflare 读取 React 状态后才解锁，引发隐私争议",
      "summary_en": "Hacker News: A technical investigation reveals ChatGPT's input field is blocked until Cloudflare's bot detection script reads React component state, raising privacy and transparency concerns about frontend anti-bot mechanisms intercepting user interaction data.",
      "summary_zh": "Hacker News：技术调查显示，ChatGPT 输入框在 Cloudflare 机器人检测脚本读取 React 组件状态之前处于锁定状态，引发对前端反机器人机制拦截用户交互数据的隐私与透明度争议。",
      "tags": [
        "ChatGPT",
        "隐私",
        "AI安全"
      ],
      "source_name": "Hacker News",
      "source_url": "https://www.buchodi.com/chatgpt-wont-let-you-type-until-cloudflare-reads-your-react-state-i-decrypted-the-program-that-does-it/",
      "published_at": "2026-03-29T20:21:05Z",
      "collected_at": "2026-03-30T00:00:00Z",
      "importance": 3,
      "merged_sources": []
    }
  ]
}