{
  "latest_date": "2026-04-13",
  "updated_at": "2026-04-13T03:10:00Z",
  "dates": [
    "2026-04-13",
    "2026-04-12",
    "2026-04-11",
    "2026-04-10",
    "2026-04-08",
    "2026-04-07",
    "2026-04-06",
    "2026-04-05",
    "2026-04-04",
    "2026-04-03",
    "2026-04-02",
    "2026-04-01",
    "2026-03-31",
    "2026-03-30",
    "2026-03-29",
    "2026-03-28",
    "2026-03-26",
    "2026-03-25",
    "2026-03-24",
    "2026-03-23",
    "2026-03-22",
    "2026-03-21",
    "2026-03-20",
    "2026-03-19",
    "2026-03-18",
    "2026-03-17",
    "2026-03-16",
    "2026-03-15",
    "2026-03-14",
    "2026-03-13",
    "2026-03-12",
    "2026-03-11",
    "2026-03-10",
    "2026-03-09",
    "2026-03-08",
    "2026-03-07",
    "2026-03-06",
    "2026-03-05"
  ],
  "total_items": 537,
  "page": 10,
  "page_size": 20,
  "total_pages": 27,
  "items": [
    {
      "id": "671e066a",
      "lang": "en",
      "title_en": "AI can push your Stream Deck buttons for you",
      "title_zh": "AI 可为你自动触发 Stream Deck 按钮",
      "summary_en": "The Verge: Elgato's Stream Deck 7.4 software update introduces MCP (Model Context Protocol) support, enabling AI assistants to discover and activate Stream Deck actions on behalf of users. The update bridges AI agent workflows directly with physical shortcut hardware, opening new automation possibilities.",
      "summary_zh": "The Verge：Elgato 发布 Stream Deck 7.4 软件更新，引入 MCP（模型上下文协议）支持，允许 AI 助手自动识别并触发 Stream Deck 操作，将 AI 智能体工作流与物理快捷键硬件直接打通，拓展了自动化使用场景。",
      "tags": [
        "工具与开发",
        "AI 应用"
      ],
      "source_name": "The Verge",
      "source_url": "https://www.theverge.com/tech/905021/elgato-stream-deck-mcp-ai-agent-update",
      "published_at": "2026-04-01T12:38:58Z",
      "collected_at": "2026-04-01T15:00:00Z",
      "importance": 3,
      "merged_sources": []
    },
    {
      "id": "575f1907",
      "lang": "zh",
      "title_zh": "为啥武汉无人车也呆了一次",
      "summary_zh": "量子位：3月31日晚，武汉萝卜快跑无人驾驶车在市区停摆，乘客安全疏散，无人员伤亡。据知情人士透露，停摆系车辆自检到潜在风险后主动触发的安全策略，而非系统故障。文章深入分析了自动驾驶系统的安全逻辑，并与 Waymo 此前停摆事件作对比，探讨安全停车机制的必要性与公众认知差距。",
      "tags": [
        "自动驾驶",
        "安全"
      ],
      "source_name": "量子位",
      "source_url": "https://www.qbitai.com/2026/04/394554.html",
      "published_at": "2026-04-01T12:06:03Z",
      "collected_at": "2026-04-01T15:00:00Z",
      "importance": 3,
      "merged_sources": []
    },
    {
      "id": "70b4c06e",
      "lang": "en",
      "title_en": "Baidu's robotaxis froze in traffic, creating chaos",
      "title_zh": "百度自动驾驶车队集体停滞引发混乱",
      "summary_en": "Baidu: Multiple Baidu Apollo robotaxis simultaneously froze in traffic in Wuhan, China, blocking intersections and creating significant traffic chaos. The incident highlights ongoing challenges for autonomous vehicles in complex urban traffic scenarios.",
      "summary_zh": "百度：中国武汉多辆百度 Apollo 自动驾驶出租车同时在交通路口停滞，阻塞道路并造成严重交通混乱，暴露了自动驾驶车辆在复杂城市场景下的系统性挑战。",
      "tags": [
        "行业动态",
        "产品发布"
      ],
      "source_name": "The Verge",
      "source_url": "https://www.theverge.com/ai-artificial-intelligence/905012/baidu-apollo-robotaxi-freeze-china",
      "published_at": "2026-04-01T10:39:52Z",
      "collected_at": "2026-04-02T00:10:00Z",
      "importance": 3,
      "merged_sources": []
    },
    {
      "id": "70b4c06e",
      "lang": "en",
      "title_en": "Baidu's robotaxis froze in traffic, creating chaos",
      "title_zh": "百度 Apollo 无人车集体停摆，引发交通混乱",
      "summary_en": "The Verge: Baidu Apollo Go robotaxis froze in traffic in Wuhan, China, forcing passengers to exit stranded vehicles and creating significant traffic disruption. Authorities and Baidu staff responded quickly; no injuries were reported. The incident echoes a similar Waymo fleet-wide stoppage and raises questions about autonomous vehicle safety protocols.",
      "summary_zh": "The Verge：百度旗下 Apollo Go 无人驾驶出租车在武汉市区集体停摆，乘客被迫步行离车，交通一度受阻。交管部门与百度工作人员迅速处置，无人员伤亡。此事件与数月前 Waymo 停摆事件高度相似，引发外界对自动驾驶安全机制的广泛讨论。",
      "tags": [
        "自动驾驶",
        "安全"
      ],
      "source_name": "The Verge",
      "source_url": "https://www.theverge.com/ai-artificial-intelligence/905012/baidu-apollo-robotaxi-freeze-china",
      "published_at": "2026-04-01T10:39:52Z",
      "collected_at": "2026-04-01T15:00:00Z",
      "importance": 4,
      "merged_sources": []
    },
    {
      "id": "10c544ee",
      "lang": "zh",
      "title_zh": "国内最强生图模型Wan2.7-Image来了",
      "summary_zh": "量子位：Wan 团队发布 Wan2.7-Image，具备文生图、图生组图、图像指令编辑和交互式编辑全链路能力。人类偏好盲测中文生图能力超越 GPT-Image1.5 及国内主流模型，文本渲染与照片级成像指标接近顶尖水准，并强化了虚拟形象定制功能，支持骨相、眼眸到五官全方位捏脸。",
      "tags": [
        "图像生成",
        "产品发布"
      ],
      "source_name": "量子位",
      "source_url": "https://www.qbitai.com/2026/04/394530.html",
      "published_at": "2026-04-01T09:34:25Z",
      "collected_at": "2026-04-01T15:00:00Z",
      "importance": 4,
      "merged_sources": []
    },
    {
      "id": "8b20fd9e",
      "lang": "en",
      "title_en": "Art schools are being torn apart by AI",
      "title_zh": "AI 正在撕裂艺术学校",
      "summary_en": "The Verge: Generative AI is creating deep divisions at art and design schools, threatening career prospects of graduates in creative fields. Students at CalArts and other institutions have staged protests against AI use in coursework, reflecting a growing cultural clash between traditional creative education and AI-generated work.",
      "summary_zh": "The Verge：生成式 AI 正在艺术与设计院校中引发深刻分裂，创意专业毕业生就业前景受到严重威胁。CalArts 等高校学生发起抗议，反对在课程中使用 AI，折射出传统创意教育与 AI 生成内容之间日益激化的文化冲突。",
      "tags": [
        "AI伦理",
        "AI社会影响"
      ],
      "source_name": "The Verge",
      "source_url": "https://www.theverge.com/tech/903954/art-schools-generative-ai-education-creative-jobs",
      "published_at": "2026-04-01T08:19:52Z",
      "collected_at": "2026-04-01T09:08:00Z",
      "importance": 3,
      "merged_sources": []
    },
    {
      "id": "f0864a12",
      "lang": "zh",
      "title_zh": "Anthropic被逼急了！亲生龙虾意外曝光，Karpathy：这就是Claude Claw",
      "summary_zh": "量子位：Anthropic 内部吉祥物龙虾形象意外曝光，知名 AI 研究者 Andrej Karpathy 评论称其正是 Claude Claw。此次曝光源于 Claude Code 源码泄露事件，进一步揭示了 Anthropic 内部品牌与产品规划细节。",
      "tags": [
        "Anthropic",
        "Claude"
      ],
      "source_name": "量子位",
      "source_url": "https://www.qbitai.com/2026/04/394516.html",
      "published_at": "2026-04-01T07:00:00Z",
      "collected_at": "2026-04-01T09:08:00Z",
      "importance": 3,
      "merged_sources": []
    },
    {
      "id": "b4fbd115",
      "lang": "en",
      "title_en": "Claude Code Unpacked: A visual guide",
      "title_zh": "Claude Code 深度拆解：图解指南",
      "summary_en": "Hacker News: A community-created visual guide unpacking Claude Code's architecture, internals, and usage patterns. The resource gained significant traction on Hacker News, reflecting strong developer interest in understanding and extending Anthropic's AI coding agent.",
      "summary_zh": "Hacker News：一份由社区创作的 Claude Code 可视化拆解指南，深入解析其架构、内部机制与使用方式，在 Hacker News 获得广泛关注，反映出开发者对 Anthropic AI 编程智能体的高度兴趣。",
      "tags": [
        "开发工具",
        "Claude",
        "AI编程"
      ],
      "source_name": "Hacker News",
      "source_url": "https://ccunpacked.dev/",
      "published_at": "2026-04-01T06:35:37Z",
      "collected_at": "2026-04-01T09:08:00Z",
      "importance": 3,
      "merged_sources": []
    },
    {
      "id": "62f2b4c2",
      "lang": "en",
      "title_en": "Claude Code Unpacked: A visual guide",
      "title_zh": "Claude Code源码可视化解析",
      "summary_en": "Community: A visual guide and walkthrough of the Claude Code source code has been published at ccunpacked.dev, providing developers with a structured breakdown of Anthropic's Claude Code tool following recent source code exposure.",
      "summary_zh": "社区：ccunpacked.dev 发布了 Claude Code 源码的可视化解析指南，为开发者提供了对 Anthropic Claude Code 工具的结构化拆解，内容基于近期流出的源代码。",
      "tags": [
        "开源",
        "工具与基础设施"
      ],
      "source_name": "Hacker News",
      "source_url": "https://ccunpacked.dev/",
      "published_at": "2026-04-01T05:15:00Z",
      "collected_at": "2026-04-02T00:10:00Z",
      "importance": 3,
      "merged_sources": []
    },
    {
      "id": "16f4ade7",
      "lang": "zh",
      "title_zh": "Claude终于承认乱扣费！最高多收你20倍，一句「你好」干掉13%额度",
      "summary_zh": "量子位：Anthropic 正式承认 Claude 存在 token 计费异常问题，部分用户反映被多收高达 20 倍费用，仅发送简单问候即消耗大量额度。该问题引发用户强烈不满，Anthropic 表示已在排查修复中。",
      "tags": [
        "AI安全",
        "Anthropic",
        "产品问题"
      ],
      "source_name": "量子位",
      "source_url": "https://www.qbitai.com/2026/04/394177.html",
      "published_at": "2026-04-01T03:00:00Z",
      "collected_at": "2026-04-01T09:08:00Z",
      "importance": 4,
      "merged_sources": []
    },
    {
      "id": "34c071fb",
      "lang": "zh",
      "title_zh": "Sora走了，PixVerse V6来了！AI视频空间时间处理能力大增，延时拍摄、慢动作都能搞",
      "summary_zh": "量子位：PixVerse 发布 V6 视频生成模型，在 AI 视频的空间与时间处理能力上实现大幅跃升，支持延时拍摄、慢动作等专业摄影效果，正值 Sora 退出市场之际，填补了 AI 视频生成赛道的空缺。",
      "tags": [
        "产品发布",
        "AI视频"
      ],
      "source_name": "量子位",
      "source_url": "https://www.qbitai.com/2026/04/394373.html",
      "published_at": "2026-04-01T02:00:00Z",
      "collected_at": "2026-04-01T09:08:00Z",
      "importance": 3,
      "merged_sources": []
    },
    {
      "id": "49e8ac67",
      "lang": "en",
      "title_en": "Mercor says it was hit by cyberattack tied to compromise of open-source LiteLLM project",
      "title_zh": "Mercor 遭网络攻击，源于开源项目 LiteLLM 供应链入侵",
      "summary_en": "TechCrunch: AI recruiting startup Mercor confirmed it was one of thousands of companies affected by a supply chain attack on the open-source LiteLLM project, carried out by a group called TeamPCP. Extortion group Lapsus$ also claimed to have targeted Mercor and accessed its data. Mercor, valued at $10B, works with OpenAI and Anthropic to train AI models.",
      "summary_zh": "TechCrunch：AI 招募初创公司 Mercor 确认遭受供应链攻击，攻击源头为开源项目 LiteLLM 被黑客组织 TeamPCP 入侵。勒索组织 Lapsus$ 亦声称已访问 Mercor 数据。Mercor 估值达 100 亿美元，为 OpenAI、Anthropic 等公司提供 AI 模型训练服务。",
      "tags": [
        "AI安全",
        "供应链攻击"
      ],
      "source_name": "TechCrunch",
      "source_url": "https://techcrunch.com/2026/03/31/mercor-says-it-was-hit-by-cyberattack-tied-to-compromise-of-open-source-litellm-project/",
      "published_at": "2026-04-01T01:42:59Z",
      "collected_at": "2026-04-01T09:08:00Z",
      "importance": 4,
      "merged_sources": []
    },
    {
      "id": "2ea0207a",
      "lang": "zh",
      "title_zh": "1220亿美元！OpenAI创下史上最大单笔融资纪录",
      "summary_zh": "量子位：OpenAI 完成 1220 亿美元融资，投后估值达 8520 亿美元，创下科技史上最大单笔融资纪录。亚马逊出资 500 亿、英伟达与软银各投 300 亿，微软也参与本轮。OpenAI 还首次通过银行渠道向个人投资者开放，筹得逾 30 亿美元。市场对其 IPO 预期进一步升温。",
      "tags": [
        "融资",
        "OpenAI"
      ],
      "source_name": "量子位",
      "source_url": "https://www.qbitai.com/2026/04/394169.html",
      "published_at": "2026-04-01T00:56:13Z",
      "collected_at": "2026-04-01T15:00:00Z",
      "importance": 5,
      "merged_sources": []
    },
    {
      "id": "4c19eec4",
      "lang": "en",
      "title_en": "Claude Code leaked features and hidden commands revealed",
      "title_zh": "Claude Code 泄露功能与隐藏命令曝光",
      "summary_en": "Hacker News: A dedicated site (ccleaks.com) catalogued leaked features and undocumented commands discovered in Anthropic's Claude Code source code. Highlights include unreleased agentic capabilities, hidden debugging modes, and experimental multi-agent orchestration features not yet in the official product.",
      "summary_zh": "Hacker News：一个专门网站（ccleaks.com）整理了从 Anthropic Claude Code 源码中发现的泄露功能与未公开命令，包括未发布的 Agent 能力、隐藏调试模式及实验性多智能体编排功能。",
      "tags": [
        "Claude",
        "AI编码",
        "产品泄露"
      ],
      "source_name": "Hacker News",
      "source_url": "https://www.ccleaks.com",
      "published_at": "2026-04-01T00:08:00Z",
      "collected_at": "2026-04-01T00:14:00Z",
      "importance": 3,
      "merged_sources": []
    },
    {
      "id": "be3002bd",
      "lang": "en",
      "title_en": "Show HN: PhAIL – Real-robot benchmark for evaluating AI models",
      "title_zh": "PhAIL：用于评估 AI 模型的真实机器人基准测试平台",
      "summary_en": "Hacker News: PhAIL is a new real-world robotics benchmark designed to evaluate AI models on physical tasks using actual hardware, not simulations. It aims to fill the gap between sim-based evaluations and real-world robot performance, helping researchers assess embodied AI more reliably.",
      "summary_zh": "Hacker News：PhAIL 是一个面向真实机器人的 AI 模型基准测试平台，采用实体硬件而非仿真环境测试物理任务性能，旨在填补仿真评估与现实机器人表现之间的鸿沟，帮助研究者更可靠地评估具身 AI。",
      "tags": [
        "具身AI",
        "机器人",
        "AI评测",
        "开源"
      ],
      "source_name": "Hacker News",
      "source_url": "https://phail.ai",
      "published_at": "2026-04-01T00:05:00Z",
      "collected_at": "2026-04-01T00:14:00Z",
      "importance": 3,
      "merged_sources": []
    },
    {
      "id": "2ea0207a",
      "lang": "zh",
      "title_zh": "OpenAI创下史上最大单笔融资纪录1220亿美元",
      "summary_zh": "OpenAI：OpenAI 完成 1220 亿美元融资，创下史上最大单笔私募融资纪录，较此前披露的 1100 亿美元上调。本轮融资进一步巩固公司估值，并为 IPO 上市准备积累资本。",
      "tags": [
        "融资",
        "行业动态"
      ],
      "source_name": "量子位",
      "source_url": "https://www.qbitai.com/2026/04/394169.html",
      "published_at": "2026-04-01T00:00:00Z",
      "collected_at": "2026-04-02T00:10:00Z",
      "importance": 4,
      "merged_sources": [
        "https://www.cnbc.com/2026/03/31/openai-funding-round-ipo.html"
      ]
    },
    {
      "id": "f0864a12",
      "lang": "zh",
      "title_zh": "Anthropic遭曝光：Claude Claw龙虾形象意外流出",
      "summary_zh": "Anthropic：Anthropic 内部 AI 助手 Claude Claw 的龙虾形象意外通过源码泄漏曝光，Andrej Karpathy 随即在社交媒体评论称这就是 Claude Claw。此次泄漏源于 Claude Code 源码外泄事件，引发社区对 Anthropic 品牌形象设计的广泛讨论。",
      "tags": [
        "行业动态",
        "安全对齐"
      ],
      "source_name": "量子位",
      "source_url": "https://www.qbitai.com/2026/04/394516.html",
      "published_at": "2026-04-01T00:00:00Z",
      "collected_at": "2026-04-02T00:10:00Z",
      "importance": 3,
      "merged_sources": []
    },
    {
      "id": "16f4ade7",
      "lang": "zh",
      "title_zh": "Claude被指乱扣费：最高多收20倍token",
      "summary_zh": "Anthropic：用户和开发者反映 Claude Code 存在严重的 token 超额计费问题，一句你好可消耗高达 13% 的配额，最高多收约 20 倍费用。Anthropic 已承认该计费异常，问题影响波及大量 Claude Code 用户，部分用户描述其接近不可用状态。",
      "tags": [
        "产品发布",
        "行业动态"
      ],
      "source_name": "量子位",
      "source_url": "https://www.qbitai.com/2026/04/394177.html",
      "published_at": "2026-04-01T00:00:00Z",
      "collected_at": "2026-04-02T00:10:00Z",
      "importance": 4,
      "merged_sources": []
    },
    {
      "id": "10c544ee",
      "lang": "zh",
      "title_zh": "万象2.7-Image国内最强生图模型发布",
      "summary_zh": "万象团队：国内文生图模型 Wan2.7-Image 正式发布，具备文生图、图生组图、图像指令编辑和交互式编辑等全链路能力，被称为国内当前最强生图模型。该模型支持多种图像生成与编辑工作流。",
      "tags": [
        "产品发布",
        "多模态"
      ],
      "source_name": "量子位",
      "source_url": "https://www.qbitai.com/2026/04/394530.html",
      "published_at": "2026-04-01T00:00:00Z",
      "collected_at": "2026-04-02T00:10:00Z",
      "importance": 4,
      "merged_sources": []
    },
    {
      "id": "34c071fb",
      "lang": "zh",
      "title_zh": "PixVerse V6发布：AI视频时空处理能力增强",
      "summary_zh": "PixVerse：PixVerse V6 正式发布，AI 视频生成在空间和时间处理能力上大幅提升，新增延时拍摄、慢动作等效果支持。该版本在 Sora 停止公测后推出，定位接档 Sora 的 AI 视频生成工具。",
      "tags": [
        "产品发布",
        "多模态"
      ],
      "source_name": "量子位",
      "source_url": "https://www.qbitai.com/2026/04/394373.html",
      "published_at": "2026-04-01T00:00:00Z",
      "collected_at": "2026-04-02T00:10:00Z",
      "importance": 3,
      "merged_sources": []
    }
  ]
}