{
  "latest_date": "2026-03-31",
  "updated_at": "2026-03-31T15:15:00Z",
  "dates": [
    "2026-03-31",
    "2026-03-30",
    "2026-03-29",
    "2026-03-28",
    "2026-03-26",
    "2026-03-25",
    "2026-03-24",
    "2026-03-23",
    "2026-03-22",
    "2026-03-21",
    "2026-03-20",
    "2026-03-19",
    "2026-03-18",
    "2026-03-17",
    "2026-03-16",
    "2026-03-15",
    "2026-03-14",
    "2026-03-13",
    "2026-03-12",
    "2026-03-11",
    "2026-03-10",
    "2026-03-09",
    "2026-03-08",
    "2026-03-07",
    "2026-03-06",
    "2026-03-05"
  ],
  "total_items": 315,
  "page": 3,
  "page_size": 20,
  "total_pages": 16,
  "items": [
    {
      "id": "729eb8ee",
      "lang": "en",
      "title_en": "ScaleOps raises $130M to improve computing efficiency amid AI demand",
      "title_zh": "ScaleOps 融资 1.3 亿美元，自动化优化 AI 基础设施效率",
      "summary_en": "TechCrunch: ScaleOps raised $130M in a Series C round to tackle GPU shortages and soaring AI cloud costs by automating Kubernetes infrastructure optimization in real time, helping companies reduce compute waste amid surging AI workload demand.",
      "summary_zh": "TechCrunch：ScaleOps 完成 1.3 亿美元 C 轮融资，通过实时自动化 Kubernetes 基础设施优化，帮助企业应对 AI 需求激增带来的 GPU 短缺与云计算成本飙升问题，减少计算资源浪费。",
      "tags": [
        "融资",
        "AI基础设施"
      ],
      "source_name": "TechCrunch",
      "source_url": "https://techcrunch.com/2026/03/30/scaleops-130m-series-c-kubernetes-efficiency-ai-demand-funding/",
      "published_at": "2026-03-30T00:00:00Z",
      "collected_at": "2026-03-31T03:10:00Z",
      "importance": 3,
      "merged_sources": []
    },
    {
      "id": "198ab0ea",
      "lang": "en",
      "title_en": "Starcloud raises $170 million Series A to build data centers in space",
      "title_zh": "Starcloud 完成 1.7 亿美元 A 轮融资，计划建造太空数据中心",
      "summary_en": "TechCrunch: Starcloud raised $170M in a Series A round to build AI data centers in space, becoming the fastest Y Combinator startup to reach unicorn status just 17 months after demo day. The company aims to leverage orbital infrastructure to meet surging AI compute demand.",
      "summary_zh": "TechCrunch：Starcloud 完成 1.7 亿美元 A 轮融资，计划在太空建造 AI 数据中心，成为 YC 史上最快达到独角兽估值的初创公司（Demo Day 后仅 17 个月）。公司旨在通过轨道基础设施满足 AI 算力需求。",
      "tags": [
        "融资",
        "AI基础设施"
      ],
      "source_name": "TechCrunch",
      "source_url": "https://techcrunch.com/2026/03/30/starcloud-raises-170-million-series-ato-build-data-centers-in-space/",
      "published_at": "2026-03-30T00:00:00Z",
      "collected_at": "2026-03-31T03:10:00Z",
      "importance": 3,
      "merged_sources": []
    },
    {
      "id": "7012a6b0",
      "lang": "en",
      "title_en": "As more Americans adopt AI tools, fewer say they can trust the results",
      "title_zh": "美国 AI 使用率上升，但信任度反而下滑",
      "summary_en": "TechCrunch: A new poll finds that AI adoption is rising across the U.S., but trust in AI outputs is declining simultaneously. Most Americans remain concerned about AI transparency, regulation, and the technology's broader societal impact despite increased usage.",
      "summary_zh": "TechCrunch：最新民调显示，美国 AI 工具使用率持续上升，但用户对 AI 结果的信任度却同步下降。多数美国人对 AI 的透明度、监管及其社会影响表示担忧。",
      "tags": [
        "行业观察",
        "AI治理"
      ],
      "source_name": "TechCrunch",
      "source_url": "https://techcrunch.com/2026/03/30/ai-trust-adoption-poll-more-americans-adopt-tools-fewer-say-they-can-trust-the-results/",
      "published_at": "2026-03-30T00:00:00Z",
      "collected_at": "2026-03-31T03:10:00Z",
      "importance": 3,
      "merged_sources": []
    },
    {
      "id": "95a48935",
      "lang": "en",
      "title_en": "15% of Americans say they'd be willing to work for an AI boss, according to new poll",
      "title_zh": "调查：仅 15% 美国人愿意接受 AI 担任直属上司",
      "summary_en": "TechCrunch: A Quinnipiac University poll finds that only 15% of Americans say they'd be willing to have an AI program as their direct workplace supervisor, highlighting widespread hesitancy toward AI authority in professional settings.",
      "summary_zh": "TechCrunch：昆尼皮亚克大学民调显示，仅 15% 的美国人表示愿意接受 AI 程序担任直属上司，反映公众对 AI 在职场中行使管理权力仍持普遍观望态度。",
      "tags": [
        "行业观察"
      ],
      "source_name": "TechCrunch",
      "source_url": "https://techcrunch.com/2026/03/30/ai-work-boss-supervisor-us-quinnipiac-poll/",
      "published_at": "2026-03-30T00:00:00Z",
      "collected_at": "2026-03-31T03:10:00Z",
      "importance": 2,
      "merged_sources": []
    },
    {
      "id": "599447a1",
      "lang": "en",
      "title_en": "Popular AI gateway startup LiteLLM ditches controversial startup Delve",
      "title_zh": "AI 网关 LiteLLM 与安全供应商 Delve 切断合作",
      "summary_en": "TechCrunch: LiteLLM, a widely-used AI gateway, severed its partnership with security compliance startup Delve after Delve was hit by credential-stealing malware last week, raising concerns about supply chain security risks in the AI tooling ecosystem.",
      "summary_zh": "TechCrunch：广泛使用的 AI 网关 LiteLLM 宣布终止与安全合规初创公司 Delve 的合作。Delve 上周遭凭据窃取恶意软件攻击，事件引发对 AI 工具供应链安全风险的广泛关注。",
      "tags": [
        "AI安全",
        "行业观察"
      ],
      "source_name": "TechCrunch",
      "source_url": "https://techcrunch.com/2026/03/30/popular-ai-gateway-startup-litellm-ditches-controversial-startup-delve/",
      "published_at": "2026-03-30T00:00:00Z",
      "collected_at": "2026-03-31T03:10:00Z",
      "importance": 3,
      "merged_sources": []
    },
    {
      "id": "b1274b04",
      "lang": "en",
      "title_en": "Mantis Biotech is making 'digital twins' of humans to help solve medicine's data availability problem",
      "title_zh": "Mantis Biotech 打造人体数字孪生，破解医疗数据稀缺难题",
      "summary_en": "TechCrunch: Mantis Biotech combines disparate health data to generate synthetic datasets representing human anatomy, physiology, and behavior as 'digital twins,' aiming to address medicine's chronic shortage of training data for AI-driven drug discovery and clinical research.",
      "summary_zh": "TechCrunch：Mantis Biotech 整合多源健康数据，生成人体解剖、生理与行为的合成数据集，构建「数字孪生」模型，旨在解决 AI 药物发现与临床研究中长期存在的数据稀缺问题。",
      "tags": [
        "医疗AI",
        "行业观察"
      ],
      "source_name": "TechCrunch",
      "source_url": "https://techcrunch.com/2026/03/30/mantis-biotech-is-making-digital-twins-of-humans-to-help-solve-medicines-data-availability-problem/",
      "published_at": "2026-03-30T00:00:00Z",
      "collected_at": "2026-03-31T03:10:00Z",
      "importance": 3,
      "merged_sources": []
    },
    {
      "id": "f904cc1f",
      "lang": "zh",
      "title_zh": "上海AI实验室发布AGI4S珠穆朗玛计划",
      "summary_zh": "上海人工智能实验室：在第二届浦江AI学术年会上发布面向重大科学突破的AGI for Science珠穆朗玛计划，旨在构建科学智能创新中枢。计划构建设施层-模型层-服务层-场景层全栈技术体系，包括DeepLink超智融合算力平台、Sciverse科学智能数据库及自主实验平台三大基础设施。同步启动攀登者计划2.0，构建从种子期到产业化的三级项目支持体系，并面向全球开放算力、数据、模型等全维度合作通道。",
      "tags": [
        "研究论文",
        "Agent"
      ],
      "source_name": "量子位",
      "source_url": "https://www.qbitai.com/2026/03/393344.html",
      "published_at": "2026-03-29T10:00:00Z",
      "collected_at": "2026-03-31T00:15:00Z",
      "importance": 3,
      "merged_sources": []
    }
  ]
}