{
  "latest_date": "2026-03-31",
  "updated_at": "2026-03-31T08:50:00Z",
  "dates": [
    "2026-03-31",
    "2026-03-30",
    "2026-03-29",
    "2026-03-28",
    "2026-03-26",
    "2026-03-25",
    "2026-03-24",
    "2026-03-23",
    "2026-03-22",
    "2026-03-21",
    "2026-03-20",
    "2026-03-19",
    "2026-03-18",
    "2026-03-17",
    "2026-03-16",
    "2026-03-15",
    "2026-03-14",
    "2026-03-13",
    "2026-03-12",
    "2026-03-11",
    "2026-03-10",
    "2026-03-09",
    "2026-03-08",
    "2026-03-07",
    "2026-03-06",
    "2026-03-05"
  ],
  "total_items": 298,
  "page": 2,
  "page_size": 20,
  "total_pages": 15,
  "items": [
    {
      "id": "7896db99",
      "lang": "zh",
      "title_zh": "DeepSeek网页版大升级后宕机11小时，被解读为新模型前兆",
      "summary_zh": "DeepSeek：DeepSeek网页版在3月29日出现大规模宕机，持续超过8小时并登上热搜。宕机前大量用户报告模型能力大幅提升，经典SVG绘图任务的构图和色彩明显改善，且模型开始稳定自报为DeepSeek-V3。DeepSeek此前已有多次不预告静默升级记录，此次宕机被业界普遍解读为新版本模型上线的前兆。",
      "tags": [
        "产品发布"
      ],
      "source_name": "量子位",
      "source_url": "https://www.qbitai.com/2026/03/393235.html",
      "published_at": "2026-03-30T03:30:00Z",
      "collected_at": "2026-03-31T00:15:00Z",
      "importance": 3,
      "merged_sources": []
    },
    {
      "id": "b38989c1",
      "lang": "zh",
      "title_zh": "全球OCR新王来自中国开源！PaddleOCR GitHub狂揽73300+Star",
      "summary_zh": "百度：PaddleOCR以73300+Star登顶GitHub全球OCR项目榜，终结谷歌Tesseract OCR近40年的霸榜地位。同步在Hugging Face长期位居OCR与文档解析领域头部。此次升级官网免费每日解析页数从1万提升至2万，并发布PaddleOCR OCEAN生态联盟，面向核心贡献者、企业用户、模型托管平台及硬件厂商开放合作。",
      "tags": [
        "开源",
        "产品发布"
      ],
      "source_name": "量子位",
      "source_url": "https://www.qbitai.com/2026/03/393433.html",
      "published_at": "2026-03-30T03:00:00Z",
      "collected_at": "2026-03-31T00:15:00Z",
      "importance": 3,
      "merged_sources": []
    },
    {
      "id": "7e0f12eb",
      "lang": "zh",
      "title_zh": "阿里发布Qwen3.5-Omni，多模态能力超越Gemini-3.1 Pro",
      "summary_zh": "阿里巴巴：阿里发布千问新一代全模态大模型Qwen3.5-Omni，在音视频理解、识别、交互等215项第三方测试任务中取得SOTA，超越Gemini-3.1 Pro。新模型采用混合注意力MoE架构，支持113种语言及方言语音识别、36种语言语音生成，具备音视频Vibe Coding能力，API定价每百万Tokens输入不到0.8元。目前已在阿里云百炼平台上线Plus、Flash、Light三个版本，普通用户可通过Qwen Chat免费体验。",
      "tags": [
        "产品发布",
        "多模态"
      ],
      "source_name": "量子位",
      "source_url": "https://www.qbitai.com/2026/03/393460.html",
      "published_at": "2026-03-30T02:00:00Z",
      "collected_at": "2026-03-31T00:15:00Z",
      "importance": 4,
      "merged_sources": []
    },
    {
      "id": "73970da2",
      "lang": "en",
      "title_en": "All the latest in AI 'music'",
      "title_zh": "AI「音乐」最新动态：Bandcamp 封禁 AI 内容、Suno 发布 v5.5",
      "summary_en": "The Verge: A roundup of the latest in AI-generated music: Bandcamp becomes the first major platform to ban AI content; Suno releases v5.5 with voice cloning and personalization; musicians push back against AI audio clones; and a study finds 97% of people struggle to identify AI-made music.",
      "summary_zh": "The Verge：AI 音乐领域最新动态汇总：Bandcamp 成为首个封禁 AI 内容的主要音乐平台；Suno 发布 v5.5，支持用户声音克隆与个性化；音乐人持续抵制 AI 音频克隆；研究显示97%的人难以识别 AI 生成音乐。",
      "tags": [
        "AI音乐",
        "版权",
        "AI应用"
      ],
      "source_name": "The Verge",
      "source_url": "https://www.theverge.com/ai-artificial-intelligence/903196/ai-music-suno-udio-art-lawsuit",
      "published_at": "2026-03-30T01:32:14Z",
      "collected_at": "2026-03-30T03:08:00Z",
      "importance": 3,
      "merged_sources": []
    },
    {
      "id": "8022be03",
      "lang": "en",
      "title_en": "The Sudden Fall of OpenAI's Most Hyped Product Since ChatGPT",
      "title_zh": "OpenAI 最受期待产品的意外落幕：Sora 为何沉寂",
      "summary_en": "Hacker News (via WSJ): A Wall Street Journal investigation into the sudden decline of Sora, OpenAI's AI video generation tool once billed as its biggest product since ChatGPT. The story traces internal priorities, competitive pressure from Kling and other players, and OpenAI's pivot toward other revenue streams.",
      "summary_zh": "Hacker News（WSJ）：《华尔街日报》深度调查 Sora 的意外没落——这款曾被誉为 OpenAI 继 ChatGPT 后最受期待产品的 AI 视频生成工具，因内部优先级调整、Kling 等竞品压力及 OpenAI 向其他收入来源转型而迅速沉寂。",
      "tags": [
        "OpenAI",
        "AI视频",
        "产品策略"
      ],
      "source_name": "Hacker News",
      "source_url": "https://www.wsj.com/tech/ai/the-sudden-fall-of-openais-most-hyped-product-since-chatgpt",
      "published_at": "2026-03-30T01:23:17Z",
      "collected_at": "2026-03-30T03:08:00Z",
      "importance": 4,
      "merged_sources": []
    },
    {
      "id": "b0489665",
      "lang": "zh",
      "title_zh": "Agentic AI 安全指南：龙虾如何被三层硬核架构「焊死」",
      "summary_zh": "量子位：随着高权限 AI 代理应用爆发，本文提供一份面向开发者的 Agentic AI 安全实战指南，深入剖析自主性失控的根源，并介绍三层硬核安全架构：过程黑箱穿透、价值对齐保障与权限最小化原则，帮助开发者在生产环境中构建可控、可审计的 AI 代理系统。",
      "tags": [
        "AI安全",
        "AI代理",
        "开发者工具"
      ],
      "source_name": "量子位",
      "source_url": "https://www.qbitai.com/2026/03/393226.html",
      "published_at": "2026-03-30T00:41:45Z",
      "collected_at": "2026-03-30T03:08:00Z",
      "importance": 4,
      "merged_sources": []
    },
    {
      "id": "729eb8ee",
      "lang": "en",
      "title_en": "ScaleOps raises $130M to improve computing efficiency amid AI demand",
      "title_zh": "ScaleOps 融资 1.3 亿美元，自动化优化 AI 基础设施效率",
      "summary_en": "TechCrunch: ScaleOps raised $130M in a Series C round to tackle GPU shortages and soaring AI cloud costs by automating Kubernetes infrastructure optimization in real time, helping companies reduce compute waste amid surging AI workload demand.",
      "summary_zh": "TechCrunch：ScaleOps 完成 1.3 亿美元 C 轮融资，通过实时自动化 Kubernetes 基础设施优化，帮助企业应对 AI 需求激增带来的 GPU 短缺与云计算成本飙升问题，减少计算资源浪费。",
      "tags": [
        "融资",
        "AI基础设施"
      ],
      "source_name": "TechCrunch",
      "source_url": "https://techcrunch.com/2026/03/30/scaleops-130m-series-c-kubernetes-efficiency-ai-demand-funding/",
      "published_at": "2026-03-30T00:00:00Z",
      "collected_at": "2026-03-31T03:10:00Z",
      "importance": 3,
      "merged_sources": []
    },
    {
      "id": "198ab0ea",
      "lang": "en",
      "title_en": "Starcloud raises $170 million Series A to build data centers in space",
      "title_zh": "Starcloud 完成 1.7 亿美元 A 轮融资，计划建造太空数据中心",
      "summary_en": "TechCrunch: Starcloud raised $170M in a Series A round to build AI data centers in space, becoming the fastest Y Combinator startup to reach unicorn status just 17 months after demo day. The company aims to leverage orbital infrastructure to meet surging AI compute demand.",
      "summary_zh": "TechCrunch：Starcloud 完成 1.7 亿美元 A 轮融资，计划在太空建造 AI 数据中心，成为 YC 史上最快达到独角兽估值的初创公司（Demo Day 后仅 17 个月）。公司旨在通过轨道基础设施满足 AI 算力需求。",
      "tags": [
        "融资",
        "AI基础设施"
      ],
      "source_name": "TechCrunch",
      "source_url": "https://techcrunch.com/2026/03/30/starcloud-raises-170-million-series-ato-build-data-centers-in-space/",
      "published_at": "2026-03-30T00:00:00Z",
      "collected_at": "2026-03-31T03:10:00Z",
      "importance": 3,
      "merged_sources": []
    },
    {
      "id": "7012a6b0",
      "lang": "en",
      "title_en": "As more Americans adopt AI tools, fewer say they can trust the results",
      "title_zh": "美国 AI 使用率上升，但信任度反而下滑",
      "summary_en": "TechCrunch: A new poll finds that AI adoption is rising across the U.S., but trust in AI outputs is declining simultaneously. Most Americans remain concerned about AI transparency, regulation, and the technology's broader societal impact despite increased usage.",
      "summary_zh": "TechCrunch：最新民调显示，美国 AI 工具使用率持续上升，但用户对 AI 结果的信任度却同步下降。多数美国人对 AI 的透明度、监管及其社会影响表示担忧。",
      "tags": [
        "行业观察",
        "AI治理"
      ],
      "source_name": "TechCrunch",
      "source_url": "https://techcrunch.com/2026/03/30/ai-trust-adoption-poll-more-americans-adopt-tools-fewer-say-they-can-trust-the-results/",
      "published_at": "2026-03-30T00:00:00Z",
      "collected_at": "2026-03-31T03:10:00Z",
      "importance": 3,
      "merged_sources": []
    },
    {
      "id": "95a48935",
      "lang": "en",
      "title_en": "15% of Americans say they'd be willing to work for an AI boss, according to new poll",
      "title_zh": "调查：仅 15% 美国人愿意接受 AI 担任直属上司",
      "summary_en": "TechCrunch: A Quinnipiac University poll finds that only 15% of Americans say they'd be willing to have an AI program as their direct workplace supervisor, highlighting widespread hesitancy toward AI authority in professional settings.",
      "summary_zh": "TechCrunch：昆尼皮亚克大学民调显示，仅 15% 的美国人表示愿意接受 AI 程序担任直属上司，反映公众对 AI 在职场中行使管理权力仍持普遍观望态度。",
      "tags": [
        "行业观察"
      ],
      "source_name": "TechCrunch",
      "source_url": "https://techcrunch.com/2026/03/30/ai-work-boss-supervisor-us-quinnipiac-poll/",
      "published_at": "2026-03-30T00:00:00Z",
      "collected_at": "2026-03-31T03:10:00Z",
      "importance": 2,
      "merged_sources": []
    },
    {
      "id": "599447a1",
      "lang": "en",
      "title_en": "Popular AI gateway startup LiteLLM ditches controversial startup Delve",
      "title_zh": "AI 网关 LiteLLM 与安全供应商 Delve 切断合作",
      "summary_en": "TechCrunch: LiteLLM, a widely-used AI gateway, severed its partnership with security compliance startup Delve after Delve was hit by credential-stealing malware last week, raising concerns about supply chain security risks in the AI tooling ecosystem.",
      "summary_zh": "TechCrunch：广泛使用的 AI 网关 LiteLLM 宣布终止与安全合规初创公司 Delve 的合作。Delve 上周遭凭据窃取恶意软件攻击，事件引发对 AI 工具供应链安全风险的广泛关注。",
      "tags": [
        "AI安全",
        "行业观察"
      ],
      "source_name": "TechCrunch",
      "source_url": "https://techcrunch.com/2026/03/30/popular-ai-gateway-startup-litellm-ditches-controversial-startup-delve/",
      "published_at": "2026-03-30T00:00:00Z",
      "collected_at": "2026-03-31T03:10:00Z",
      "importance": 3,
      "merged_sources": []
    },
    {
      "id": "b1274b04",
      "lang": "en",
      "title_en": "Mantis Biotech is making 'digital twins' of humans to help solve medicine's data availability problem",
      "title_zh": "Mantis Biotech 打造人体数字孪生，破解医疗数据稀缺难题",
      "summary_en": "TechCrunch: Mantis Biotech combines disparate health data to generate synthetic datasets representing human anatomy, physiology, and behavior as 'digital twins,' aiming to address medicine's chronic shortage of training data for AI-driven drug discovery and clinical research.",
      "summary_zh": "TechCrunch：Mantis Biotech 整合多源健康数据，生成人体解剖、生理与行为的合成数据集，构建「数字孪生」模型，旨在解决 AI 药物发现与临床研究中长期存在的数据稀缺问题。",
      "tags": [
        "医疗AI",
        "行业观察"
      ],
      "source_name": "TechCrunch",
      "source_url": "https://techcrunch.com/2026/03/30/mantis-biotech-is-making-digital-twins-of-humans-to-help-solve-medicines-data-availability-problem/",
      "published_at": "2026-03-30T00:00:00Z",
      "collected_at": "2026-03-31T03:10:00Z",
      "importance": 3,
      "merged_sources": []
    },
    {
      "id": "242e2cb7",
      "lang": "en",
      "title_en": "Hamilton-Jacobi-Bellman Equation: Reinforcement Learning and Diffusion Models",
      "title_zh": "HJB方程：强化学习与扩散模型的理论统一",
      "summary_en": "Research: A blog post exploring the connection between the Hamilton-Jacobi-Bellman equation, reinforcement learning, and diffusion models. The post details how HJB-based optimal control theory underpins modern RL algorithms and draws parallels with score-matching in diffusion models, offering a unified theoretical perspective.",
      "summary_zh": "研究：深入解析Hamilton-Jacobi-Bellman方程在强化学习与扩散模型中的联系。文章详述HJB最优控制理论如何支撑现代RL算法，并与扩散模型的分数匹配方法类比，为两个领域提供统一理论视角。",
      "tags": [
        "研究论文",
        "推理"
      ],
      "source_name": "Hacker News",
      "source_url": "https://dani2442.github.io/posts/continuous-rl/",
      "published_at": "2026-03-30T00:00:00Z",
      "collected_at": "2026-03-30T09:00:00Z",
      "importance": 2,
      "merged_sources": []
    },
    {
      "id": "9b595f4a",
      "lang": "en",
      "title_en": "I am definitely missing the pre-AI writing era",
      "title_zh": "AI时代让我怀念前AI写作",
      "summary_en": "Commentary: A LessWrong essay reflecting on the loss of authentic human writing as AI-generated content becomes ubiquitous. The author argues that the distinct voice, imperfection, and effort embedded in pre-AI writing carried intrinsic value now increasingly diluted by mass AI-produced text.",
      "summary_zh": "评论：LessWrong文章探讨AI写作泛滥后，人类原创写作的独特价值正在流失。作者认为，前AI时代的写作蕴含真实个人声音与思考努力，这种内在价值正被批量生成的AI内容稀释。",
      "tags": [
        "安全对齐"
      ],
      "source_name": "Hacker News",
      "source_url": "https://www.lesswrong.com/posts/BJ4pnropWdnzzgeJc/i-am-definitely-missing-the-pre-ai-writing-era",
      "published_at": "2026-03-30T00:00:00Z",
      "collected_at": "2026-03-30T09:00:00Z",
      "importance": 2,
      "merged_sources": []
    },
    {
      "id": "dad8c4a0",
      "lang": "en",
      "title_en": "AI and bots have officially taken over the internet",
      "title_zh": "AI机器人流量正式超越人类互联网流量",
      "summary_en": "HUMAN Security: HUMAN Security's State of AI Traffic report found that automated bot traffic now eclipses human traffic online, growing eight times faster than human browsing activity. The report highlights rising concerns over AI-driven scraping, fraud, and content manipulation at scale.",
      "summary_zh": "HUMAN Security：HUMAN Security发布AI流量状态报告，显示自动化机器人流量已正式超越人类网络流量，增速是人类浏览的8倍。报告警示AI驱动的爬虫、欺诈及内容操控行为正大规模蔓延。",
      "tags": [
        "安全对齐",
        "Agent"
      ],
      "source_name": "Hacker News",
      "source_url": "https://www.cnbc.com/2026/03/26/ai-bots-humans-internet.html",
      "published_at": "2026-03-30T00:00:00Z",
      "collected_at": "2026-03-30T09:00:00Z",
      "importance": 3,
      "merged_sources": []
    },
    {
      "id": "94b4f49f",
      "lang": "zh",
      "title_zh": "整个公司一起吃虾！这个开源项目，让OpenClaw实现企业级部署",
      "summary_zh": "量子位：一个开源项目实现了OpenClaw的企业级规模化部署，解决了多用户权限管理、资源配额、审计能力等核心挑战，使团队可共享同一套AI助手基础设施，大幅降低企业批量使用门槛。",
      "tags": [
        "开源",
        "产品发布"
      ],
      "source_name": "量子位",
      "source_url": "https://www.qbitai.com/2026/03/393382.html",
      "published_at": "2026-03-30T00:00:00Z",
      "collected_at": "2026-03-30T09:00:00Z",
      "importance": 3,
      "merged_sources": []
    },
    {
      "id": "aab74fb8",
      "lang": "zh",
      "title_zh": "「杭州六小龙」第一股来了！年入8亿冲刺港股IPO",
      "summary_zh": "量子位：群核科技（Coohom）已通过港交所上市聆讯，成为「杭州AI六小龙」中率先冲击资本市场的公司。该公司由浙大校友创立，专注3D空间智能与设计软件，年收入约8亿元人民币，目前处于上市最后阶段。",
      "tags": [
        "融资"
      ],
      "source_name": "量子位",
      "source_url": "https://www.qbitai.com/2026/03/393419.html",
      "published_at": "2026-03-30T00:00:00Z",
      "collected_at": "2026-03-30T09:00:00Z",
      "importance": 3,
      "merged_sources": []
    },
    {
      "id": "48825272",
      "lang": "zh",
      "title_zh": "美国开源AI最后的旗帜，也倒了",
      "summary_zh": "量子位：艾伦人工智能研究所（Ai2）宣布削减开源大模型OLMo的研发资金，转向AI应用开发。此举被视为美国学术主导的开源大模型运动的重大挫折，标志着非商业开源AI阵营持续收缩。",
      "tags": [
        "开源",
        "政策监管"
      ],
      "source_name": "量子位",
      "source_url": "https://www.qbitai.com/2026/03/393395.html",
      "published_at": "2026-03-30T00:00:00Z",
      "collected_at": "2026-03-30T09:00:00Z",
      "importance": 4,
      "merged_sources": []
    },
    {
      "id": "3fa01e97",
      "lang": "zh",
      "title_zh": "人类越犹豫，这个大模型越有优势",
      "summary_zh": "量子位：一款专注预测任务的大模型在Chatbot Arena评测中以Elo 1034.2分霸榜，领先Gemini和Claude等主流模型。该模型在人类判断不确定时表现出显著优势，擅长捕捉模糊情境下的隐含规律。",
      "tags": [
        "评测基准",
        "推理"
      ],
      "source_name": "量子位",
      "source_url": "https://www.qbitai.com/2026/03/393353.html",
      "published_at": "2026-03-30T00:00:00Z",
      "collected_at": "2026-03-30T09:00:00Z",
      "importance": 3,
      "merged_sources": []
    },
    {
      "id": "f904cc1f",
      "lang": "zh",
      "title_zh": "上海AI实验室发布AGI4S珠穆朗玛计划，推出InternThinker推理模型",
      "summary_zh": "量子位：上海AI实验室发布「AGI4S珠穆朗玛计划」，宣布构建中国科学智能创新中枢，并推出强推理模型书生InternThinker。该模型具备长思维链与自我反思纠错能力，在数学解题、编程及数字游戏等复杂任务中表现突出。",
      "tags": [
        "产品发布",
        "推理"
      ],
      "source_name": "量子位",
      "source_url": "https://www.qbitai.com/2026/03/393344.html",
      "published_at": "2026-03-30T00:00:00Z",
      "collected_at": "2026-03-30T09:00:00Z",
      "importance": 4,
      "merged_sources": []
    }
  ]
}