{
  "latest_date": "2026-04-06",
  "updated_at": "2026-04-06T15:08:00Z",
  "dates": [
    "2026-04-06",
    "2026-04-05",
    "2026-04-04",
    "2026-04-03",
    "2026-04-02",
    "2026-04-01",
    "2026-03-31",
    "2026-03-30",
    "2026-03-29",
    "2026-03-28",
    "2026-03-26",
    "2026-03-25",
    "2026-03-24",
    "2026-03-23",
    "2026-03-22",
    "2026-03-21",
    "2026-03-20",
    "2026-03-19",
    "2026-03-18",
    "2026-03-17",
    "2026-03-16",
    "2026-03-15",
    "2026-03-14",
    "2026-03-13",
    "2026-03-12",
    "2026-03-11",
    "2026-03-10",
    "2026-03-09",
    "2026-03-08",
    "2026-03-07",
    "2026-03-06",
    "2026-03-05"
  ],
  "total_items": 460,
  "page": 17,
  "page_size": 20,
  "total_pages": 23,
  "items": [
    {
      "id": "12f145df",
      "lang": "zh",
      "title_zh": "又一华为天才少年入局具身创业！用视频生成数据训家用机器人，首个模型登顶具身基模榜单",
      "summary_zh": "量子位：华为诺亚方舟实验室前研究员周凯文创办具身智能公司，采用视频生成合成数据方式训练家用机器人，首个发布模型即登顶具身基础模型榜单。该公司半年内完成三轮融资，被视为具身智能赛道又一重量级选手入场。",
      "tags": [
        "具身智能",
        "创业融资"
      ],
      "source_name": "量子位",
      "source_url": "https://www.qbitai.com/2026/03/391668.html",
      "published_at": "2026-03-24T01:00:00Z",
      "collected_at": "2026-03-24T09:05:00Z",
      "importance": 4,
      "merged_sources": []
    },
    {
      "id": "28f46213",
      "lang": "zh",
      "title_zh": "Claude Code新增Computer Use能力！GUI操控电脑和真人无差别",
      "summary_zh": "量子位：Anthropic为Claude Code升级了Computer Use能力，使其可通过实时截图看到屏幕内容，并像真人一样模拟鼠标键盘操作。无需API接口或CLI改造，任何传统软件（包括Photoshop、视频剪辑等）都纳入Agent操控范围，被视为对开源竞品的精准反击，公司估值随之暴涨300%。",
      "tags": [
        "产品发布",
        "AI编程"
      ],
      "source_name": "量子位",
      "source_url": "https://www.qbitai.com/2026/03/391567.html",
      "published_at": "2026-03-24T00:00:00Z",
      "collected_at": "2026-03-24T03:00:00Z",
      "importance": 5,
      "merged_sources": []
    },
    {
      "id": "b4c1ffd8",
      "lang": "zh",
      "title_zh": "OpenClaw 2026.3.22-beta.1发布：插件安全大升级",
      "summary_zh": "量子位：OpenClaw发布新版本2026.3.22-beta.1，带来史上最大插件安全升级：统一ClawHub插件分发、引入运行时注入机制、新增原生SSH沙盒支持，并全面优化安卓移动端与社交媒体集成。官方提醒已接入微信集成的用户需谨慎升级以避免兼容性问题。",
      "tags": [
        "产品发布",
        "AI工具"
      ],
      "source_name": "量子位",
      "source_url": "https://www.qbitai.com/2026/03/391520.html",
      "published_at": "2026-03-24T00:00:00Z",
      "collected_at": "2026-03-24T03:00:00Z",
      "importance": 3,
      "merged_sources": []
    },
    {
      "id": "1cddf2bd",
      "lang": "en",
      "title_en": "LiteLLM Python package compromised by supply-chain attack",
      "title_zh": "LiteLLM Python 包遭受供应链攻击",
      "summary_en": "Hacker News: The popular LiteLLM Python package was compromised through a supply-chain attack. LiteLLM is widely used for routing AI model API calls across providers. Users are advised to audit their dependencies and update to a safe version immediately.",
      "summary_zh": "Hacker News：广泛用于 AI 模型 API 路由的 Python 包 LiteLLM 遭受供应链攻击，代码被篡改。用户被建议立即审查依赖并升级到安全版本。",
      "tags": [
        "安全",
        "开源"
      ],
      "source_name": "Hacker News",
      "source_url": "https://github.com/BerriAI/litellm/issues/24512",
      "published_at": "2026-03-24T00:00:00Z",
      "collected_at": "2026-03-24T15:00:00Z",
      "importance": 4,
      "merged_sources": []
    },
    {
      "id": "ba73106b",
      "lang": "en",
      "title_en": "So where are all the AI apps?",
      "title_zh": "AI 应用都在哪里？",
      "summary_en": "Hacker News: Answer.AI poses the question of why truly transformative AI-native consumer applications remain scarce despite the rapid advancement of foundation models. The essay explores the gap between model capabilities and real-world application development, and what might be needed to bridge it.",
      "summary_zh": "Hacker News：Answer.AI 探讨了尽管基础模型快速发展，但真正变革性的 AI 原生消费应用为何依然稀缺，分析了模型能力与实际应用开发之间的差距。",
      "tags": [
        "行业观察",
        "AI Agent"
      ],
      "source_name": "Hacker News",
      "source_url": "https://www.answer.ai/posts/2026-03-12-so-where-are-all-the-ai-apps.html",
      "published_at": "2026-03-24T00:00:00Z",
      "collected_at": "2026-03-24T15:00:00Z",
      "importance": 3,
      "merged_sources": []
    },
    {
      "id": "40f44cee",
      "lang": "en",
      "title_en": "LLM Neuroanatomy II: Modern LLM Hacking and Hints of a Universal Language?",
      "title_zh": "LLM 神经解剖学 II：现代 LLM 破解与通用语言的线索",
      "summary_en": "Hacker News: This research post explores interpretability in large language models through the lens of 'neuroanatomy', examining how modern LLMs process information internally and presenting evidence suggesting the possible existence of universal representational structures across different models.",
      "summary_zh": "Hacker News：本研究从「神经解剖学」视角探索大型语言模型的可解释性，分析 LLM 内部信息处理机制，并提出不同模型间可能存在通用表征结构的证据。",
      "tags": [
        "可解释性",
        "研究"
      ],
      "source_name": "Hacker News",
      "source_url": "https://dnhkng.github.io/posts/rys-ii/",
      "published_at": "2026-03-24T00:00:00Z",
      "collected_at": "2026-03-24T15:00:00Z",
      "importance": 3,
      "merged_sources": []
    },
    {
      "id": "cea750e1",
      "lang": "en",
      "title_en": "AI boom risks widening wealth divide, says BlackRock's Larry Fink",
      "title_zh": "贝莱德CEO芬克：AI繁荣可能加剧贫富分化",
      "summary_en": "The Guardian: BlackRock CEO Larry Fink warned in his annual letter that the AI boom risks significantly widening wealth inequality. He called on companies and policymakers to ensure AI productivity gains are broadly shared, or risk severe social and political backlash.",
      "summary_zh": "The Guardian：贝莱德CEO拉里·芬克在年度致股东信中警告，AI繁荣可能大幅加剧贫富不均，呼吁企业和政策制定者确保AI生产力红利广泛普惠，否则将面临严重的社会和政治反弹。",
      "tags": [
        "产业动态",
        "政策法规"
      ],
      "source_name": "Hacker News",
      "source_url": "https://www.theguardian.com/technology/2026/mar/23/ai-boom-risks-widening-wealth-divide-blackrock-larry-fink",
      "published_at": "2026-03-23T23:32:00Z",
      "collected_at": "2026-03-24T03:00:00Z",
      "importance": 3,
      "merged_sources": []
    },
    {
      "id": "7befec30",
      "lang": "en",
      "title_en": "Air Street becomes one of the largest solo VCs in Europe with $232M fund",
      "title_zh": "Air Street 完成 2.32 亿美元基金，成欧洲最大 AI 专项 VC 之一",
      "summary_en": "TechCrunch: London-based Air Street Capital closed a $232M Fund III focused exclusively on early-stage AI companies in Europe and North America. The fund signals continued strong investor appetite for AI infrastructure and applied AI startups despite market volatility.",
      "summary_zh": "TechCrunch：伦敦 AI 专项风投 Air Street Capital 完成 2.32 亿美元第三期基金，专注欧洲和北美早期 AI 创业公司。这一规模使其成为欧洲最大的单人管理 AI 风险基金之一，显示资本对 AI 赛道仍保持高度热情。",
      "tags": [
        "投资融资",
        "AI生态"
      ],
      "source_name": "TechCrunch",
      "source_url": "https://techcrunch.com/2026/03/23/air-street-becomes-one-of-the-largest-solo-vcs-in-europe-with-232m-fund/",
      "published_at": "2026-03-23T22:36:39Z",
      "collected_at": "2026-03-24T00:00:00Z",
      "importance": 3,
      "merged_sources": []
    },
    {
      "id": "d0c04e26",
      "lang": "en",
      "title_en": "GSA extends comments on AI clause after industry pushback",
      "title_zh": "行业反弹后，美国 GSA 延长 AI 条款意见征集期",
      "summary_en": "Hacker News: The U.S. General Services Administration extended its public comment period on a sweeping AI contract clause after significant pushback from industry groups, who argued the requirements were overly burdensome for AI vendors doing business with the federal government.",
      "summary_zh": "Hacker News：美国总务管理局（GSA）在收到行业团体强烈反对后，延长了一项涵盖广泛 AI 合同条款的公众意见征集期。行业方认为相关要求对与联邦政府合作的 AI 企业过于苛刻。",
      "tags": [
        "AI政策",
        "监管"
      ],
      "source_name": "Hacker News",
      "source_url": "https://fedscoop.com/gsa-extends-comments-on-sweeping-ai-clause-after-industry-pushback/",
      "published_at": "2026-03-23T22:29:09Z",
      "collected_at": "2026-03-24T00:00:00Z",
      "importance": 3,
      "merged_sources": []
    },
    {
      "id": "767903a7",
      "lang": "zh",
      "title_zh": "阿里在海外上了个企业级龙虾，我用它30分钟手搓了一家网店",
      "summary_zh": "量子位：阿里巴巴在海外推出面向中小企业的AI Agent平台，整合选品、营销、客服等多个Agent，可30分钟内搭建完整网店，直连供应商，支持Telegram/Discord实时更新，旨在帮助全球用户低门槛创业。",
      "tags": [
        "产品发布",
        "AI Agent"
      ],
      "source_name": "量子位",
      "source_url": "https://www.qbitai.com/2026/03/391584.html",
      "published_at": "2026-03-23T22:00:00Z",
      "collected_at": "2026-03-24T09:05:00Z",
      "importance": 3,
      "merged_sources": []
    },
    {
      "id": "7204a8f0",
      "lang": "en",
      "title_en": "Claude Code Cheat Sheet",
      "title_zh": "Claude Code 速查手册上线",
      "summary_en": "Hacker News: A community-contributed Claude Code cheat sheet surfaced on Hacker News, consolidating key commands, workflows, and tips for using Anthropic's Claude Code agentic coding tool. The resource quickly gained traction among developers integrating Claude Code into daily workflows.",
      "summary_zh": "Hacker News：一份社区整理的 Claude Code 速查手册在 Hacker News 走红，汇聚了 Anthropic 编程代理工具 Claude Code 的核心命令、工作流与使用技巧，受到广泛开发者关注。",
      "tags": [
        "AI工具",
        "Anthropic",
        "代码生成"
      ],
      "source_name": "Hacker News",
      "source_url": "https://cc.storyfox.cz",
      "published_at": "2026-03-23T21:44:20Z",
      "collected_at": "2026-03-24T00:00:00Z",
      "importance": 2,
      "merged_sources": []
    },
    {
      "id": "8dbaa11d",
      "lang": "en",
      "title_en": "Flipper Zero gets an AI upgrade",
      "title_zh": "Flipper Zero 获得 AI 能力升级",
      "summary_en": "Hacker News: Flipper Zero, the popular open-source multi-tool hacking device, has received an AI-powered upgrade that adds natural language command processing and automated protocol analysis. The integration allows users to describe attack scenarios in plain language, lowering the barrier for security research and testing.",
      "summary_zh": "Hacker News：广受欢迎的开源多功能安全工具 Flipper Zero 获得 AI 升级，新增自然语言命令处理与自动协议分析功能。用户可用日常语言描述测试场景，进一步降低安全研究的门槛。",
      "tags": [
        "AI工具",
        "安全",
        "AI应用"
      ],
      "source_name": "Hacker News",
      "source_url": "https://gizmodo.com/flipper-zero-everyones-favorite-legally-dubious-hacker-tool-gets-an-ai-upgrade-2000736967",
      "published_at": "2026-03-23T20:56:48Z",
      "collected_at": "2026-03-24T00:00:00Z",
      "importance": 2,
      "merged_sources": []
    },
    {
      "id": "55acb1bc",
      "lang": "en",
      "title_en": "How I'm Productive with Claude Code",
      "title_zh": "开发者实战：如何用 Claude Code 提升生产力",
      "summary_en": "Hacker News: A developer shared a detailed workflow post on how they effectively use Claude Code for daily engineering tasks, including prompt strategies, task scoping, and debugging patterns. The post gained significant engagement as practical, experience-driven guidance on agentic coding tools.",
      "summary_zh": "Hacker News：一位开发者分享了在日常工程任务中高效使用 Claude Code 的实战工作流，涵盖提示策略、任务拆解和调试模式，因其实践导向而获得大量关注。",
      "tags": [
        "AI工具",
        "代码生成",
        "Anthropic"
      ],
      "source_name": "Hacker News",
      "source_url": "https://neilkakkar.com/productive-with-claude-code.html",
      "published_at": "2026-03-23T20:49:10Z",
      "collected_at": "2026-03-24T00:00:00Z",
      "importance": 2,
      "merged_sources": []
    },
    {
      "id": "832385b8",
      "lang": "en",
      "title_en": "OpenAI is building a fully automated researcher",
      "title_zh": "OpenAI 正在打造全自动化科研代理",
      "summary_en": "Hacker News: MIT Technology Review reported that OpenAI is investing heavily in building a fully automated AI researcher capable of independently conducting experiments, reviewing literature, and generating novel hypotheses. The project represents a key step in OpenAI's roadmap toward AI systems that can contribute to scientific discovery autonomously.",
      "summary_zh": "Hacker News：MIT Technology Review 报道，OpenAI 正大力投入研发全自动化 AI 科研代理，该系统可独立开展实验、检索文献并提出新假设。这是 OpenAI 通向自主科学发现路线图上的关键一步。",
      "tags": [
        "OpenAI",
        "AI研究",
        "代理"
      ],
      "source_name": "Hacker News",
      "source_url": "https://www.technologyreview.com/2026/03/20/1134438/openai-is-throwing-everything-into-building-a-fully-automated-researcher/",
      "published_at": "2026-03-23T20:43:30Z",
      "collected_at": "2026-03-24T00:00:00Z",
      "importance": 4,
      "merged_sources": []
    },
    {
      "id": "de93a185",
      "lang": "en",
      "title_en": "LLMs learn what programmers create, not how programmers work",
      "title_zh": "LLM 学的是程序员的产出，而非工作方式",
      "summary_en": "Hacker News: A widely discussed Hacker News thread examined the fundamental limitation that LLMs are trained on code artifacts—commits, files, documentation—rather than the iterative, exploratory process of how programmers actually think and work. This gap may explain persistent failure modes in AI-assisted development.",
      "summary_zh": "Hacker News：一篇热门讨论指出，LLM 是从代码产物（提交记录、文件、文档）中学习的，而非程序员实际的探索性思维过程，这一根本差距或许解释了 AI 辅助编程中持续出现的失效模式。",
      "tags": [
        "LLM",
        "代码生成",
        "AI研究"
      ],
      "source_name": "Hacker News",
      "source_url": "https://news.ycombinator.com/item?id=47494696",
      "published_at": "2026-03-23T20:31:48Z",
      "collected_at": "2026-03-24T00:00:00Z",
      "importance": 3,
      "merged_sources": []
    },
    {
      "id": "b97ff49b",
      "lang": "en",
      "title_en": "Bernie Sanders AI gotcha video flops but the memes are great",
      "title_zh": "伯尼·桑德斯 AI 整蛊视频翻车，反成表情包素材",
      "summary_en": "TechCrunch: A political AI-generated video attempting to embarrass Bernie Sanders backfired, generating mockery rather than the intended controversy. The incident highlights ongoing public skepticism toward AI-generated political content and the difficulty of deploying deepfakes effectively in political contexts.",
      "summary_zh": "TechCrunch：一段试图用 AI 生成视频整蛊桑德斯的尝试以失败告终，视频本身反而变成被广泛传播的表情包。此事件折射出公众对 AI 政治内容的高度警惕，以及深度伪造在政治场景中难以奏效的现实。",
      "tags": [
        "AI伦理",
        "深度伪造"
      ],
      "source_name": "TechCrunch",
      "source_url": "https://techcrunch.com/2026/03/23/bernie-sanders-ai-gotcha-video-flops-but-the-memes-are-great/",
      "published_at": "2026-03-23T20:15:59Z",
      "collected_at": "2026-03-24T00:00:00Z",
      "importance": 2,
      "merged_sources": []
    },
    {
      "id": "db49c0f4",
      "lang": "en",
      "title_en": "Elizabeth Warren calls Pentagon's decision to bar Anthropic from defense contracts 'retaliation'",
      "title_zh": "沃伦批评五角大楼将Anthropic逐出国防合同为政治报复",
      "summary_en": "TechCrunch: Senator Elizabeth Warren publicly criticized the Pentagon's decision to exclude Anthropic from defense supply chain contracts, calling it political retaliation. The move raised concerns about the government using procurement power to punish AI companies critical of administration policies.",
      "summary_zh": "TechCrunch：参议员伊丽莎白·沃伦公开批评五角大楼将Anthropic排除在国防供应链合同之外的决定，称其为政治报复行为。此举引发外界对政府利用采购权力打压批评行政当局政策的AI公司的担忧。",
      "tags": [
        "政策法规",
        "产业动态"
      ],
      "source_name": "TechCrunch",
      "source_url": "https://techcrunch.com/2026/03/23/elizabeth-warren-anthropic-pentagon-defense-supply-chain-risk-retaliation/",
      "published_at": "2026-03-23T20:08:45Z",
      "collected_at": "2026-03-24T03:00:00Z",
      "importance": 4,
      "merged_sources": []
    },
    {
      "id": "b9f640a2",
      "lang": "en",
      "title_en": "Nvidia CEO Jensen Huang says 'I think we've achieved AGI'",
      "title_zh": "黄仁勋：我认为我们已经实现了 AGI",
      "summary_en": "The Verge: Nvidia CEO Jensen Huang told Lex Fridman in a podcast that he believes AGI has been achieved, then slightly walked back the claim under scrutiny. Huang's comment sparked debate over how AGI should be defined, with many arguing current systems still fall short of general reasoning capabilities.",
      "summary_zh": "The Verge：英伟达 CEO 黄仁勋在与 Lex Fridman 的播客对话中表示，他认为 AGI 已经实现，随后在追问下有所保留。此言论引发广泛讨论，业界对 AGI 的定义和当前模型能力存在明显分歧。",
      "tags": [
        "AGI",
        "英伟达",
        "业界观点"
      ],
      "source_name": "The Verge",
      "source_url": "https://www.theverge.com/ai-artificial-intelligence/899086/jensen-huang-nvidia-agi",
      "published_at": "2026-03-23T19:42:33Z",
      "collected_at": "2026-03-24T00:00:00Z",
      "importance": 4,
      "merged_sources": []
    },
    {
      "id": "72d373b8",
      "lang": "en",
      "title_en": "Sam Altman-backed fusion startup Helion in talks to sell power to OpenAI",
      "title_zh": "Sam Altman支持的核聚变初创Helion洽谈向OpenAI供电",
      "summary_en": "TechCrunch: Helion Energy, a fusion power startup backed by Sam Altman, is reportedly in talks to supply electricity to OpenAI's data centers. The deal highlights OpenAI's aggressive push to secure long-term energy sources to power its growing AI infrastructure demands.",
      "summary_zh": "TechCrunch：据报道，由Sam Altman投资的核聚变能源初创公司Helion Energy正与OpenAI洽谈向其数据中心供电的协议，彰显了OpenAI为满足AI基础设施日益增长的能源需求而积极寻求长期电力来源的战略布局。",
      "tags": [
        "产业动态",
        "基础设施"
      ],
      "source_name": "TechCrunch",
      "source_url": "https://techcrunch.com/2026/03/23/sam-altman-openai-fusion-energy-board-helion/",
      "published_at": "2026-03-23T19:30:00Z",
      "collected_at": "2026-03-24T03:00:00Z",
      "importance": 4,
      "merged_sources": []
    },
    {
      "id": "33635af9",
      "lang": "en",
      "title_en": "Autoresearch on an old research idea",
      "title_zh": "用AI自动化研究旧课题：从文献检索到实验验证的全流程探索",
      "summary_en": "Hacker News: A researcher shared their experience using AI-powered autoresearch tools to revisit and extend an old research idea. The post details how LLM-based pipelines handled literature search, hypothesis generation, and preliminary experimental validation with minimal human input.",
      "summary_zh": "Hacker News：一名研究者分享了使用AI自动化研究工具从零重拾旧课题的经历，详述了基于LLM的流水线如何在极少人工干预下完成文献检索、假设生成和初步实验验证等全流程工作。",
      "tags": [
        "AI应用",
        "研究工具"
      ],
      "source_name": "Hacker News",
      "source_url": "https://ykumar.me/blog/eclip-autoresearch/",
      "published_at": "2026-03-23T18:40:00Z",
      "collected_at": "2026-03-24T03:00:00Z",
      "importance": 3,
      "merged_sources": []
    }
  ]
}