{
  "latest_date": "2026-04-06",
  "updated_at": "2026-04-06T15:08:00Z",
  "dates": [
    "2026-04-06",
    "2026-04-05",
    "2026-04-04",
    "2026-04-03",
    "2026-04-02",
    "2026-04-01",
    "2026-03-31",
    "2026-03-30",
    "2026-03-29",
    "2026-03-28",
    "2026-03-26",
    "2026-03-25",
    "2026-03-24",
    "2026-03-23",
    "2026-03-22",
    "2026-03-21",
    "2026-03-20",
    "2026-03-19",
    "2026-03-18",
    "2026-03-17",
    "2026-03-16",
    "2026-03-15",
    "2026-03-14",
    "2026-03-13",
    "2026-03-12",
    "2026-03-11",
    "2026-03-10",
    "2026-03-09",
    "2026-03-08",
    "2026-03-07",
    "2026-03-06",
    "2026-03-05"
  ],
  "total_items": 460,
  "page": 9,
  "page_size": 20,
  "total_pages": 23,
  "items": [
    {
      "id": "a1bd9fce",
      "lang": "zh",
      "title_en": "ByteDance TRAE SOLO launches standalone app: From code to cross-domain AI work",
      "title_zh": "字节 TRAE SOLO 上线独立端：已不满足写代码，还要跨界干活",
      "summary_en": "量子位: ByteDance's TRAE SOLO coding AI has launched as a standalone desktop app, moving beyond pure code generation to handle cross-domain tasks including document processing, UI design, and multi-step workflows. The expansion signals ByteDance's ambition to compete with Claude Code and Cursor in the agentic IDE market.",
      "summary_zh": "量子位：字节跳动旗下 TRAE SOLO 编程 AI 推出独立桌面端，功能不再局限于代码生成，还将承担文档处理、UI 设计及多步骤工作流等跨领域任务，显示字节在 Agent IDE 市场与 Claude Code、Cursor 正面竞争的野心。",
      "tags": [
        "字节跳动",
        "AI编码",
        "AI Agent",
        "IDE"
      ],
      "source_name": "量子位",
      "source_url": "https://www.qbitai.com/2026/03/394014.html",
      "published_at": "2026-03-31T03:00:00Z",
      "collected_at": "2026-04-01T00:14:00Z",
      "importance": 4,
      "merged_sources": []
    },
    {
      "id": "1c92da65",
      "lang": "zh",
      "title_zh": "机器人线下真机对线打PK！这届黑客松可太会玩了",
      "summary_zh": "量子位：一场以人形机器人为主角的线下黑客松活动引发热议，参赛者携带真实机器人现场竞技，展示了抓取、操控、运动等多项能力。活动显示机器人开发门槛快速降低，开发者社区活跃度显著提升。",
      "tags": [
        "机器人",
        "AI应用"
      ],
      "source_name": "量子位",
      "source_url": "https://www.qbitai.com/2026/03/393887.html",
      "published_at": "2026-03-31T03:00:00Z",
      "collected_at": "2026-03-31T08:50:00Z",
      "importance": 3,
      "merged_sources": []
    },
    {
      "id": "a2efdf65",
      "lang": "zh",
      "title_zh": "瑞声科技公开人形机器人感知解决方案，释放机器人业务加速落地信号",
      "summary_zh": "量子位：声学元件巨头瑞声科技正式公开其人形机器人感知系统，涵盖触觉、听觉等多传感器融合方案。此举被视为该公司加速布局机器人硬件供应链的重要信号，有望进一步推动人形机器人规模化落地。",
      "tags": [
        "机器人",
        "硬件"
      ],
      "source_name": "量子位",
      "source_url": "https://www.qbitai.com/2026/03/393883.html",
      "published_at": "2026-03-31T02:30:00Z",
      "collected_at": "2026-03-31T08:50:00Z",
      "importance": 3,
      "merged_sources": []
    },
    {
      "id": "2090a8b4",
      "lang": "en",
      "title_en": "Anthropic signs MOU with Australia for AI safety, invests AUD$3M in research",
      "title_zh": "Anthropic 与澳大利亚政府签署 AI 安全合作备忘录，投资 300 万澳元推进研究",
      "summary_en": "Anthropic: Anthropic signed a Memorandum of Understanding with the Australian government to cooperate on AI safety research aligned with Australia's National AI Plan. CEO Dario Amodei met Prime Minister Anthony Albanese in Canberra. Anthropic also pledged AUD$3 million to Australian research institutions to apply Claude in disease diagnosis, treatment, and CS education.",
      "summary_zh": "Anthropic：Anthropic 与澳大利亚政府签署了人工智能安全合作备忘录，旨在支持澳大利亚《国家 AI 计划》目标。CEO Dario Amodei 在堪培拉与总理安东尼·阿尔巴内塞会面。Anthropic 还宣布向澳大利亚领先研究机构提供 300 万澳元合作资助，将 Claude 应用于疾病诊断、治疗及计算机科学教育与研究领域。",
      "tags": [
        "AI政策",
        "国际合作",
        "Anthropic",
        "AI安全"
      ],
      "source_name": "Anthropic",
      "source_url": "https://www.anthropic.com/news/australia-MOU",
      "published_at": "2026-03-31T02:00:00Z",
      "collected_at": "2026-04-01T00:14:00Z",
      "importance": 4,
      "merged_sources": []
    },
    {
      "id": "7b0fd0ea",
      "lang": "zh",
      "title_zh": "智能体收入暴增68%！这家港股AI公司靠「关系」驯服企业龙虾",
      "summary_zh": "量子位：港股AI公司明源云旗下智能体业务收入同比暴涨68%，其核心策略是通过「关系图谱」将企业内部复杂协作关系结构化，让AI智能体能够在真实企业场景中高效运转，实现全链路自动化落地。",
      "tags": [
        "AI应用",
        "智能体"
      ],
      "source_name": "量子位",
      "source_url": "https://www.qbitai.com/2026/03/393984.html",
      "published_at": "2026-03-31T02:00:00Z",
      "collected_at": "2026-03-31T08:50:00Z",
      "importance": 3,
      "merged_sources": []
    },
    {
      "id": "d1b28473",
      "lang": "en",
      "title_en": "Learn Claude Code by doing, not reading",
      "title_zh": "通过实践学习Claude Code",
      "summary_en": "Community: An interactive tutorial site teaches developers how to use Claude Code through hands-on exercises rather than documentation reading. The resource gained significant traction on Hacker News with 109 upvotes, reflecting strong community interest in practical AI coding assistant education.",
      "summary_zh": "社区：交互式教程网站claude.nagdy.me通过动手实践而非文档阅读方式教授开发者使用Claude Code，在Hacker News获得109票关注，反映出开发者社区对AI编程助手实践教程的强烈需求。",
      "tags": [
        "编程",
        "Agent"
      ],
      "source_name": "Hacker News",
      "source_url": "https://claude.nagdy.me/",
      "published_at": "2026-03-31T01:19:43Z",
      "collected_at": "2026-03-31T00:15:00Z",
      "importance": 2,
      "merged_sources": []
    },
    {
      "id": "f515d6ca",
      "lang": "en",
      "title_en": "Agentic AI and the next intelligence explosion",
      "title_zh": "Agent AI与下一次智能爆炸",
      "summary_en": "Researchers: A preprint on arXiv argues that the AI singularity should not be conceived as a monolithic godlike mind, but as a plural, social, relational phenomenon. The paper highlights that frontier reasoning models like DeepSeek-R1 improve not by thinking longer but by simulating internal societies of thought as spontaneous cognitive debates. The authors propose that scaling intelligence requires shifting from dyadic alignment to managing collective human-AI agency, describing an era of human-AI centaurs.",
      "summary_zh": "研究人员：arXiv预印本论文提出，AI奇点不应被理解为单一的神级智能，而是多元化的社会性现象。文章指出DeepSeek-R1等前沿推理模型通过模拟内部思想社会而非单纯更长思考来提升能力，并提出扩展智能需要从双边对齐转向管理集体人机协同，描述即将到来的人机半人马时代。",
      "tags": [
        "研究论文",
        "推理",
        "Agent"
      ],
      "source_name": "Hacker News",
      "source_url": "https://arxiv.org/abs/2603.20639",
      "published_at": "2026-03-31T01:14:17Z",
      "collected_at": "2026-03-31T00:15:00Z",
      "importance": 3,
      "merged_sources": []
    },
    {
      "id": "9dd374a0",
      "lang": "zh",
      "title_zh": "别再让AI只干零活了！AI工具正在接管投放全链路",
      "summary_zh": "量子位：艾瑞咨询报告显示，中国AI营销市场规模达669亿元，年复合增长率26.2%。当前多环节协同成为AI营销引擎新趋势，快手等平台已实现从素材生产、策略制定到实时投放、诊断复盘的全链路AI化，推动营销行业从单点AI工具向全流程智能化演进。",
      "tags": [
        "行业观察",
        "产品发布"
      ],
      "source_name": "量子位",
      "source_url": "https://www.qbitai.com/2026/03/393471.html",
      "published_at": "2026-03-31T01:03:38Z",
      "collected_at": "2026-03-31T03:10:00Z",
      "importance": 3,
      "merged_sources": []
    },
    {
      "id": "fb75edf8",
      "lang": "zh",
      "title_zh": "Meta华人实习生搞出超级智能体！自己写代码实现自我进化",
      "summary_zh": "量子位：Meta一名华人实习生开发出能够自主编写代码并实现自我迭代的超级智能体系统，该系统可通过反复试错不断优化自身能力。这一工作展示了智能体自主进化的可行路径，引发AI社区广泛关注。",
      "tags": [
        "智能体",
        "研究"
      ],
      "source_name": "量子位",
      "source_url": "https://www.qbitai.com/2026/03/393645.html",
      "published_at": "2026-03-31T01:00:00Z",
      "collected_at": "2026-03-31T08:50:00Z",
      "importance": 4,
      "merged_sources": []
    },
    {
      "id": "6d9d2ac5",
      "lang": "en",
      "title_en": "OpenAI closes record-breaking $122 billion funding round as anticipation builds for IPO",
      "title_zh": "OpenAI完成1220亿美元融资破纪录",
      "summary_en": "OpenAI: OpenAI has closed a record-breaking $122 billion funding round, up from the previously announced $110 billion figure. The round represents the largest private funding round in history. The financing comes as anticipation builds for a potential IPO.",
      "summary_zh": "OpenAI：OpenAI 完成了 1220 亿美元的融资，较此前披露的 1100 亿美元进一步上调，创下史上最大单笔私募融资纪录。此轮融资是在 IPO 预期升温背景下完成的。",
      "tags": [
        "融资",
        "行业动态"
      ],
      "source_name": "The Verge",
      "source_url": "https://www.cnbc.com/2026/03/31/openai-funding-round-ipo.html",
      "published_at": "2026-03-31T00:00:00Z",
      "collected_at": "2026-04-02T00:10:00Z",
      "importance": 5,
      "merged_sources": []
    },
    {
      "id": "d0eee8cd",
      "lang": "en",
      "title_en": "Like it or not, AI is part of art school curriculums",
      "title_zh": "无论喜不喜欢，AI 已成为艺术院校课程的一部分",
      "summary_en": "The Verge: Art schools across the US are integrating generative AI tools into their curriculums despite student protests. From CalArts to University of Alaska Fairbanks, students and faculty grapple with AI's impact on creative education and job prospects as text-to-image, music, and video generation tools become ubiquitous.",
      "summary_zh": "The Verge：美国各大艺术院校正将生成式 AI 工具纳入课程体系，尽管引发学生抗议。从加州艺术学院到阿拉斯加费尔班克斯大学，师生们正在与 AI 对创意教育和就业前景的冲击抗争，而文生图、音乐和视频生成工具已日趋普及。",
      "tags": [
        "AI伦理",
        "教育",
        "生成式AI"
      ],
      "source_name": "The Verge",
      "source_url": "https://www.theverge.com/tech/903954/art-schools-generative-ai-education-creative-practice",
      "published_at": "2026-03-31T00:00:00Z",
      "collected_at": "2026-03-31T15:15:00Z",
      "importance": 3,
      "merged_sources": []
    },
    {
      "id": "da7f95ac",
      "lang": "en",
      "title_en": "You can order Grubhub and Uber Eats 'conversationally' with Alexa Plus",
      "title_zh": "Alexa Plus 支持与 Grubhub 和 Uber Eats 对话式下单",
      "summary_en": "The Verge: Amazon has added conversational food ordering to Alexa Plus, letting users place Grubhub and Uber Eats orders through natural dialogue rather than rigid call-and-response prompts. The feature rolls out to Echo Show 8 and larger devices for Alexa Plus subscribers, part of Amazon's broader push to make its AI assistant more genuinely useful.",
      "summary_zh": "The Verge：亚马逊为 Alexa Plus 新增对话式点餐功能，用户可通过自然语言对话在 Grubhub 和 Uber Eats 下单，而非依赖固定指令。该功能面向 Echo Show 8 及更大屏幕设备的 Alexa Plus 订阅用户推出，是亚马逊提升 AI 助手实用性的重要举措。",
      "tags": [
        "AI助手",
        "产品发布"
      ],
      "source_name": "The Verge",
      "source_url": "https://www.theverge.com/ai-artificial-intelligence/903938/alexa-plus-order-food-delivery-conversational-grubhub-uber-eats",
      "published_at": "2026-03-31T00:00:00Z",
      "collected_at": "2026-03-31T15:15:00Z",
      "importance": 3,
      "merged_sources": []
    },
    {
      "id": "71d7e1d3",
      "lang": "zh",
      "title_zh": "智谱上市后首份财报：超7.24亿元！国内收入最高大模型公司，MaaS发力了",
      "summary_zh": "量子位：智谱 AI 发布上市后首份财报，营收超 7.24 亿元，成为国内收入最高的大模型公司。财报显示 MaaS（模型即服务）业务快速增长，标志着国内大模型商业化进入新阶段。",
      "tags": [
        "产业动态",
        "大模型",
        "商业化"
      ],
      "source_name": "量子位",
      "source_url": "https://www.qbitai.com/2026/03/394135.html",
      "published_at": "2026-03-31T00:00:00Z",
      "collected_at": "2026-03-31T15:15:00Z",
      "importance": 4,
      "merged_sources": []
    },
    {
      "id": "67557a7d",
      "lang": "zh",
      "title_zh": "刚刚，TRAE SOLO上线独立端：已经不满足写代码，还要跨界干活！",
      "summary_zh": "量子位：字节跳动旗下 AI 编程工具 TRAE SOLO 正式推出独立 PC 端和 Web 端，功能从代码编写延伸至跨领域任务执行，展现出超越传统 IDE 的智能体能力，进一步与 Cursor 等产品展开竞争。",
      "tags": [
        "AI编码",
        "产品发布",
        "AI智能体"
      ],
      "source_name": "量子位",
      "source_url": "https://www.qbitai.com/2026/03/394014.html",
      "published_at": "2026-03-31T00:00:00Z",
      "collected_at": "2026-03-31T15:15:00Z",
      "importance": 4,
      "merged_sources": []
    },
    {
      "id": "2f297545",
      "lang": "zh",
      "title_zh": "ClawTip来了！京东科技首发推出AI智能体的专属自主零钱包",
      "summary_zh": "量子位：京东科技发布 ClawTip，定位为 AI 智能体专属的自主支付钱包，支持智能体在无人工干预下自主完成小额支付。这是国内首款面向 AI Agent 的原生支付产品，标志着智能体经济基础设施建设提速。",
      "tags": [
        "AI智能体",
        "金融科技",
        "产品发布"
      ],
      "source_name": "量子位",
      "source_url": "https://www.qbitai.com/2026/03/394011.html",
      "published_at": "2026-03-31T00:00:00Z",
      "collected_at": "2026-03-31T15:15:00Z",
      "importance": 4,
      "merged_sources": []
    },
    {
      "id": "1beb075c",
      "lang": "zh",
      "title_zh": "玻色量子完成10亿元B轮融资，十五五规划量子计算机赛道唯一代表",
      "summary_zh": "量子位：量子计算公司玻色量子完成 10 亿元 B 轮融资，成为十五五规划专用量子计算机赛道的唯一入选企业。本轮融资将用于加速量子计算硬件研发与商业化落地，标志着国内量子计算赛道进入重资本投入阶段。",
      "tags": [
        "量子计算",
        "融资",
        "产业动态"
      ],
      "source_name": "量子位",
      "source_url": "https://www.qbitai.com/2026/03/393856.html",
      "published_at": "2026-03-31T00:00:00Z",
      "collected_at": "2026-03-31T15:15:00Z",
      "importance": 4,
      "merged_sources": []
    },
    {
      "id": "df4c40d4",
      "lang": "en",
      "title_en": "Qodo raises $70M for code verification as AI coding scales",
      "title_zh": "Qodo融资7000万美元，专注AI代码验证",
      "summary_en": "Qodo: New York-based AI code review and verification startup Qodo raised a $70 million Series B led by Qumra Capital, bringing total funding to $120 million. Investors include Maor Ventures, Phoenix Venture Partners, Peter Welinder (OpenAI), and Clara Shih (Meta). Qodo builds AI agents for code review, testing, and governance, positioning itself as a verification layer for AI-generated code.",
      "summary_zh": "Qodo：纽约AI代码审查与验证初创公司Qodo完成7000万美元B轮融资，由Qumra Capital领投，累计融资额达1.2亿美元，投资方包括OpenAI的Peter Welinder和Meta的Clara Shih。公司专注于构建AI代码审查、测试与治理智能体，定位为AI生成代码的验证层。",
      "tags": [
        "融资",
        "编程"
      ],
      "source_name": "TechCrunch",
      "source_url": "https://techcrunch.com/2026/03/30/qodo-bets-on-code-verification-as-ai-coding-scales-raises-70m/",
      "published_at": "2026-03-30T14:00:00Z",
      "collected_at": "2026-03-31T00:15:00Z",
      "importance": 3,
      "merged_sources": []
    },
    {
      "id": "d46dcd19",
      "lang": "en",
      "title_en": "AI chip startup Rebellions raises $400 million at $2.3B valuation in pre-IPO round",
      "title_zh": "AI芯片公司Rebellions完成4亿美元Pre-IPO融资，估值23亿美元",
      "summary_en": "Rebellions: South Korean fabless AI chip startup Rebellions raised $400 million in a pre-IPO round led by Mirae Asset Financial Group and the Korea National Growth Fund, valuing the company at $2.3 billion. The round follows a Series C completed in November and accompanies aggressive global expansion plans, with an IPO planned for later in 2026.",
      "summary_zh": "Rebellions：韩国无晶圆AI芯片公司Rebellions完成4亿美元Pre-IPO融资，由未来资产金融集团和韩国国家成长基金领投，估值达23亿美元。此轮融资紧随11月完成的C轮之后，伴随公司积极推进全球扩张计划，公司计划于2026年晚些时候上市。",
      "tags": [
        "融资",
        "硬件"
      ],
      "source_name": "TechCrunch",
      "source_url": "https://techcrunch.com/2026/03/30/ai-chip-startup-rebellions-raises-400-million-at-2-3b-valuation-in-pre-ipo-round/",
      "published_at": "2026-03-30T13:00:00Z",
      "collected_at": "2026-03-31T00:15:00Z",
      "importance": 3,
      "merged_sources": []
    },
    {
      "id": "8f5b6220",
      "lang": "en",
      "title_en": "Mistral AI raises $830M in debt to set up a data center near Paris",
      "title_zh": "Mistral AI融资8.3亿美元，在巴黎附近建设数据中心",
      "summary_en": "Mistral AI: French AI lab Mistral AI raised $830 million in debt financing to build a new Nvidia-powered data center in Bruyeres-le-Chatel near Paris, with plans to make it operational in Q2 2026. The company previously announced a $1.4 billion investment in Sweden for AI infrastructure, aiming to deploy 200 megawatts of compute capacity across European operations.",
      "summary_zh": "Mistral AI：法国AI公司Mistral AI通过债务融资筹集8.3亿美元，用于在巴黎郊区Bruyeres-le-Chatel建设以英伟达芯片为核心的新数据中心，计划于2026年第二季度投入运营。公司此前已宣布在瑞典投资14亿美元建设AI基础设施，目标是在欧洲部署总计200兆瓦的算力。",
      "tags": [
        "融资",
        "硬件"
      ],
      "source_name": "TechCrunch",
      "source_url": "https://techcrunch.com/2026/03/30/mistral-ai-raises-830m-in-debt-to-set-up-a-data-center-near-paris/",
      "published_at": "2026-03-30T12:49:00Z",
      "collected_at": "2026-03-31T00:15:00Z",
      "importance": 4,
      "merged_sources": []
    },
    {
      "id": "9bbb95e8",
      "lang": "zh",
      "title_zh": "Claude 90分钟挖穿Ghost CMS 20年安全漏洞",
      "summary_zh": "Anthropic：研究员Nicholas Carlini测试发现，Claude在90分钟内精准定位GitHub拥有5万Star的Ghost CMS首个高危漏洞，并在无身份验证情况下窃取管理员API密钥；同时Claude在Linux内核安全漏洞挖掘上亦超越了人类专家水平。Carlini表示，六个月前大模型在此领域几乎是门外汉，如今最新模型已在漏洞挖掘方面超过人类专家。",
      "tags": [
        "安全对齐",
        "评测基准"
      ],
      "source_name": "量子位",
      "source_url": "https://www.qbitai.com/2026/03/393186.html",
      "published_at": "2026-03-30T06:00:00Z",
      "collected_at": "2026-03-31T00:15:00Z",
      "importance": 4,
      "merged_sources": []
    }
  ]
}