{
  "latest_date": "2026-04-08",
  "updated_at": "2026-04-08T00:15:00Z",
  "dates": [
    "2026-04-08",
    "2026-04-07",
    "2026-04-06",
    "2026-04-05",
    "2026-04-04",
    "2026-04-03",
    "2026-04-02",
    "2026-04-01",
    "2026-03-31",
    "2026-03-30",
    "2026-03-29",
    "2026-03-28",
    "2026-03-26",
    "2026-03-25",
    "2026-03-24",
    "2026-03-23",
    "2026-03-22",
    "2026-03-21",
    "2026-03-20",
    "2026-03-19",
    "2026-03-18",
    "2026-03-17",
    "2026-03-16",
    "2026-03-15",
    "2026-03-14",
    "2026-03-13",
    "2026-03-12",
    "2026-03-11",
    "2026-03-10",
    "2026-03-09",
    "2026-03-08",
    "2026-03-07",
    "2026-03-06",
    "2026-03-05"
  ],
  "total_items": 489,
  "page": 23,
  "page_size": 20,
  "total_pages": 25,
  "items": [
    {
      "id": "2f03da92",
      "lang": "zh",
      "title_zh": "黄仁勋：龙虾就是新操作系统！英伟达7种芯片拼出算力怪兽，放话2027营收万亿美元",
      "summary_zh": "黄仁勋：在 GTC 上称 AI Agent 是新操作系统，展示英伟达7种芯片组成的算力矩阵，并放话2027年营收突破万亿美元。",
      "tags": [
        "融资",
        "Agent"
      ],
      "source_name": "量子位",
      "source_url": "https://www.qbitai.com/2026/03/388720.html",
      "published_at": "2026-03-17T00:00:00Z",
      "collected_at": "2026-03-23T03:20:00Z",
      "importance": 4,
      "merged_sources": []
    },
    {
      "id": "de32cd69",
      "lang": "zh",
      "title_zh": "GPT-5.4一周狂赚10亿美元ARR！一句嗨烧掉80刀，效率却飙升32倍",
      "summary_zh": "OpenAI：GPT-5.4 上线首周 ARR 突破10亿美元，单次调用成本最高80美元，但任务效率提升32倍。",
      "tags": [
        "融资",
        "产品发布"
      ],
      "source_name": "量子位",
      "source_url": "https://www.qbitai.com/2026/03/388443.html",
      "published_at": "2026-03-17T00:00:00Z",
      "collected_at": "2026-03-23T03:20:00Z",
      "importance": 4,
      "merged_sources": []
    },
    {
      "id": "6fcd379d",
      "lang": "zh",
      "title_zh": "Kimi新架构让马斯克叹服！17岁高中生作者一战成名",
      "summary_zh": "Moonshot AI：Kimi 新架构论文引发马斯克称赞，第一作者为17岁高中生，将注意力机制“旋转90度”实现突破。",
      "tags": [
        "产品发布"
      ],
      "source_name": "量子位",
      "source_url": "https://www.qbitai.com/2026/03/388493.html",
      "published_at": "2026-03-17T00:00:00Z",
      "collected_at": "2026-03-23T03:20:00Z",
      "importance": 3,
      "merged_sources": []
    },
    {
      "id": "355162f1",
      "lang": "zh",
      "title_zh": "百度龙虾全家桶火速上桌！出手就是全球最大搜索skill",
      "summary_zh": "百度：全套 MCP（龙虾）服务集中上线，接入全球最大搜索数据 Skill，提供行业级开箱即用解决方案。",
      "tags": [
        "Agent"
      ],
      "source_name": "量子位",
      "source_url": "https://www.qbitai.com/2026/03/388672.html",
      "published_at": "2026-03-17T00:00:00Z",
      "collected_at": "2026-03-23T03:20:00Z",
      "importance": 2,
      "merged_sources": []
    },
    {
      "id": "b9ad6e98",
      "lang": "en",
      "title_en": "Securing our codebase with autonomous agents",
      "title_zh": "Cursor 用自治安全 Agent 守护代码库",
      "summary_en": "Cursor: Security team deployed a fleet of autonomous agents to automatically find and fix vulnerabilities across a rapidly evolving codebase.",
      "summary_zh": "Cursor：安全团队构建自治 Agent 集群，在快速迭代的代码库中自动发现并修复安全漏洞。",
      "tags": [
        "产品发布"
      ],
      "source_name": "Cursor",
      "source_url": "https://cursor.com/blog/security-agents",
      "published_at": "2026-03-16T12:00:00Z",
      "collected_at": "2026-03-23T03:20:00Z",
      "importance": 3,
      "merged_sources": []
    },
    {
      "id": "f7e19806",
      "lang": "zh",
      "title_zh": "315曝光的“AI投毒”原理：GEO这样操控大模型推荐",
      "summary_zh": "量子位：揭秘315曝光的“AI 投毒”原理——GEO（生成引擎优化）可操控大模型推荐结果，甚至虚构产品也会被推荐。",
      "tags": [
        "产品发布"
      ],
      "source_name": "量子位",
      "source_url": "https://www.qbitai.com/2026/03/388387.html",
      "published_at": "2026-03-16T00:00:00Z",
      "collected_at": "2026-03-23T03:20:00Z",
      "importance": 2,
      "merged_sources": []
    },
    {
      "id": "557f9455",
      "lang": "zh",
      "title_zh": "养虾时代终结？免部署、7×24小时在线、自进化的“赛博骡子”来了！",
      "summary_zh": "量子位：新型“赛博骡子” AI Agent 平台上线，无需部署、7×24小时在线、支持自进化，或将改变 MCP 生态格局。",
      "tags": [
        "Agent"
      ],
      "source_name": "量子位",
      "source_url": "https://www.qbitai.com/2026/03/388071.html",
      "published_at": "2026-03-16T00:00:00Z",
      "collected_at": "2026-03-23T03:20:00Z",
      "importance": 2,
      "merged_sources": []
    },
    {
      "id": "09bbfc3d",
      "lang": "zh",
      "title_zh": "一手实测首个龙虾模型：长路径任务不失误，一人包揽全栈开发",
      "summary_zh": "量子位：实测首个 MCP 专属模型，长路径任务零失误，一人可完成全栈开发，并推出配套专属套餐。",
      "tags": [
        "产品发布",
        "Agent"
      ],
      "source_name": "量子位",
      "source_url": "https://www.qbitai.com/2026/03/388352.html",
      "published_at": "2026-03-16T00:00:00Z",
      "collected_at": "2026-03-23T03:20:00Z",
      "importance": 2,
      "merged_sources": []
    },
    {
      "id": "c444df44",
      "lang": "zh",
      "title_zh": "天下苦「调参」久矣！MIT师生推出全新RandOpt算法",
      "summary_zh": "MIT：研究团队推出 RandOpt 全新超参数优化算法，揭示预训练模型周围早已“藏匿”大量专家知识。",
      "tags": [
        "研究论文"
      ],
      "source_name": "量子位",
      "source_url": "https://www.qbitai.com/2026/03/388054.html",
      "published_at": "2026-03-16T00:00:00Z",
      "collected_at": "2026-03-23T03:20:00Z",
      "importance": 2,
      "merged_sources": []
    },
    {
      "id": "71a1c43d",
      "lang": "en",
      "title_en": "The billionaires made a promise, now some want out",
      "title_zh": "亿万富翁们曾许下承诺，如今有人想反悔",
      "summary_en": "A growing number of tech billionaires who signed AI safety pledges are reportedly seeking to walk back their commitments as competitive pressures intensify in the AI race.",
      "summary_zh": "越来越多签署 AI 安全承诺的科技亿万富翁，据报道在 AI 竞争压力加剧之下正试图收回此前的承诺。",
      "tags": [
        "政策监管",
        "安全对齐"
      ],
      "source_name": "TechCrunch",
      "source_url": "https://techcrunch.com/2026/03/15/the-billionaires-made-a-promise-now-some-want-out/",
      "published_at": "2026-03-15T12:00:00Z",
      "collected_at": "2026-03-23T09:10:00Z",
      "importance": 3,
      "merged_sources": []
    },
    {
      "id": "522036a8",
      "lang": "zh",
      "title_zh": "科技CEO用ChatGPT+基因数据定制癌症疫苗！肿瘤缩小50%",
      "summary_zh": "量子位：科技 CEO 使用 ChatGPT 结合基因数据定制个性化癌症疫苗，肿瘤缩小50%；另有用户报告 AI 成功帮助宠物犬康复。",
      "tags": [
        "产品发布"
      ],
      "source_name": "量子位",
      "source_url": "https://www.qbitai.com/2026/03/387935.html",
      "published_at": "2026-03-15T00:00:00Z",
      "collected_at": "2026-03-23T03:20:00Z",
      "importance": 3,
      "merged_sources": []
    },
    {
      "id": "c1d6a247",
      "lang": "en",
      "title_en": "OpenAI is delaying ChatGPT's adult mode",
      "title_zh": "OpenAI 推迟推出 ChatGPT 成人模式",
      "summary_en": "OpenAI: The company announced it is delaying the rollout of ChatGPT's adult content mode, citing the need for additional safety review and policy refinement before wider deployment.",
      "summary_zh": "OpenAI：公司宣布推迟推出 ChatGPT 成人内容模式，原因是在更广泛部署前需要进一步的安全审查和政策完善。",
      "tags": [
        "产品发布",
        "安全对齐"
      ],
      "source_name": "The Verge",
      "source_url": "https://www.theverge.com/ai-artificial-intelligence/891046/openai-is-delaying-chatgpts-adult-mode",
      "published_at": "2026-03-14T12:00:00Z",
      "collected_at": "2026-03-23T09:10:00Z",
      "importance": 2,
      "merged_sources": []
    },
    {
      "id": "fe07df14",
      "lang": "zh",
      "title_zh": "量子位专访陶哲轩：我为什么现在创办一个AI x Science组织",
      "summary_zh": "陶哲轩：接受量子位专访，分享创办 AI × Science 组织的初衷，展望未来可能出现1万个“AI陶哲轩”。",
      "tags": [
        "产品发布"
      ],
      "source_name": "量子位",
      "source_url": "https://www.qbitai.com/2026/03/387832.html",
      "published_at": "2026-03-14T00:00:00Z",
      "collected_at": "2026-03-23T03:20:00Z",
      "importance": 2,
      "merged_sources": []
    },
    {
      "id": "3c27eafe",
      "lang": "zh",
      "title_zh": "Gemini重塑谷歌地图！一句话搞定出行攻略，网友：垂直应用全完蛋",
      "summary_zh": "谷歌：Gemini 深度整合 Google 地图，用户可一句话生成出行攻略，被认为将对垂直出行应用造成冲击。",
      "tags": [
        "产品发布"
      ],
      "source_name": "量子位",
      "source_url": "https://www.qbitai.com/2026/03/387867.html",
      "published_at": "2026-03-14T00:00:00Z",
      "collected_at": "2026-03-23T03:20:00Z",
      "importance": 2,
      "merged_sources": []
    },
    {
      "id": "fd627486",
      "lang": "zh",
      "title_zh": "华人博士4个月干出具身独角兽！斯坦福家务机器人再融11亿，开建中国团队",
      "summary_zh": "具身智能独角兽：斯坦福华人博士创业四个月即成独角兽，家务机器人公司再获11亿美元融资，并启动中国团队建设。",
      "tags": [
        "硬件"
      ],
      "source_name": "量子位",
      "source_url": "https://www.qbitai.com/2026/03/387072.html",
      "published_at": "2026-03-13T00:00:00Z",
      "collected_at": "2026-03-23T03:20:00Z",
      "importance": 2,
      "merged_sources": []
    },
    {
      "id": "f4adf6d3",
      "lang": "zh",
      "title_zh": "统计学最高荣誉回归华人！苏炜杰：AI需要一门新的数学语言",
      "summary_zh": "苏炜杰：荣获统计学最高荣誉，主张 AI 需要一门新的数学语言，提出“剥洋葱”式优化黑盒模型方法。",
      "tags": [
        "产品发布"
      ],
      "source_name": "量子位",
      "source_url": "https://www.qbitai.com/2026/03/387102.html",
      "published_at": "2026-03-13T00:00:00Z",
      "collected_at": "2026-03-23T03:20:00Z",
      "importance": 2,
      "merged_sources": []
    },
    {
      "id": "b8110bd4",
      "lang": "zh",
      "title_zh": "马斯克从Cursor挖走两位天才少年",
      "summary_zh": "量子位：马斯克从 Cursor 挖走两位天才少年加入 xAI，引发外界对 xAI 人才流动的关注。",
      "tags": [
        "产品发布"
      ],
      "source_name": "量子位",
      "source_url": "https://www.qbitai.com/2026/03/387242.html",
      "published_at": "2026-03-13T00:00:00Z",
      "collected_at": "2026-03-23T03:20:00Z",
      "importance": 3,
      "merged_sources": []
    },
    {
      "id": "d130ec99",
      "lang": "zh",
      "title_zh": "多家资本参投，杨立昆AMI获超10亿美元种子融资",
      "summary_zh": "AMI：多家资本联合参投，杨立昆（LeCun）创立的 AMI 完成超10亿美元种子轮融资。",
      "tags": [
        "融资"
      ],
      "source_name": "量子位",
      "source_url": "https://www.qbitai.com/2026/03/387734.html",
      "published_at": "2026-03-13T00:00:00Z",
      "collected_at": "2026-03-23T03:20:00Z",
      "importance": 3,
      "merged_sources": []
    },
    {
      "id": "9d6a48cc",
      "lang": "en",
      "title_en": "Anthropic invests $100 million into the Claude Partner Network",
      "title_zh": "Anthropic 向 Claude 合作伙伴网络投入 1 亿美元",
      "summary_en": "Anthropic: Launching the Claude Partner Network with $100M investment to help enterprises adopt Claude through certified partner organizations.",
      "summary_zh": "Anthropic：宣布投入 1 亿美元启动 Claude 合作伙伴网络，帮助企业通过认证合作商落地 Claude。",
      "tags": [
        "产品发布"
      ],
      "source_name": "Anthropic",
      "source_url": "https://www.anthropic.com/news/claude-partner-network",
      "published_at": "2026-03-12T12:00:00Z",
      "collected_at": "2026-03-23T03:20:00Z",
      "importance": 4,
      "merged_sources": []
    },
    {
      "id": "781789f4",
      "lang": "zh",
      "title_zh": "老黄入局吃龙虾！英伟达发布最强开源Agent推理模型",
      "summary_zh": "英伟达：发布最强开源 Agent 推理模型，黄仁勋宣布向开源模型投入260亿美元。",
      "tags": [
        "产品发布",
        "Agent",
        "开源"
      ],
      "source_name": "量子位",
      "source_url": "https://www.qbitai.com/2026/03/386572.html",
      "published_at": "2026-03-12T00:00:00Z",
      "collected_at": "2026-03-23T03:20:00Z",
      "importance": 4,
      "merged_sources": []
    }
  ]
}