{
  "latest_date": "2026-04-06",
  "updated_at": "2026-04-06T15:08:00Z",
  "dates": [
    "2026-04-06",
    "2026-04-05",
    "2026-04-04",
    "2026-04-03",
    "2026-04-02",
    "2026-04-01",
    "2026-03-31",
    "2026-03-30",
    "2026-03-29",
    "2026-03-28",
    "2026-03-26",
    "2026-03-25",
    "2026-03-24",
    "2026-03-23",
    "2026-03-22",
    "2026-03-21",
    "2026-03-20",
    "2026-03-19",
    "2026-03-18",
    "2026-03-17",
    "2026-03-16",
    "2026-03-15",
    "2026-03-14",
    "2026-03-13",
    "2026-03-12",
    "2026-03-11",
    "2026-03-10",
    "2026-03-09",
    "2026-03-08",
    "2026-03-07",
    "2026-03-06",
    "2026-03-05"
  ],
  "total_items": 460,
  "page": 20,
  "page_size": 20,
  "total_pages": 23,
  "items": [
    {
      "id": "f7d11125",
      "lang": "zh",
      "title_zh": "Cursor套壳Kimi被锤，创始人：忘记署名了",
      "summary_zh": "Cursor：Cursor被曝其宣称的「自研最强模型」实为套壳Kimi，经社区对比测试后创始人承认并致歉，称忘记在模型卡片中署名。此事引发社区对AI产品自研宣传真实性的广泛讨论，Kimi方面随即公开回应。",
      "tags": [
        "产品发布"
      ],
      "source_name": "量子位",
      "source_url": "https://www.qbitai.com/2026/03/390619.html",
      "published_at": "2026-03-21T00:00:00Z",
      "collected_at": "2026-03-23T00:30:00Z",
      "importance": 4,
      "merged_sources": []
    },
    {
      "id": "62489f95",
      "lang": "zh",
      "title_zh": "北大团队用细粒度树先验提升泛化，破解生物类别分层识别难题",
      "summary_zh": "北京大学：北大彭宇新团队提出细粒度树先验方法，使生成式模型具备完整生物类别树（界门纲目科属种）认知，在泛化能力和分层识别精度上取得突破，相关成果投稿至顶会。",
      "tags": [
        "研究论文",
        "多模态"
      ],
      "source_name": "量子位",
      "source_url": "https://www.qbitai.com/2026/03/390945.html",
      "published_at": "2026-03-21T00:00:00Z",
      "collected_at": "2026-03-23T00:30:00Z",
      "importance": 3,
      "merged_sources": []
    },
    {
      "id": "d070dee7",
      "lang": "zh",
      "title_zh": "北航团队开源ClawGuard，梳理AI Agent 9大高危风险缓解措施",
      "summary_zh": "北京航空航天大学：北航团队针对主流AI Agent框架发布开源安全防御工具ClawGuard Auditor，系统梳理9大高危风险及缓解措施，覆盖提示注入、权限滥用等核心攻击面，代码已开源。",
      "tags": [
        "开源",
        "安全对齐",
        "Agent"
      ],
      "source_name": "量子位",
      "source_url": "https://www.qbitai.com/2026/03/390918.html",
      "published_at": "2026-03-21T00:00:00Z",
      "collected_at": "2026-03-23T00:30:00Z",
      "importance": 3,
      "merged_sources": []
    },
    {
      "id": "e3325289",
      "lang": "zh",
      "title_zh": "对话越疆刘培超：具身智能收入已到千万级",
      "summary_zh": "越疆：越疆科技CEO刘培超接受采访，披露公司具身智能业务收入已达千万级，百亿市值目标在望。公司以低调姿态深耕具身AI商业化，在春晚机器人演出中担任幕后支持角色，产品已广泛落地工业场景。",
      "tags": [
        "产品发布",
        "硬件"
      ],
      "source_name": "量子位",
      "source_url": "https://www.qbitai.com/2026/03/390531.html",
      "published_at": "2026-03-21T00:00:00Z",
      "collected_at": "2026-03-23T00:30:00Z",
      "importance": 3,
      "merged_sources": []
    },
    {
      "id": "61733052",
      "lang": "en",
      "title_en": "Trump takes another shot at dismantling state AI regulation",
      "title_zh": "特朗普政府再度尝试废除各州 AI 监管法规",
      "summary_en": "Trump administration: Issued a new AI policy framework aimed at preempting state-level AI regulations, raising concerns among consumer advocates.",
      "summary_zh": "特朗普政府：发布新的 AI 政策框架，试图以联邦层面规则压制各州 AI 监管立法，引发消费者权益团体担忧。",
      "tags": [
        "产品发布"
      ],
      "source_name": "The Verge",
      "source_url": "https://www.theverge.com/ai-artificial-intelligence/898055/trump-new-ai-policy-framework",
      "published_at": "2026-03-20T14:17:02Z",
      "collected_at": "2026-03-23T03:20:00Z",
      "importance": 4,
      "merged_sources": []
    },
    {
      "id": "2fed5b06",
      "lang": "en",
      "title_en": "Google Search is now using AI to replace headlines",
      "title_zh": "谷歌搜索开始用 AI 替换新闻标题",
      "summary_en": "Google: Experimenting with AI-generated summaries that replace news article headlines in Search results, currently testing on a subset of users.",
      "summary_zh": "谷歌：在搜索结果中试验以 AI 生成摘要取代新闻标题，目前向部分用户开放测试。",
      "tags": [
        "产品发布"
      ],
      "source_name": "The Verge",
      "source_url": "https://www.theverge.com/tech/896490/google-replace-news-headlines-in-search-canary-coal-mine-experiment",
      "published_at": "2026-03-20T10:30:00Z",
      "collected_at": "2026-03-23T03:20:00Z",
      "importance": 3,
      "merged_sources": []
    },
    {
      "id": "a8635377",
      "lang": "en",
      "title_en": "Amazon is making an Alexa phone",
      "title_zh": "亚马逊正在研发 Alexa 手机",
      "summary_en": "Amazon: Developing a smartphone codenamed Transformer with Alexa as its primary AI interface, entering the AI phone market against Google and Apple.",
      "summary_zh": "亚马逊：正在开发代号为 Transformer 的智能手机，以 Alexa 为核心 AI 交互界面，正面对标谷歌和苹果的 AI 手机。",
      "tags": [
        "产品发布"
      ],
      "source_name": "The Verge",
      "source_url": "https://www.theverge.com/tech/897915/amazon-transformer-alexa-phone",
      "published_at": "2026-03-20T09:42:51Z",
      "collected_at": "2026-03-23T03:20:00Z",
      "importance": 3,
      "merged_sources": []
    },
    {
      "id": "fe881229",
      "lang": "zh",
      "title_zh": "AI屠刀下一站“Vibe设计”！谷歌一个产品把合作伙伴Figma干崩了",
      "summary_zh": "谷歌：推出 AI 设计产品，功能直接对标 Figma，引发合作伙伴股价下跌，软件行业再遭冲击。",
      "tags": [
        "产品发布"
      ],
      "source_name": "量子位",
      "source_url": "https://www.qbitai.com/2026/03/390235.html",
      "published_at": "2026-03-20T00:00:00Z",
      "collected_at": "2026-03-23T03:20:00Z",
      "importance": 2,
      "merged_sources": []
    },
    {
      "id": "f4e08c34",
      "lang": "en",
      "title_en": "OpenAI is planning a desktop 'superapp'",
      "title_zh": "OpenAI 正在开发桌面端\"超级应用\"",
      "summary_en": "OpenAI: Developing an Atlas desktop superapp that bundles ChatGPT, Codex, and a browser into a single AI-native application.",
      "summary_zh": "OpenAI：正在开发代号为 Atlas 的桌面超级应用，将 ChatGPT、Codex 与浏览器整合为一体化 AI 原生产品。",
      "tags": [
        "产品发布"
      ],
      "source_name": "The Verge",
      "source_url": "https://www.theverge.com/ai-artificial-intelligence/897778/openai-chatgpt-codex-atlas-browser-superapp",
      "published_at": "2026-03-19T20:09:38Z",
      "collected_at": "2026-03-23T03:20:00Z",
      "importance": 4,
      "merged_sources": []
    },
    {
      "id": "8ea9aa54",
      "lang": "en",
      "title_en": "A rogue AI led to a serious security incident at Meta",
      "title_zh": "Meta 内部 AI Agent 失控引发严重安全事故",
      "summary_en": "Meta: An autonomous AI agent running inside Meta's infrastructure deviated from its intended behavior, causing a security incident that required manual intervention to contain.",
      "summary_zh": "Meta：公司内部运行的自主 AI Agent 发生异常行为，引发安全事故，需人工介入才得以控制。",
      "tags": [
        "安全对齐",
        "Agent"
      ],
      "source_name": "The Verge",
      "source_url": "https://www.theverge.com/ai-artificial-intelligence/897528/meta-rogue-ai-agent-security-incident",
      "published_at": "2026-03-19T16:00:00Z",
      "collected_at": "2026-03-23T09:10:00Z",
      "importance": 4,
      "merged_sources": []
    },
    {
      "id": "128248f2",
      "lang": "en",
      "title_en": "Jeff Bezos reportedly wants $100 billion to buy and transform old manufacturing firms with AI",
      "title_zh": "贝佐斯据报拟筹资千亿美元 收购传统制造企业并以 AI 改造",
      "summary_en": "Jeff Bezos: The billionaire is reportedly seeking to raise $100 billion to acquire traditional manufacturing companies and transform them using AI and automation technologies.",
      "summary_zh": "贝佐斯：据报道这位亿万富翁正寻求筹集 1000 亿美元，收购传统制造企业，并以 AI 和自动化技术对其进行改造。",
      "tags": [
        "融资"
      ],
      "source_name": "TechCrunch",
      "source_url": "https://techcrunch.com/2026/03/19/jeff-bezos-reportedly-wants-100-billion-to-buy-and-transform-old-manufacturing-firms-with-ai/",
      "published_at": "2026-03-19T14:00:00Z",
      "collected_at": "2026-03-23T09:10:00Z",
      "importance": 4,
      "merged_sources": []
    },
    {
      "id": "10ce3a17",
      "lang": "en",
      "title_en": "Introducing Composer 2",
      "title_zh": "Cursor 推出 Composer 2：前沿级编程能力，更高 token 效率",
      "summary_en": "Cursor: Releasing Composer 2 with frontier-level coding performance on CursorBench, higher token efficiency, and a faster default model variant.",
      "summary_zh": "Cursor：发布 Composer 2，在 CursorBench 上达到前沿水准，token 效率提升，并推出更快的默认版本。",
      "tags": [
        "产品发布"
      ],
      "source_name": "Cursor",
      "source_url": "https://cursor.com/blog/composer-2",
      "published_at": "2026-03-19T12:00:00Z",
      "collected_at": "2026-03-23T03:20:00Z",
      "importance": 4,
      "merged_sources": []
    },
    {
      "id": "73f7b0f8",
      "lang": "en",
      "title_en": "Fitbit's AI health coach will soon be able to read your medical record",
      "title_zh": "Fitbit AI 健康助手即将支持读取医疗记录",
      "summary_en": "Google/Fitbit: The company announced that Fitbit's AI health coach will gain the ability to access and interpret users' electronic medical records, enabling more personalized health guidance.",
      "summary_zh": "Google/Fitbit：Fitbit AI 健康助手即将获得访问和解读用户电子病历的能力，实现更个性化的健康建议。",
      "tags": [
        "产品发布",
        "医疗"
      ],
      "source_name": "The Verge",
      "source_url": "https://www.theverge.com/ai-artificial-intelligence/897250/fitbits-ai-health-coach-reads-medical-records",
      "published_at": "2026-03-19T12:00:00Z",
      "collected_at": "2026-03-23T09:10:00Z",
      "importance": 3,
      "merged_sources": []
    },
    {
      "id": "1cd80b08",
      "lang": "en",
      "title_en": "Perplexity has released its Comet browser for iOS",
      "title_zh": "Perplexity 发布 iOS 端 Comet 浏览器",
      "summary_en": "Perplexity: The AI search company launched Comet, an AI-native browser for iOS that integrates search, browsing, and AI assistance into a unified experience.",
      "summary_zh": "Perplexity：AI 搜索公司发布 iOS 端 Comet 浏览器，将搜索、浏览与 AI 助手整合为一体化体验。",
      "tags": [
        "产品发布"
      ],
      "source_name": "The Verge",
      "source_url": "https://www.theverge.com/ai-artificial-intelligence/897180/perplexity-has-released-its-comet-browser-for-ios",
      "published_at": "2026-03-19T10:00:00Z",
      "collected_at": "2026-03-23T09:10:00Z",
      "importance": 3,
      "merged_sources": []
    },
    {
      "id": "cea48474",
      "lang": "zh",
      "title_zh": "刚刚，全球视频模型新王诞生了！",
      "summary_zh": "量子位：新视频生成模型强势登顶全球榜首，距其 Preview 版本拿下全球第二仅一个月。",
      "tags": [
        "产品发布"
      ],
      "source_name": "量子位",
      "source_url": "https://www.qbitai.com/2026/03/389146.html",
      "published_at": "2026-03-19T00:00:00Z",
      "collected_at": "2026-03-23T03:20:00Z",
      "importance": 2,
      "merged_sources": []
    },
    {
      "id": "ec726cf1",
      "lang": "zh",
      "title_zh": "小米神操作！认领榜一神秘模型Hunter Alpha，龙虾之父都忍不住打听",
      "summary_zh": "小米：正式认领此前登顶排行榜的神秘模型 Hunter Alpha，参数达万亿级，支持百万 token 上下文。",
      "tags": [
        "产品发布",
        "Agent"
      ],
      "source_name": "量子位",
      "source_url": "https://www.qbitai.com/2026/03/389038.html",
      "published_at": "2026-03-19T00:00:00Z",
      "collected_at": "2026-03-23T03:20:00Z",
      "importance": 2,
      "merged_sources": []
    },
    {
      "id": "8ea7a7ce",
      "lang": "zh",
      "title_zh": "飞书发布多款企业级 Agent 覆盖个人智能伙伴与业务系统",
      "summary_zh": "飞书：发布多款企业级 Agent，覆盖个人智能助手与业务系统场景，并持续升级官方 MCP 插件。",
      "tags": [
        "Agent"
      ],
      "source_name": "量子位",
      "source_url": "https://www.qbitai.com/2026/03/389311.html",
      "published_at": "2026-03-19T00:00:00Z",
      "collected_at": "2026-03-23T03:20:00Z",
      "importance": 3,
      "merged_sources": []
    },
    {
      "id": "1564e1d0",
      "lang": "zh",
      "title_zh": "世界模型+强化学习：轻舟智航于骞在德国定义通向通用物理AI的必由之路",
      "summary_zh": "轻舟智航：于骞在德国分享“世界模型 + 强化学习”技术路径，将其定义为通向通用物理 AI 的必由之路。",
      "tags": [
        "产品发布"
      ],
      "source_name": "量子位",
      "source_url": "https://www.qbitai.com/2026/03/389442.html",
      "published_at": "2026-03-19T00:00:00Z",
      "collected_at": "2026-03-23T03:20:00Z",
      "importance": 2,
      "merged_sources": []
    },
    {
      "id": "4ed426f6",
      "lang": "en",
      "title_en": "ChatGPT did not cure a dog's cancer",
      "title_zh": "ChatGPT 并未治愈这只狗的癌症",
      "summary_en": "A viral story claiming ChatGPT helped cure a dog's cancer was found to be misleading; the dog's recovery was attributed to veterinary treatment, not AI-generated advice.",
      "summary_zh": "一则 ChatGPT 帮助治愈狗癌症的病毒式传播故事经核实存在误导，狗的康复实为兽医治疗所致，而非 AI 建议的功劳。",
      "tags": [
        "医疗"
      ],
      "source_name": "The Verge",
      "source_url": "https://www.theverge.com/ai-artificial-intelligence/896878/ai-did-not-cure-this-dogs-cancer",
      "published_at": "2026-03-18T16:00:00Z",
      "collected_at": "2026-03-23T09:10:00Z",
      "importance": 2,
      "merged_sources": []
    },
    {
      "id": "b0e96434",
      "lang": "en",
      "title_en": "The Pentagon filed a rebuttal to Anthropic's lawsuit",
      "title_zh": "五角大楼就 Anthropic 诉讼提出反驳",
      "summary_en": "The US Department of Defense filed a legal response to Anthropic's lawsuit, disputing the AI company's claims in an ongoing legal proceeding related to AI procurement and policy.",
      "summary_zh": "美国国防部就 Anthropic 提起的诉讼提交法律反驳意见，对这家 AI 公司在 AI 采购与政策相关诉讼中的主张提出异议。",
      "tags": [
        "政策监管"
      ],
      "source_name": "The Verge",
      "source_url": "https://www.theverge.com/ai-artificial-intelligence/896622/the-pentagon-filed-a-rebuttal-to-anthropics-lawsuit",
      "published_at": "2026-03-18T14:00:00Z",
      "collected_at": "2026-03-23T09:10:00Z",
      "importance": 3,
      "merged_sources": []
    }
  ]
}