{
  "latest_date": "2026-03-31",
  "updated_at": "2026-03-31T08:50:00Z",
  "dates": [
    "2026-03-31",
    "2026-03-30",
    "2026-03-29",
    "2026-03-28",
    "2026-03-26",
    "2026-03-25",
    "2026-03-24",
    "2026-03-23",
    "2026-03-22",
    "2026-03-21",
    "2026-03-20",
    "2026-03-19",
    "2026-03-18",
    "2026-03-17",
    "2026-03-16",
    "2026-03-15",
    "2026-03-14",
    "2026-03-13",
    "2026-03-12",
    "2026-03-11",
    "2026-03-10",
    "2026-03-09",
    "2026-03-08",
    "2026-03-07",
    "2026-03-06",
    "2026-03-05"
  ],
  "total_items": 298,
  "page": 8,
  "page_size": 20,
  "total_pages": 15,
  "items": [
    {
      "id": "e77aa854",
      "lang": "zh",
      "title_zh": "龙虾爆火之后，AI初创的全球化机会来了吗？｜线下沙龙报名",
      "summary_zh": "量子位：量子位将于 3 月 26 日举办 AI 初创全球化线下沙龙，邀请小影科技、FluxA、谷歌、京东、声网、Meshy 等企业分享出海实践经验，面向有全球化意向的 AI 创业团队开放报名。",
      "tags": [
        "行业活动",
        "出海"
      ],
      "source_name": "量子位",
      "source_url": "https://www.qbitai.com/2026/03/391760.html",
      "published_at": "2026-03-24T13:09:56Z",
      "collected_at": "2026-03-24T15:00:00Z",
      "importance": 2,
      "merged_sources": []
    },
    {
      "id": "d0007d81",
      "lang": "en",
      "title_en": "Mirage raises $75M to continue building models for its AI video editing app Captions",
      "title_zh": "Mirage 融资 7500 万美元，继续开发 AI 视频编辑应用 Captions",
      "summary_en": "TechCrunch: Mirage has raised $75 million to further develop AI models powering its video editing application Captions. The funding will be used to advance its AI-driven video production capabilities and expand the app's features for creators.",
      "summary_zh": "TechCrunch：Mirage 完成 7500 万美元融资，将用于进一步开发其视频编辑应用 Captions 背后的 AI 模型，推进 AI 驱动的视频制作能力，并为创作者拓展更多功能。",
      "tags": [
        "融资",
        "多模态",
        "产品发布"
      ],
      "source_name": "TechCrunch",
      "source_url": "https://techcrunch.com/2026/03/24/mirage-raises-75m-to-continue-building-models-for-its-ai-video-editing-app-captions/",
      "published_at": "2026-03-24T13:05:00Z",
      "collected_at": "2026-03-24T15:00:00Z",
      "importance": 3,
      "merged_sources": []
    },
    {
      "id": "dc202831",
      "lang": "en",
      "title_en": "Agile Robots becomes the latest robotics company to partner with Google DeepMind",
      "title_zh": "Agile Robots 成为最新与 Google DeepMind 合作的机器人公司",
      "summary_en": "TechCrunch: Agile Robots has announced a partnership with Google DeepMind, joining a growing list of robotics companies collaborating with the AI research lab. The partnership aims to integrate DeepMind's AI capabilities into Agile Robots' humanoid and legged robot platforms.",
      "summary_zh": "TechCrunch：Agile Robots 宣布与 Google DeepMind 建立合作关系，加入越来越多与该 AI 研究实验室合作的机器人公司行列，旨在将 DeepMind 的 AI 能力整合到其人形及腿足机器人平台。",
      "tags": [
        "机器人",
        "合作",
        "Google DeepMind"
      ],
      "source_name": "TechCrunch",
      "source_url": "https://techcrunch.com/2026/03/24/agile-robots-becomes-the-latest-robotics-company-to-partner-with-google-deepmind/",
      "published_at": "2026-03-24T12:05:00Z",
      "collected_at": "2026-03-24T15:00:00Z",
      "importance": 3,
      "merged_sources": []
    },
    {
      "id": "f55cdd45",
      "lang": "en",
      "title_en": "Update on the OpenAI Foundation",
      "title_zh": "OpenAI基金会最新动态",
      "summary_en": "OpenAI: The OpenAI Foundation announces plans to invest at least $1 billion across four mission areas including curing diseases, jobs and economic impact, AI resilience, and supporting communities, marking a major philanthropic expansion following recapitalization.",
      "summary_zh": "OpenAI：OpenAI基金会宣布计划在四个使命领域投资至少10亿美元，包括治愈疾病、就业与经济影响、AI韧性以及社区支持，标志着公司重组后的重大慈善扩张。",
      "tags": [
        "行业动态"
      ],
      "source_name": "OpenAI",
      "source_url": "https://openai.com/index/update-on-the-openai-foundation/",
      "published_at": "2026-03-24T12:00:00Z",
      "collected_at": "2026-03-25T01:12:00Z",
      "importance": 4,
      "merged_sources": []
    },
    {
      "id": "9ad30de2",
      "lang": "en",
      "title_en": "Powering Product Discovery in ChatGPT",
      "title_zh": "ChatGPT推出沉浸式购物产品发现功能",
      "summary_en": "OpenAI: ChatGPT launches richer, visually immersive shopping experiences powered by the Agentic Commerce Protocol, enabling product discovery, side-by-side comparisons, and deeper merchant integration within the chat interface.",
      "summary_zh": "OpenAI：ChatGPT推出基于Agentic Commerce Protocol的沉浸式购物体验，支持产品发现、对比购物及商家深度集成，进一步强化AI购物助手能力。",
      "tags": [
        "产品发布"
      ],
      "source_name": "OpenAI",
      "source_url": "https://openai.com/index/powering-product-discovery-in-chatgpt/",
      "published_at": "2026-03-24T12:00:00Z",
      "collected_at": "2026-03-25T01:12:00Z",
      "importance": 4,
      "merged_sources": [
        "https://www.theverge.com/ai-artificial-intelligence/899677/openai-google-gemini-ai-shopping-features"
      ]
    },
    {
      "id": "fe256ebf",
      "lang": "en",
      "title_en": "Helping developers build safer AI experiences for teens",
      "title_zh": "OpenAI发布青少年AI安全策略，助力开发者构建更安全的产品",
      "summary_en": "OpenAI: OpenAI released open-source prompt-based teen safety policies designed for use with gpt-oss-safeguard. The policies cover six risk areas including violent/sexual content, harmful body ideals, dangerous activities, roleplay, and age-restricted goods, helping developers build age-appropriate AI protections for young users without starting from scratch. Developed with input from Common Sense Media and everyone.ai.",
      "summary_zh": "OpenAI：OpenAI发布基于提示词的青少年安全策略，可直接与gpt-oss-safeguard配合使用。策略涵盖暴力/色情内容、有害体型观念、危险活动、角色扮演、限龄商品六大风险领域，帮助开发者在开源生态中为未成年用户构建年龄适配的安全保护机制。策略由Common Sense Media等机构参与制定，并通过ROOST Model Community开源发布。",
      "tags": [
        "AI安全",
        "开发者工具"
      ],
      "source_name": "OpenAI",
      "source_url": "https://openai.com/index/helping-developers-build-safer-ai-experiences-for-teens/",
      "published_at": "2026-03-24T12:00:00Z",
      "collected_at": "2026-03-25T03:00:00Z",
      "importance": 3,
      "merged_sources": []
    },
    {
      "id": "28c6dab0",
      "lang": "en",
      "title_en": "Anthropic hands Claude Code more control, but keeps it on a leash",
      "title_zh": "Anthropic为Claude Code新增自动模式，扩大自主执行权限",
      "summary_en": "TechCrunch: Anthropic has launched auto mode for Claude Code, enabling the AI agent to execute multi-step development tasks with fewer manual approvals. The update reflects a broader industry trend toward more autonomous agentic coding tools, while Anthropic maintains safety guardrails to limit unintended actions.",
      "summary_zh": "TechCrunch：Anthropic为Claude Code推出自动模式，允许AI代理自主完成多步骤开发任务，减少人工审批环节。此举体现了AI编程工具走向更高自主性的行业趋势，但Anthropic仍保留安全限制。",
      "tags": [
        "产品发布",
        "AI Agent"
      ],
      "source_name": "TechCrunch",
      "source_url": "https://techcrunch.com/2026/03/24/anthropic-hands-claude-code-more-control-but-keeps-it-on-a-leash/",
      "published_at": "2026-03-24T12:00:00Z",
      "collected_at": "2026-03-25T03:00:00Z",
      "importance": 4,
      "merged_sources": [
        "https://claude.com/blog/auto-mode",
        "https://www.theverge.com/ai-artificial-intelligence/899430/anthropic-claude-code-cowork-ai-control-computer"
      ]
    },
    {
      "id": "dc202831",
      "lang": "en",
      "title_en": "Agile Robots becomes the latest robotics company to partner with Google DeepMind",
      "title_zh": "Agile Robots与Google DeepMind合作，引入机器人基础模型",
      "summary_en": "TechCrunch: Agile Robots has announced a partnership with Google DeepMind to integrate DeepMind's robotics foundation models into its robots. The collaboration also involves data collection to advance DeepMind's AI research, making Agile Robots the latest in a growing list of robotics firms teaming up with the AI lab.",
      "summary_zh": "TechCrunch：Agile Robots宣布与Google DeepMind合作，将DeepMind机器人基础模型集成到其机器人产品中，同时为DeepMind AI研究提供数据支持，成为又一家与该AI实验室携手的机器人企业。",
      "tags": [
        "模型与技术",
        "行业动态"
      ],
      "source_name": "TechCrunch",
      "source_url": "https://techcrunch.com/2026/03/24/agile-robots-becomes-the-latest-robotics-company-to-partner-with-google-deepmind/",
      "published_at": "2026-03-24T12:00:00Z",
      "collected_at": "2026-03-25T03:00:00Z",
      "importance": 3,
      "merged_sources": []
    },
    {
      "id": "56974e3d",
      "lang": "en",
      "title_en": "OpenAI just gave up on Sora and its billion-dollar Disney deal",
      "title_zh": "OpenAI宣布关停Sora并终止与迪士尼的合作",
      "summary_en": "The Verge: OpenAI is winding down its Sora AI video generation model and app, and ending a recently-announced partnership with Disney, marking a significant strategic retreat from the AI video generation market just 25 months after Sora's debut.",
      "summary_zh": "The Verge：OpenAI宣布关停Sora AI视频生成模型及应用，并终止与迪士尼的合作协议，距Sora发布仅25个月，是OpenAI在AI视频赛道的重大战略退出。",
      "tags": [
        "行业动态"
      ],
      "source_name": "The Verge",
      "source_url": "https://www.theverge.com/ai-artificial-intelligence/899850/openai-sora-ai-chatgpt",
      "published_at": "2026-03-24T10:00:00Z",
      "collected_at": "2026-03-25T01:12:00Z",
      "importance": 5,
      "merged_sources": [
        "https://www.qbitai.com/2026/03/391799.html"
      ]
    },
    {
      "id": "eabcc45a",
      "lang": "en",
      "title_en": "Arm's first CPU ever will plug into Meta's AI data centers later this year",
      "title_zh": "Arm首款自研CPU将于年内接入Meta的AI数据中心",
      "summary_en": "The Verge: Arm is launching its first in-house designed CPU called the AGI CPU, which will be deployed by Meta in its AI data centers later this year, signaling Arm's strategic move from licensing architecture to building its own silicon.",
      "summary_zh": "The Verge：Arm发布首款自研CPU（命名为AGI CPU），将于年内部署在Meta的AI数据中心，标志着Arm从授权架构向自研芯片的战略转型。",
      "tags": [
        "模型与技术"
      ],
      "source_name": "The Verge",
      "source_url": "https://www.theverge.com/ai-artificial-intelligence/899823/arm-agi-cpu-meta",
      "published_at": "2026-03-24T10:00:00Z",
      "collected_at": "2026-03-25T01:12:00Z",
      "importance": 4,
      "merged_sources": []
    },
    {
      "id": "22db4cab",
      "lang": "en",
      "title_en": "Show HN: ProofShot – Give AI coding agents eyes to verify the UI they build",
      "title_zh": "ProofShot：为AI编程智能体提供UI视觉验证能力",
      "summary_en": "ProofShot: ProofShot is an open tool that gives AI coding agents visual verification capabilities for the UIs they generate. It enables agents to capture screenshots of their output and compare actual vs. intended UI state, helping detect visual discrepancies without manual review. Submitted as a Show HN project.",
      "summary_zh": "ProofShot：ProofShot是一款为AI编程智能体提供UI视觉验证能力的开源工具。该工具使智能体能够截图并检查自身生成的界面，帮助识别实际UI与预期之间的视觉差异，降低人工审核成本。",
      "tags": [
        "AI编程",
        "工具",
        "智能体"
      ],
      "source_name": "Hacker News",
      "source_url": "https://proofshot.argil.io/",
      "published_at": "2026-03-24T07:46:00Z",
      "collected_at": "2026-03-24T09:00:00Z",
      "importance": 2,
      "merged_sources": []
    },
    {
      "id": "580668b1",
      "lang": "en",
      "title_en": "Pool spare GPU capacity to run LLMs at larger scale",
      "title_zh": "聚合闲置GPU算力以更大规模运行大语言模型",
      "summary_en": "Hacker News: An open-source project, mesh-llm, proposes pooling idle GPU capacity across machines to run large language models at greater scale without dedicated infrastructure. The approach enables distributed LLM inference by treating spare compute as a shared mesh network.",
      "summary_zh": "Hacker News：开源项目mesh-llm提出将多台机器闲置GPU算力汇集起来，无需专属基础设施即可大规模运行大语言模型，将空余算力视为共享网格网络，实现分布式LLM推理。",
      "tags": [
        "开源",
        "基础设施"
      ],
      "source_name": "Hacker News",
      "source_url": "https://github.com/michaelneale/mesh-llm",
      "published_at": "2026-03-24T05:43:00Z",
      "collected_at": "2026-03-24T09:05:00Z",
      "importance": 3,
      "merged_sources": []
    },
    {
      "id": "6354345b",
      "lang": "en",
      "title_en": "Show HN: ProofShot – Give AI coding agents eyes to verify the UI they build",
      "title_zh": "ProofShot：让AI编程Agent能看见并验证自己构建的UI",
      "summary_en": "Hacker News: ProofShot is a new tool that provides AI coding agents with visual verification capabilities, allowing them to take screenshots and validate that the UI they generate matches intended designs. The Show HN post highlights growing demand for closed-loop feedback in AI-assisted software development.",
      "summary_zh": "Hacker News：ProofShot是一款为AI编程Agent提供视觉验证能力的新工具，使其能截图并确认自动生成的UI是否符合预期设计，体现了AI辅助软件开发中对闭环反馈机制的迫切需求。",
      "tags": [
        "AI编程",
        "工具与平台"
      ],
      "source_name": "Hacker News",
      "source_url": "https://proofshot.argil.io/",
      "published_at": "2026-03-24T04:23:00Z",
      "collected_at": "2026-03-24T09:05:00Z",
      "importance": 3,
      "merged_sources": []
    },
    {
      "id": "77da0ae0",
      "lang": "zh",
      "title_zh": "黄仁勋暴论核弹：AGI已经实现，Ilya错了，程序员有10亿",
      "summary_zh": "量子位：英伟达CEO黄仁勋抛出重磅论断，称AGI已经实现，并直言Ilya Sutskever关于预训练触顶的判断是错的，认为合成数据将进一步推动数据规模扩张。他预测全球将出现10亿级AI程序员，并强调推理计算比预训练更难、更重要，引发业界广泛讨论。",
      "tags": [
        "行业动态",
        "模型能力"
      ],
      "source_name": "量子位",
      "source_url": "https://www.qbitai.com/2026/03/391750.html",
      "published_at": "2026-03-24T03:00:00Z",
      "collected_at": "2026-03-24T09:05:00Z",
      "importance": 5,
      "merged_sources": []
    },
    {
      "id": "6f6397af",
      "lang": "zh",
      "title_zh": "RoboChallenge Table30 V2 正式发布，泛化时代开幕",
      "summary_zh": "量子位：具身智能评测基准RoboChallenge Table30 V2正式发布，新增18个双臂灵巧操作任务，总计30个高难度任务，专注考核模型泛化能力。新版本重构了学习与测试协议，终结了为比赛调参的旧模式，旨在为全球具身智能研究者提供公平开放的真机竞技场。",
      "tags": [
        "具身智能",
        "评测基准"
      ],
      "source_name": "量子位",
      "source_url": "https://www.qbitai.com/2026/03/391744.html",
      "published_at": "2026-03-24T02:30:00Z",
      "collected_at": "2026-03-24T09:05:00Z",
      "importance": 3,
      "merged_sources": []
    },
    {
      "id": "9355a186",
      "lang": "en",
      "title_en": "Epoch confirms GPT-5.4 Pro solved a Frontier Math Open Problem for the first time",
      "title_zh": "Epoch AI确认：GPT-5.4 Pro首次解决FrontierMath开放数学难题",
      "summary_en": "Epoch AI: Epoch confirmed that OpenAI's GPT-5.4 Pro successfully solved an open problem from the FrontierMath benchmark, marking the first time any AI model has cracked a problem in this rigorous mathematical challenge set designed to push beyond current AI capabilities.",
      "summary_zh": "Epoch AI：研究机构Epoch确认，OpenAI的GPT-5.4 Pro成功解决了FrontierMath基准测试中的一道开放数学难题，标志着AI模型首次攻克该为突破当前AI能力极限而设计的严苛数学挑战赛中的开放性问题。",
      "tags": [
        "模型能力",
        "评测基准"
      ],
      "source_name": "Hacker News",
      "source_url": "https://epoch.ai/frontiermath/open-problems/ramsey-hypergraphs",
      "published_at": "2026-03-24T01:53:00Z",
      "collected_at": "2026-03-24T03:00:00Z",
      "importance": 4,
      "merged_sources": []
    },
    {
      "id": "4f759cf2",
      "lang": "en",
      "title_en": "I Created My First AI-Assisted Pull Request and I Feel Like a Fraud",
      "title_zh": "我用 AI 辅助完成了第一个 Pull Request，却感觉像个骗子",
      "summary_en": "Hacker News: A developer reflects on using AI coding tools to submit their first AI-assisted pull request, exploring feelings of imposter syndrome and questions about authenticity in AI-augmented software development. The personal essay resonates with many developers navigating the shift toward AI-assisted workflows.",
      "summary_zh": "Hacker News：一位开发者分享了使用 AI 编程工具提交第一个 AI 辅助 Pull Request 的心路历程，探讨了在 AI 增强软件开发中关于冒名顶替综合症和真实性的思考，引发了大量开发者对 AI 辅助工作流的共鸣。",
      "tags": [
        "工具与平台",
        "行业动态"
      ],
      "source_name": "Hacker News",
      "source_url": "https://nelson.cloud/i-created-my-first-ai-assisted-pull-request-and-i-feel-like-a-fraud/",
      "published_at": "2026-03-24T01:42:38Z",
      "collected_at": "2026-03-24T03:08:59.590728Z",
      "importance": 2,
      "merged_sources": []
    },
    {
      "id": "6162e5ae",
      "lang": "zh",
      "title_zh": "LeCun的世界模型单GPU就能跑了",
      "summary_zh": "量子位：新研究实现仅需单GPU即可稳定训练LeCun提倡的世界模型（JEPA类架构），只靠像素输入无需复杂技巧，能预测执行某动作后世界的变化。通过SIGReg正则化解决了以往JEPA方案的崩溃问题，可直接用于机器人和智能体规划控制，兼顾速度与稳定性。",
      "tags": [
        "具身智能",
        "模型能力"
      ],
      "source_name": "量子位",
      "source_url": "https://www.qbitai.com/2026/03/391698.html",
      "published_at": "2026-03-24T01:30:00Z",
      "collected_at": "2026-03-24T09:05:00Z",
      "importance": 4,
      "merged_sources": []
    },
    {
      "id": "12f145df",
      "lang": "zh",
      "title_zh": "又一华为天才少年入局具身创业！用视频生成数据训家用机器人，首个模型登顶具身基模榜单",
      "summary_zh": "量子位：华为诺亚方舟实验室前研究员周凯文创办具身智能公司，采用视频生成合成数据方式训练家用机器人，首个发布模型即登顶具身基础模型榜单。该公司半年内完成三轮融资，被视为具身智能赛道又一重量级选手入场。",
      "tags": [
        "具身智能",
        "创业融资"
      ],
      "source_name": "量子位",
      "source_url": "https://www.qbitai.com/2026/03/391668.html",
      "published_at": "2026-03-24T01:00:00Z",
      "collected_at": "2026-03-24T09:05:00Z",
      "importance": 4,
      "merged_sources": []
    },
    {
      "id": "28f46213",
      "lang": "zh",
      "title_zh": "Claude Code新增Computer Use能力！GUI操控电脑和真人无差别",
      "summary_zh": "量子位：Anthropic为Claude Code升级了Computer Use能力，使其可通过实时截图看到屏幕内容，并像真人一样模拟鼠标键盘操作。无需API接口或CLI改造，任何传统软件（包括Photoshop、视频剪辑等）都纳入Agent操控范围，被视为对开源竞品的精准反击，公司估值随之暴涨300%。",
      "tags": [
        "产品发布",
        "AI编程"
      ],
      "source_name": "量子位",
      "source_url": "https://www.qbitai.com/2026/03/391567.html",
      "published_at": "2026-03-24T00:00:00Z",
      "collected_at": "2026-03-24T03:00:00Z",
      "importance": 5,
      "merged_sources": []
    }
  ]
}