{
  "latest_date": "2026-03-29",
  "updated_at": "2026-03-29T09:00:00Z",
  "dates": [
    "2026-03-29",
    "2026-03-28",
    "2026-03-26",
    "2026-03-25",
    "2026-03-24",
    "2026-03-23",
    "2026-03-22",
    "2026-03-21",
    "2026-03-20",
    "2026-03-19",
    "2026-03-18",
    "2026-03-17",
    "2026-03-16",
    "2026-03-15",
    "2026-03-14",
    "2026-03-13",
    "2026-03-12",
    "2026-03-11",
    "2026-03-10",
    "2026-03-09",
    "2026-03-08",
    "2026-03-07",
    "2026-03-06",
    "2026-03-05"
  ],
  "total_items": 234,
  "page": 7,
  "page_size": 20,
  "total_pages": 12,
  "items": [
    {
      "id": "16e7e33a",
      "lang": "en",
      "title_en": "Cq – Stack Overflow for AI coding agents",
      "title_zh": "Cq：专为 AI 编程代理打造的 Stack Overflow",
      "summary_en": "Hacker News: Mozilla.ai introduced Cq, an open platform designed as a Stack Overflow equivalent for AI coding agents, allowing agents to query structured knowledge bases and share solutions. The project aims to improve agent reliability by grounding responses in curated, authoritative Q&A rather than raw web data.",
      "summary_zh": "Hacker News：Mozilla.ai 推出 Cq，这是一个面向 AI 编程代理的开放知识平台，相当于代理版 Stack Overflow。该平台允许 AI 代理查询结构化知识库并共享解决方案，以提升代理回答的准确性与可靠性。",
      "tags": [
        "AI工具",
        "代理",
        "开源"
      ],
      "source_name": "Hacker News",
      "source_url": "https://blog.mozilla.ai/cq-stack-overflow-for-agents/",
      "published_at": "2026-03-23T16:11:03Z",
      "collected_at": "2026-03-24T00:00:00Z",
      "importance": 3,
      "merged_sources": []
    },
    {
      "id": "6947468d",
      "lang": "en",
      "title_en": "Mark Zuckerberg Is Building an AI Agent to Help Him Be CEO",
      "title_zh": "扎克伯格正在打造 AI 代理辅助其 CEO 决策",
      "summary_en": "Hacker News: According to a WSJ report, Meta CEO Mark Zuckerberg is developing an AI agent designed to assist with executive decision-making, including analyzing business data, preparing briefings, and streamlining internal communications. The project reflects broader C-suite interest in AI-augmented leadership.",
      "summary_zh": "Hacker News：《华尔街日报》报道，Meta CEO 扎克伯格正在开发一款 AI 代理，用于辅助高管决策，包括分析商业数据、准备汇报材料和优化内部沟通。此举折射出高层管理者对 AI 赋能领导力的浓厚兴趣。",
      "tags": [
        "代理",
        "Meta",
        "AI应用"
      ],
      "source_name": "Hacker News",
      "source_url": "https://www.wsj.com/tech/ai/mark-zuckerberg-is-building-an-ai-agent-to-help-him-be-ceo-eddab2d5",
      "published_at": "2026-03-23T16:04:20Z",
      "collected_at": "2026-03-24T00:00:00Z",
      "importance": 3,
      "merged_sources": []
    },
    {
      "id": "4e744749",
      "lang": "en",
      "title_en": "Startup Gimlet Labs is solving the AI inference bottleneck in a surprisingly elegant way",
      "title_zh": "初创公司 Gimlet Labs 以优雅方案破解 AI 推理瓶颈",
      "summary_en": "TechCrunch: Gimlet Labs raised an $80 million Series A for its chip-agnostic AI inference technology that runs workloads simultaneously across NVIDIA, AMD, Intel, ARM, Cerebras, and d-Matrix chips. The approach addresses the fragmented inference hardware landscape by abstracting away underlying chip differences.",
      "summary_zh": "TechCrunch：AI 推理初创公司 Gimlet Labs 完成 8000 万美元 A 轮融资，其技术可同时调度 NVIDIA、AMD、Intel、ARM、Cerebras 及 d-Matrix 等多种芯片执行推理任务，有效解决推理硬件碎片化问题。",
      "tags": [
        "AI基础设施",
        "推理",
        "投资融资"
      ],
      "source_name": "TechCrunch",
      "source_url": "https://techcrunch.com/2026/03/23/startup-gimlet-labs-is-solving-the-ai-inference-bottleneck-in-a-surprisingly-elegant-way/",
      "published_at": "2026-03-23T16:00:00Z",
      "collected_at": "2026-03-24T00:00:00Z",
      "importance": 4,
      "merged_sources": []
    },
    {
      "id": "0722ab48",
      "lang": "en",
      "title_en": "Littlebird raises $11M for its AI-assisted 'recall' tool that reads your computer screen",
      "title_zh": "Littlebird 融资 1100 万美元，打造读屏 AI 上下文召回工具",
      "summary_en": "TechCrunch: Littlebird raised $11M to build an AI tool that reads your screen in real time to capture context, answer questions, and automate tasks without relying on screenshots. The product positions itself as a privacy-aware alternative to AI recall tools, capturing context as text rather than images.",
      "summary_zh": "TechCrunch：Littlebird 完成 1100 万美元融资，其 AI 产品可实时读取屏幕内容、捕获上下文并自动回答问题，无需截图存储。该产品以隐私友好方式区别于微软 Recall 等竞品。",
      "tags": [
        "AI工具",
        "投资融资",
        "隐私"
      ],
      "source_name": "TechCrunch",
      "source_url": "https://techcrunch.com/2026/03/23/littlebird-raises-11m-to-capture-context-from-your-computer-so-you-can-query-your-data/",
      "published_at": "2026-03-23T16:00:00Z",
      "collected_at": "2026-03-24T00:00:00Z",
      "importance": 3,
      "merged_sources": []
    },
    {
      "id": "c795aa86",
      "lang": "en",
      "title_en": "Sam Altman-backed fusion startup Helion in talks with OpenAI",
      "title_zh": "Altman 支持的核聚变初创公司 Helion 与 OpenAI 洽谈供电协议",
      "summary_en": "TechCrunch: Helion Energy, the nuclear fusion startup backed by Sam Altman, is reportedly negotiating to sell 12.5% of its power output to OpenAI. The deal underscores OpenAI's aggressive push to secure large-scale clean energy for its expanding AI infrastructure.",
      "summary_zh": "TechCrunch：由 Sam Altman 等投资的核聚变初创 Helion Energy 据报正与 OpenAI 洽谈，拟将 12.5% 发电量出售给 OpenAI，以支持其快速扩张的 AI 基础设施对大规模清洁能源的需求。",
      "tags": [
        "AI基础设施",
        "能源"
      ],
      "source_name": "TechCrunch",
      "source_url": "https://techcrunch.com/2026/03/23/sam-altman-backed-fusion-startup-helion-in-talks-with-openai/",
      "published_at": "2026-03-23T15:03:36Z",
      "collected_at": "2026-03-23T15:00:00Z",
      "importance": 4,
      "merged_sources": []
    },
    {
      "id": "76109139",
      "lang": "en",
      "title_en": "iPhone 17 Pro Demonstrated Running a 400B LLM",
      "title_zh": "iPhone 17 Pro 本地运行 4000 亿参数大模型演示",
      "summary_en": "Hacker News: A demo video shows an iPhone 17 Pro running a 400-billion-parameter LLM locally using Apple's on-device neural engine. The demonstration sparked discussion about the state of edge AI and Apple Silicon's performance trajectory for large model inference.",
      "summary_zh": "Hacker News：演示视频显示 iPhone 17 Pro 可在本地运行 4000 亿参数大语言模型，借助苹果片上神经引擎实现，引发社区对端侧 AI 能力与苹果芯片性能路线的广泛讨论。",
      "tags": [
        "硬件",
        "边缘AI",
        "Apple"
      ],
      "source_name": "Hacker News",
      "source_url": "https://twitter.com/anemll/status/2035901335984611412",
      "published_at": "2026-03-23T14:30:10Z",
      "collected_at": "2026-03-23T15:00:00Z",
      "importance": 3,
      "merged_sources": []
    },
    {
      "id": "b4e74e04",
      "lang": "en",
      "title_en": "Confronting the CEO of the AI company that impersonated me",
      "title_zh": "对话那家 AI 公司 CEO：它的产品冒充了我",
      "summary_en": "The Verge: Grammarly's 'Expert Review' feature sparked controversy after it appeared to impersonate The Verge's Nilay Patel via AI. Superhuman CEO Shishir Mehrotra responds to the incident, discussing the ethics of AI impersonation in productivity tools and whether such systems create or extract value.",
      "summary_zh": "The Verge：Grammarly「Expert Review」功能被指借 AI 模仿 The Verge 主编 Nilay Patel 风格，引发争议。Superhuman CEO Shishir Mehrotra 就此作出回应，探讨 AI 冒充真人专家的伦理边界。",
      "tags": [
        "安全对齐",
        "产品发布"
      ],
      "source_name": "The Verge",
      "source_url": "https://www.theverge.com/podcast/898715/superhuman-grammarly-expert-review-shishir-mehrotra-interview-ai-impersonation",
      "published_at": "2026-03-23T13:30:00Z",
      "collected_at": "2026-03-23T15:00:00Z",
      "importance": 3,
      "merged_sources": []
    },
    {
      "id": "3f7f4d2b",
      "lang": "en",
      "title_en": "Snowflake lays off documentation staff after they train AI replacement",
      "title_zh": "Snowflake 让文档团队训练 AI 后将其裁员",
      "summary_en": "Hacker News: Snowflake reportedly laid off its documentation team shortly after tasking them with training an AI system to replace their roles. The incident has become a widely cited example of AI-driven workforce displacement and raises ethical questions about companies asking employees to build their own replacements.",
      "summary_zh": "Hacker News：Snowflake 被报道在安排文档团队训练用于替代其工作的 AI 系统后随即将其裁员，此事件被广泛引用为 AI 驱动劳动力替代的典型案例，引发伦理层面的争议。",
      "tags": [
        "行业动态",
        "安全对齐"
      ],
      "source_name": "Hacker News",
      "source_url": "https://threadreaderapp.com/thread/2035197183230709874.html",
      "published_at": "2026-03-23T11:35:30Z",
      "collected_at": "2026-03-23T15:00:00Z",
      "importance": 3,
      "merged_sources": []
    },
    {
      "id": "6a8da9dc",
      "lang": "zh",
      "title_zh": "别人都在卷视觉，这家具身公司偏要卷「手感」",
      "summary_zh": "量子位：在具身智能赛道普遍聚焦视觉感知的背景下，一家具身机器人公司另辟蹊径，深耕触觉感知技术。通过高精度触觉传感器与AI控制算法结合，实现机器人在精细操作任务中的突破，有望解决工业场景中的灵巧操作难题。",
      "tags": [
        "具身智能",
        "机器人",
        "触觉感知"
      ],
      "source_name": "量子位",
      "source_url": "https://www.qbitai.com/2026/03/391314.html",
      "published_at": "2026-03-23T03:00:00Z",
      "collected_at": "2026-03-23T09:00:00Z",
      "importance": 3,
      "merged_sources": []
    },
    {
      "id": "45529cfb",
      "lang": "zh",
      "title_zh": "字节版龙虾架构火爆GitHub！开源获35k+ Star，内置Skill全家桶，原生适配飞书",
      "summary_zh": "量子位：字节跳动开源的AI Agent框架在GitHub上迅速走红，获超35k Star。该框架采用MCP架构，内置丰富的Skill工具包，原生支持飞书集成，降低了企业构建AI应用的门槛，引发开发者社区广泛关注。",
      "tags": [
        "AI Agent",
        "开源",
        "字节跳动"
      ],
      "source_name": "量子位",
      "source_url": "https://www.qbitai.com/2026/03/391361.html",
      "published_at": "2026-03-23T02:00:00Z",
      "collected_at": "2026-03-23T09:00:00Z",
      "importance": 4,
      "merged_sources": []
    },
    {
      "id": "95ec809e",
      "lang": "en",
      "title_en": "Mark Zuckerberg is an AI CEO now",
      "title_zh": "扎克伯格已成为一位 AI CEO",
      "summary_en": "Meta: Mark Zuckerberg's identity and strategic focus have fundamentally shifted toward AI leadership, with Meta's core business bets now centered on AI models, AI assistants, and AI-powered products across its platforms.",
      "summary_zh": "Meta：扎克伯格的战略重心已全面转向 AI，Meta 核心业务赌注集中在 AI 模型、AI 助手和全平台 AI 产品上，其 CEO 定位已从社交媒体转向 AI 领导者。",
      "tags": [
        "产品发布"
      ],
      "source_name": "The Verge",
      "source_url": "https://www.theverge.com/ai-artificial-intelligence/898804/ai-ceo-mark-zuckerberg",
      "published_at": "2026-03-23T01:00:00Z",
      "collected_at": "2026-03-23T06:56:18Z",
      "importance": 3,
      "merged_sources": []
    },
    {
      "id": "13f0d4a0",
      "lang": "zh",
      "title_zh": "Momenta不选VLA选世界模型，大众首发！曹旭东：传感器重要性最后",
      "summary_zh": "量子位：Momenta宣布与大众汽车合作，在自动驾驶领域采用世界模型而非VLA架构，成为全球首家大规模落地世界模型的自动驾驶公司。创始人曹旭东表示，传感器重要性在其技术路线中排序靠后，核心在于数据驱动的世界模型建设。",
      "tags": [
        "具身智能",
        "自动驾驶",
        "世界模型"
      ],
      "source_name": "量子位",
      "source_url": "https://www.qbitai.com/2026/03/391474.html",
      "published_at": "2026-03-23T01:00:00Z",
      "collected_at": "2026-03-23T09:00:00Z",
      "importance": 4,
      "merged_sources": []
    },
    {
      "id": "af9be772",
      "lang": "zh",
      "title_zh": "马斯克要自己做「英伟达+台积电」！宇宙芯片宏图开工，算力产能扩5000%",
      "summary_zh": "马斯克：宣布在德克萨斯州奥斯汀开工建设 Terafab 芯片工厂，目标成为集芯片设计与制造于一体的「英伟达+台积电」，计划将算力产能扩大5000%，缓解 AI 行业芯片短缺。",
      "tags": [
        "硬件"
      ],
      "source_name": "量子位",
      "source_url": "https://www.qbitai.com/2026/03/391045.html",
      "published_at": "2026-03-23T00:00:00Z",
      "collected_at": "2026-03-23T06:56:18Z",
      "importance": 4,
      "merged_sources": []
    },
    {
      "id": "e7f7b8fc",
      "lang": "zh",
      "title_zh": "黄仁勋发 Token 当工资！硅谷兴起刷量大赛，一人烧掉33个维基百科",
      "summary_zh": "英伟达：黄仁勋在 GTC 演讲中提出以 AI Token 作为员工奖励，引发硅谷 AI 算力消耗竞赛，据统计部分工程师单日 Token 消耗量相当于33个完整维基百科的文本量。",
      "tags": [
        "产品发布"
      ],
      "source_name": "量子位",
      "source_url": "https://www.qbitai.com/2026/03/391061.html",
      "published_at": "2026-03-23T00:00:00Z",
      "collected_at": "2026-03-23T06:56:18Z",
      "importance": 3,
      "merged_sources": []
    },
    {
      "id": "3c73930e",
      "lang": "zh",
      "title_zh": "中关村北纬龙虾大赛圆满收官",
      "summary_zh": "中关村北纬举办的 AI Agent 应用大赛圆满落幕，聚焦智能体时代 AI 应用演进路径，多家企业展示具体落地案例。",
      "tags": [
        "Agent"
      ],
      "source_name": "量子位",
      "source_url": "https://www.qbitai.com/2026/03/391078.html",
      "published_at": "2026-03-23T00:00:00Z",
      "collected_at": "2026-03-23T06:56:18Z",
      "importance": 2,
      "merged_sources": []
    },
    {
      "id": "8b919016",
      "lang": "zh",
      "title_zh": "OpenClaw 创始人回信确认360独家发现漏洞",
      "summary_zh": "360：宣布独家发现 OpenClaw 安全漏洞，并获创始人书面确认，360 安全团队已完成漏洞验证与披露流程。",
      "tags": [
        "安全对齐"
      ],
      "source_name": "量子位",
      "source_url": "https://www.qbitai.com/2026/03/391303.html",
      "published_at": "2026-03-23T00:00:00Z",
      "collected_at": "2026-03-23T06:56:18Z",
      "importance": 3,
      "merged_sources": []
    },
    {
      "id": "4e5af414",
      "lang": "zh",
      "title_zh": "千问上线AI打车，一句话搞定选车、选地点、选时间",
      "summary_zh": "阿里千问：正式上线 AI 打车功能，用户只需一句话即可完成选车型、定地点、定时间全流程，依托 Qwen 大模型实现自然语言打车交互。",
      "tags": [
        "产品发布",
        "Agent"
      ],
      "source_name": "量子位",
      "source_url": "https://www.qbitai.com/2026/03/391308.html",
      "published_at": "2026-03-23T00:00:00Z",
      "collected_at": "2026-03-23T06:56:18Z",
      "importance": 3,
      "merged_sources": []
    },
    {
      "id": "01d83ff9",
      "lang": "zh",
      "title_zh": "院士+教授加盟趋境科技，领跑高效能AI Token生产新生态",
      "summary_zh": "趋境科技：宣布院士与教授团队重磅加盟，聚焦高效能 AI Token 生产基础设施建设，定位打造新一代 AI 算力生态。",
      "tags": [
        "融资"
      ],
      "source_name": "量子位",
      "source_url": "https://www.qbitai.com/2026/03/391339.html",
      "published_at": "2026-03-23T00:00:00Z",
      "collected_at": "2026-03-23T06:56:18Z",
      "importance": 3,
      "merged_sources": []
    },
    {
      "id": "ba626327",
      "lang": "en",
      "title_en": "AI influencer awards season is upon us",
      "title_zh": "AI 网红评奖季来袭",
      "summary_en": "The Verge: AI influencer awards and competitions are emerging as a cultural phenomenon, reflecting the growing mainstream visibility of AI personalities and content creators in social media.",
      "summary_zh": "AI 网红评选活动正在兴起，成为一种文化现象，反映出 AI 个性化内容创作者在社交媒体中日益增长的主流曝光度。",
      "tags": [
        "产品发布"
      ],
      "source_name": "The Verge",
      "source_url": "https://www.theverge.com/ai-artificial-intelligence/898781/ai-personality-of-the-year-influencer-contest",
      "published_at": "2026-03-23T00:00:00Z",
      "collected_at": "2026-03-23T06:56:18Z",
      "importance": 2,
      "merged_sources": []
    },
    {
      "id": "a27c50e6",
      "lang": "zh",
      "title_zh": "寻找最强具身大脑！全球机器人顶会ICRA开启报名，智元全程陪跑带你拿奖",
      "summary_zh": "量子位：ICRA 2026 机器人竞赛正式开启报名，智元机器人作为官方赞助方提供硬件平台、数据与算力支持，鼓励具身智能研究者参赛角逐国际最高荣誉。",
      "tags": [
        "具身智能",
        "机器人",
        "学术"
      ],
      "source_name": "量子位",
      "source_url": "https://www.qbitai.com/2026/03/391359.html",
      "published_at": "2026-03-23T00:00:00Z",
      "collected_at": "2026-03-23T15:00:00Z",
      "importance": 2,
      "merged_sources": []
    }
  ]
}