{
  "latest_date": "2026-04-06",
  "updated_at": "2026-04-06T15:08:00Z",
  "dates": [
    "2026-04-06",
    "2026-04-05",
    "2026-04-04",
    "2026-04-03",
    "2026-04-02",
    "2026-04-01",
    "2026-03-31",
    "2026-03-30",
    "2026-03-29",
    "2026-03-28",
    "2026-03-26",
    "2026-03-25",
    "2026-03-24",
    "2026-03-23",
    "2026-03-22",
    "2026-03-21",
    "2026-03-20",
    "2026-03-19",
    "2026-03-18",
    "2026-03-17",
    "2026-03-16",
    "2026-03-15",
    "2026-03-14",
    "2026-03-13",
    "2026-03-12",
    "2026-03-11",
    "2026-03-10",
    "2026-03-09",
    "2026-03-08",
    "2026-03-07",
    "2026-03-06",
    "2026-03-05"
  ],
  "total_items": 460,
  "page": 19,
  "page_size": 20,
  "total_pages": 23,
  "items": [
    {
      "id": "3c73930e",
      "lang": "zh",
      "title_zh": "中关村北纬龙虾大赛圆满收官",
      "summary_zh": "中关村北纬举办的 AI Agent 应用大赛圆满落幕，聚焦智能体时代 AI 应用演进路径，多家企业展示具体落地案例。",
      "tags": [
        "Agent"
      ],
      "source_name": "量子位",
      "source_url": "https://www.qbitai.com/2026/03/391078.html",
      "published_at": "2026-03-23T00:00:00Z",
      "collected_at": "2026-03-23T06:56:18Z",
      "importance": 2,
      "merged_sources": []
    },
    {
      "id": "8b919016",
      "lang": "zh",
      "title_zh": "OpenClaw 创始人回信确认360独家发现漏洞",
      "summary_zh": "360：宣布独家发现 OpenClaw 安全漏洞，并获创始人书面确认，360 安全团队已完成漏洞验证与披露流程。",
      "tags": [
        "安全对齐"
      ],
      "source_name": "量子位",
      "source_url": "https://www.qbitai.com/2026/03/391303.html",
      "published_at": "2026-03-23T00:00:00Z",
      "collected_at": "2026-03-23T06:56:18Z",
      "importance": 3,
      "merged_sources": []
    },
    {
      "id": "4e5af414",
      "lang": "zh",
      "title_zh": "千问上线AI打车，一句话搞定选车、选地点、选时间",
      "summary_zh": "阿里千问：正式上线 AI 打车功能，用户只需一句话即可完成选车型、定地点、定时间全流程，依托 Qwen 大模型实现自然语言打车交互。",
      "tags": [
        "产品发布",
        "Agent"
      ],
      "source_name": "量子位",
      "source_url": "https://www.qbitai.com/2026/03/391308.html",
      "published_at": "2026-03-23T00:00:00Z",
      "collected_at": "2026-03-23T06:56:18Z",
      "importance": 3,
      "merged_sources": []
    },
    {
      "id": "01d83ff9",
      "lang": "zh",
      "title_zh": "院士+教授加盟趋境科技，领跑高效能AI Token生产新生态",
      "summary_zh": "趋境科技：宣布院士与教授团队重磅加盟，聚焦高效能 AI Token 生产基础设施建设，定位打造新一代 AI 算力生态。",
      "tags": [
        "融资"
      ],
      "source_name": "量子位",
      "source_url": "https://www.qbitai.com/2026/03/391339.html",
      "published_at": "2026-03-23T00:00:00Z",
      "collected_at": "2026-03-23T06:56:18Z",
      "importance": 3,
      "merged_sources": []
    },
    {
      "id": "ba626327",
      "lang": "en",
      "title_en": "AI influencer awards season is upon us",
      "title_zh": "AI 网红评奖季来袭",
      "summary_en": "The Verge: AI influencer awards and competitions are emerging as a cultural phenomenon, reflecting the growing mainstream visibility of AI personalities and content creators in social media.",
      "summary_zh": "AI 网红评选活动正在兴起，成为一种文化现象，反映出 AI 个性化内容创作者在社交媒体中日益增长的主流曝光度。",
      "tags": [
        "产品发布"
      ],
      "source_name": "The Verge",
      "source_url": "https://www.theverge.com/ai-artificial-intelligence/898781/ai-personality-of-the-year-influencer-contest",
      "published_at": "2026-03-23T00:00:00Z",
      "collected_at": "2026-03-23T06:56:18Z",
      "importance": 2,
      "merged_sources": []
    },
    {
      "id": "a27c50e6",
      "lang": "zh",
      "title_zh": "寻找最强具身大脑！全球机器人顶会ICRA开启报名，智元全程陪跑带你拿奖",
      "summary_zh": "量子位：ICRA 2026 机器人竞赛正式开启报名，智元机器人作为官方赞助方提供硬件平台、数据与算力支持，鼓励具身智能研究者参赛角逐国际最高荣誉。",
      "tags": [
        "具身智能",
        "机器人",
        "学术"
      ],
      "source_name": "量子位",
      "source_url": "https://www.qbitai.com/2026/03/391359.html",
      "published_at": "2026-03-23T00:00:00Z",
      "collected_at": "2026-03-23T15:00:00Z",
      "importance": 2,
      "merged_sources": []
    },
    {
      "id": "ec536cb5",
      "lang": "zh",
      "title_zh": "陶哲轩：我差点江郎才尽，只因在普林斯顿待了一年",
      "summary_zh": "量子位：数学家陶哲轩分享在普林斯顿高等研究院访学一年的经历，坦言那段时间几乎让自己陷入创造力枯竭的危机，并反思了高压学术环境对研究者创造性思维的潜在影响。",
      "tags": [
        "学术",
        "科研",
        "AI科学家"
      ],
      "source_name": "量子位",
      "source_url": "https://www.qbitai.com/2026/03/391515.html",
      "published_at": "2026-03-23T00:00:00Z",
      "collected_at": "2026-03-23T15:00:00Z",
      "importance": 3,
      "merged_sources": []
    },
    {
      "id": "c6964f57",
      "lang": "zh",
      "title_zh": "岚图泰山Ultra启动交付，全新一代896线激光雷达上车",
      "summary_zh": "量子位：岚图汽车旗舰SUV泰山Ultra正式启动量产交付，售价45.99万元，搭载全球首款896线双光路图像级激光雷达及华为顶级智驾系统，是目前量产车中智能驾驶硬件规格最高的产品之一。",
      "tags": [
        "自动驾驶",
        "智能汽车",
        "激光雷达"
      ],
      "source_name": "量子位",
      "source_url": "https://www.qbitai.com/2026/03/391489.html",
      "published_at": "2026-03-23T00:00:00Z",
      "collected_at": "2026-03-23T15:00:00Z",
      "importance": 3,
      "merged_sources": []
    },
    {
      "id": "8198eb55",
      "lang": "en",
      "title_en": "Agent Kernel: Three Markdown files that make any AI agent stateful",
      "title_zh": "Agent Kernel：三个Markdown文件让AI代理具备持久状态",
      "summary_en": "Hacker News: Show HN project Agent Kernel introduces a minimal framework using three Markdown files to give any AI agent persistent memory and state across sessions. The model-agnostic approach sparked discussion about practical patterns for building stateful AI agents.",
      "summary_zh": "Hacker News：开源项目 Agent Kernel 通过三个 Markdown 文件为任意 AI 代理赋予跨会话持久记忆与状态管理能力。该方案模型无关、轻量易用，引发社区对构建有状态 AI 代理最佳实践的广泛讨论。",
      "tags": [
        "AI代理",
        "开源",
        "状态管理"
      ],
      "source_name": "Hacker News",
      "source_url": "https://github.com/oguzbilgic/agent-kernel",
      "published_at": "2026-03-23T00:00:00Z",
      "collected_at": "2026-03-23T15:00:00Z",
      "importance": 3,
      "merged_sources": []
    },
    {
      "id": "116a1398",
      "lang": "en",
      "title_en": "Cursor admits its new coding model was built on top of Moonshot AI's Kimi",
      "title_zh": "Cursor承认新编程模型基于月之暗面Kimi构建",
      "summary_en": "TechCrunch: Cursor has acknowledged that its recently released coding model is built on top of Moonshot AI's Kimi foundation model. The disclosure came after users and researchers noticed similarities between the two models, raising questions about transparency in AI product development.",
      "summary_zh": "TechCrunch：代码编辑器Cursor承认其最新编程模型基于月之暗面Kimi基础模型构建，此前有用户和研究人员发现两模型存在相似性。此事引发外界对AI产品开发透明度的讨论。",
      "tags": [
        "AI编程",
        "模型透明度"
      ],
      "source_name": "TechCrunch",
      "source_url": "https://techcrunch.com/2026/03/22/cursor-admits-its-new-coding-model-was-built-on-top-of-moonshot-ais-kimi/",
      "published_at": "2026-03-22T18:41:09Z",
      "collected_at": "2026-03-23T09:00:00Z",
      "importance": 4,
      "merged_sources": []
    },
    {
      "id": "464005dc",
      "lang": "en",
      "title_en": "Elon Musk unveils chip manufacturing plans for SpaceX and Tesla",
      "title_zh": "马斯克披露SpaceX和特斯拉芯片制造计划",
      "summary_en": "TechCrunch: Elon Musk announced plans to build a Terafab chip manufacturing facility in Austin, Texas, jointly operated by SpaceX and Tesla. The goal is to produce chips at scale for robotics, AI, and space-based data centers. Analysts note the project faces significant technical and financial challenges.",
      "summary_zh": "TechCrunch：马斯克宣布计划在德克萨斯州奥斯汀建设Terafab芯片制造厂，由SpaceX和特斯拉联合运营，目标是为机器人、AI和太空数据中心大规模生产芯片。分析人士指出该项目面临重大挑战。",
      "tags": [
        "芯片制造",
        "硬件基础设施"
      ],
      "source_name": "TechCrunch",
      "source_url": "https://techcrunch.com/2026/03/22/elon-musk-unveils-chip-manufacturing-plans-for-spacex-and-tesla/",
      "published_at": "2026-03-22T16:20:00Z",
      "collected_at": "2026-03-23T09:00:00Z",
      "importance": 3,
      "merged_sources": []
    },
    {
      "id": "b5b6efbc",
      "lang": "en",
      "title_en": "Musk says he's building Terafab chip plant in Austin, Texas",
      "title_zh": "马斯克宣布在德州奥斯汀建设Terafab芯片工厂",
      "summary_en": "xAI/Tesla/SpaceX: Elon Musk announced plans to build a Terafab plant in Austin, Texas, to be jointly operated by Tesla and SpaceX. The facility aims to manufacture chips at scale for robotics, AI, and space-based data centers. The announcement comes amid broader industry concerns about AI chip supply constraints.",
      "summary_zh": "xAI/Tesla/SpaceX：埃隆·马斯克宣布将在德克萨斯州奥斯汀建设Terafab工厂，由特斯拉和SpaceX联合运营，目标是大规模生产用于机器人、人工智能及太空数据中心的芯片。马斯克表示此举旨在缓解AI行业芯片供应紧张问题。",
      "tags": [
        "硬件"
      ],
      "source_name": "The Verge",
      "source_url": "https://www.theverge.com/ai-artificial-intelligence/898722/musk-terafab-chip-plant",
      "published_at": "2026-03-22T14:06:48Z",
      "collected_at": "2026-03-23T00:00:00Z",
      "importance": 4,
      "merged_sources": []
    },
    {
      "id": "de321142",
      "lang": "en",
      "title_en": "An exclusive tour of Amazon's Trainium lab, the chip that's won over Anthropic, OpenAI, even Apple",
      "title_zh": "独家探访亚马逊Trainium实验室：赢得Anthropic、OpenAI乃至苹果青睐的芯片",
      "summary_en": "TechCrunch: An inside look at Amazon's Trainium chip lab reveals how AWS has built a competitive AI accelerator attracting major customers including Anthropic, OpenAI, and Apple. Trainium offers a cost-effective alternative to Nvidia GPUs and is central to Amazon's strategy to reduce AI chip dependency.",
      "summary_zh": "TechCrunch：对亚马逊Trainium芯片实验室的独家探访揭示，AWS打造的竞争性AI加速器已吸引Anthropic、OpenAI和苹果等顶级客户，提供比英伟达GPU更具成本优势的选择，是亚马逊降低对第三方AI芯片依赖的核心战略。",
      "tags": [
        "AI芯片",
        "Amazon",
        "云计算"
      ],
      "source_name": "TechCrunch",
      "source_url": "https://techcrunch.com/2026/03/22/an-exclusive-tour-of-amazons-trainium-lab-the-chip-thats-won-over-anthropic-openai-even-apple/",
      "published_at": "2026-03-22T12:00:00Z",
      "collected_at": "2026-03-23T09:00:00Z",
      "importance": 4,
      "merged_sources": []
    },
    {
      "id": "2f12b72a",
      "lang": "en",
      "title_en": "AI was everywhere at gaming's big developer conference — except the games",
      "title_zh": "GDC 2026：AI工具泛滥，成功游戏仍靠人工创作",
      "summary_en": "The Verge: At GDC 2026, generative AI tools were prominently featured across the show floor, including AI-driven NPCs, auto-generated game worlds, and QA automation. Tencent showcased a pixel-art fantasy world generated entirely by AI. However, developers expressed widespread concern that AI tools remove craft from game-making, and commercially successful games at the conference remained human-crafted.",
      "summary_zh": "The Verge：在GDC 2026上，生成式AI工具大量亮相，涵盖AI驱动NPC、自动生成游戏世界及QA自动化等，腾讯展示了AI生成的像素风奇幻世界Demo。开发者普遍担忧AI削弱游戏制作匠心，大会上的商业成功游戏仍以人工创作为主。",
      "tags": [
        "产品发布",
        "多模态"
      ],
      "source_name": "The Verge",
      "source_url": "https://www.theverge.com/games/897982/gdc-2026-ai-game-developer-conference",
      "published_at": "2026-03-22T12:00:00Z",
      "collected_at": "2026-03-23T00:00:00Z",
      "importance": 3,
      "merged_sources": []
    },
    {
      "id": "4b85be95",
      "lang": "zh",
      "title_zh": "浙大团队破解多模态模型「盲目自信」：先校准置信度，再分配算力丨CVPR26",
      "summary_zh": "浙大：浙江大学团队提出多模态大模型置信度校准新方法，针对模型在图像质量差时仍输出高置信度的问题，通过先校准置信度再动态分配算力的方式提升推理可靠性，相关成果被CVPR 2026接收。",
      "tags": [
        "研究论文",
        "多模态",
        "评测基准"
      ],
      "source_name": "量子位",
      "source_url": "https://www.qbitai.com/2026/03/391014.html",
      "published_at": "2026-03-22T00:00:00Z",
      "collected_at": "2026-03-23T00:00:00Z",
      "importance": 3,
      "merged_sources": []
    },
    {
      "id": "4ad0c854",
      "lang": "zh",
      "title_zh": "阶跃星辰率先适配微信生态，StepClaw即插即养即用",
      "summary_zh": "阶跃星辰：阶跃星辰宣布旗下AI助手StepClaw率先完成微信生态适配，支持在个人聊天场景中即插即用，成为首批接入微信的AI Agent之一，面向C端用户全面开放。",
      "tags": [
        "产品发布",
        "Agent"
      ],
      "source_name": "量子位",
      "source_url": "https://www.qbitai.com/2026/03/391010.html",
      "published_at": "2026-03-22T00:00:00Z",
      "collected_at": "2026-03-23T00:00:00Z",
      "importance": 3,
      "merged_sources": []
    },
    {
      "id": "4c7138cb",
      "lang": "zh",
      "title_zh": "大厂抢郭达雅进行时！DeepSeek核心成员还是个综艺巨佬",
      "summary_zh": "DeepSeek：DeepSeek核心研究成员郭达雅因综艺节目走红，被多家大厂争相邀请，引发AI圈对顶尖研究人才流动的广泛关注。文章披露其在DeepSeek团队中的技术背景及角色。",
      "tags": [
        "Agent"
      ],
      "source_name": "量子位",
      "source_url": "https://www.qbitai.com/2026/03/390990.html",
      "published_at": "2026-03-22T00:00:00Z",
      "collected_at": "2026-03-23T00:00:00Z",
      "importance": 2,
      "merged_sources": []
    },
    {
      "id": "538b8163",
      "lang": "zh",
      "title_zh": "上海凭什么敢自封开发者之城？WAIC 2026大会议程解读",
      "summary_zh": "上海：WAIC 2026将于3月27日开幕，本届大会主打「开发者之城」定位，议程涵盖大模型、Agent、具身智能等核心方向，面向开发者开放WAIC直通卡。",
      "tags": [
        "政策监管"
      ],
      "source_name": "量子位",
      "source_url": "https://www.qbitai.com/2026/03/390977.html",
      "published_at": "2026-03-22T00:00:00Z",
      "collected_at": "2026-03-23T00:00:00Z",
      "importance": 2,
      "merged_sources": []
    },
    {
      "id": "651ee093",
      "lang": "en",
      "title_en": "Gemini task automation is slow, clunky, and super impressive",
      "title_zh": "Gemini任务自动化实测：慢但令人印象深刻",
      "summary_en": "Google: Gemini's new task automation feature, tested on Pixel 10 Pro and Galaxy S26 Ultra, allows the assistant to control apps like Uber and DoorDash on behalf of users. Currently limited to a handful of food delivery and rideshare apps and still in beta, the feature is slow and clunky but demonstrates meaningful progress toward on-device AI agents. Compared favorably against Siri's current capabilities.",
      "summary_zh": "Google：Gemini新推出的任务自动化功能在Pixel 10 Pro和Galaxy S26 Ultra上测试，支持代用户操控Uber、DoorDash等外卖和打车应用。功能目前仍处于测试阶段，仅支持少数应用，速度较慢，但展现出设备端AI Agent的实质性进展，被认为远超Siri现有能力。",
      "tags": [
        "产品发布",
        "Agent"
      ],
      "source_name": "The Verge",
      "source_url": "https://www.theverge.com/tech/898282/gemini-task-automation-uber-doordash-hands-on",
      "published_at": "2026-03-21T11:30:00Z",
      "collected_at": "2026-03-23T00:30:00Z",
      "importance": 4,
      "merged_sources": []
    },
    {
      "id": "9af58a2d",
      "lang": "zh",
      "title_zh": "英伟达GTC现场的隐形AI巨头：老黄机器人demo背后都是它",
      "summary_zh": "光轮智能：英伟达GTC大会上，老黄机器人演示demo背后的核心供应商光轮智能首次曝光，该公司正在定义Physical AI基础设施，为多家顶级机器人厂商提供底层平台支持。",
      "tags": [
        "产品发布",
        "硬件"
      ],
      "source_name": "量子位",
      "source_url": "https://www.qbitai.com/2026/03/390924.html",
      "published_at": "2026-03-21T00:00:00Z",
      "collected_at": "2026-03-23T00:30:00Z",
      "importance": 3,
      "merged_sources": []
    }
  ]
}