{
  "latest_date": "2026-04-13",
  "updated_at": "2026-04-13T03:10:00Z",
  "dates": [
    "2026-04-13",
    "2026-04-12",
    "2026-04-11",
    "2026-04-10",
    "2026-04-08",
    "2026-04-07",
    "2026-04-06",
    "2026-04-05",
    "2026-04-04",
    "2026-04-03",
    "2026-04-02",
    "2026-04-01",
    "2026-03-31",
    "2026-03-30",
    "2026-03-29",
    "2026-03-28",
    "2026-03-26",
    "2026-03-25",
    "2026-03-24",
    "2026-03-23",
    "2026-03-22",
    "2026-03-21",
    "2026-03-20",
    "2026-03-19",
    "2026-03-18",
    "2026-03-17",
    "2026-03-16",
    "2026-03-15",
    "2026-03-14",
    "2026-03-13",
    "2026-03-12",
    "2026-03-11",
    "2026-03-10",
    "2026-03-09",
    "2026-03-08",
    "2026-03-07",
    "2026-03-06",
    "2026-03-05"
  ],
  "total_items": 537,
  "page": 9,
  "page_size": 20,
  "total_pages": 27,
  "items": [
    {
      "id": "500d4370",
      "lang": "zh",
      "title_zh": "中国最强编程模型！阿里Qwen3.6-Plus性能直速Claude",
      "summary_zh": "量子位：阿里巴巴发布 Qwen3.6-Plus 编程模型，在多项代码基准测试中接近 Claude 水平，被称为目前国内最强编程大模型。该模型已在悟空等平台上线，标志着国产大模型在编程能力上进入全球顶尖行列。",
      "tags": [
        "产品发布",
        "模型评测"
      ],
      "source_name": "量子位",
      "source_url": "https://www.qbitai.com/2026/04/394704.html",
      "published_at": "2026-04-02T04:00:00Z",
      "collected_at": "2026-04-02T15:10:00Z",
      "importance": 4,
      "merged_sources": []
    },
    {
      "id": "6cadba54",
      "lang": "zh",
      "title_zh": "AI原生时代来临，商汤大装置如何重塑算力集群架构",
      "summary_zh": "量子位：商汤科技发布面向 AI 原生时代的大装置解决方案，通过重新设计算力集群架构，提升大规模模型训练和推理的效率。新架构针对万亿参数模型优化，助力企业构建高性价比的 AI 基础设施。",
      "tags": [
        "算力",
        "行业动态"
      ],
      "source_name": "量子位",
      "source_url": "https://www.qbitai.com/2026/04/395194.html",
      "published_at": "2026-04-02T04:00:00Z",
      "collected_at": "2026-04-02T15:10:00Z",
      "importance": 3,
      "merged_sources": []
    },
    {
      "id": "de4af666",
      "lang": "zh",
      "title_zh": "再螆20亿！星海图把具身智能头部门槛抬到了200亿",
      "summary_zh": "量子位：具身智能公司星海图完成新一轮 20 亿元螊资，估值突破 200 亿元。此轮螊资将用于人形机器人研发和量产布局，进一步拉高行业头部门槛，显示出资本对具身智能赛道的持续看好。",
      "tags": [
        "螊资",
        "具身智能"
      ],
      "source_name": "量子位",
      "source_url": "https://www.qbitai.com/2026/04/394626.html",
      "published_at": "2026-04-02T03:30:00Z",
      "collected_at": "2026-04-02T15:10:00Z",
      "importance": 3,
      "merged_sources": []
    },
    {
      "id": "5e0598a9",
      "lang": "zh",
      "title_zh": "盯着还没注册公司的顶尖天才，DigClaw获天使轮融资",
      "summary_zh": "量子位：具身智能投资机构 DigClaw 完成天使轮融资，由中科创星、中关村资本联合投资。该机构专注于挖掘具身智能领域尚未成立公司的顶尖研究人员，提前布局早期项目。",
      "tags": [
        "融资",
        "具身智能"
      ],
      "source_name": "量子位",
      "source_url": "https://www.qbitai.com/2026/04/394602.html",
      "published_at": "2026-04-02T03:00:00Z",
      "collected_at": "2026-04-02T03:10:00Z",
      "importance": 3,
      "merged_sources": []
    },
    {
      "id": "4bcf8d97",
      "lang": "zh",
      "title_zh": "千问AI眼镜首次OTA升级上线AI办事能力",
      "summary_zh": "阿里巴巴：千问AI眼镜发布后完成首次 OTA 升级，深度接入淘宝闪购和支付宝，支持话费充值、扫码骑车、停车缴费、语音点外卖等高频生活服务。新版本同时强化即时理解能力，支持拍题解题和实时跨语言翻译。此次升级标志 AI 眼镜从回答问题转向把事办成，成为大模型落地真实世界的物理接口。",
      "tags": [
        "产品发布",
        "硬件"
      ],
      "source_name": "量子位",
      "source_url": "https://www.qbitai.com/2026/04/394620.html",
      "published_at": "2026-04-02T03:00:00Z",
      "collected_at": "2026-04-02T09:00:00Z",
      "importance": 3,
      "merged_sources": []
    },
    {
      "id": "a5d8b1f3",
      "lang": "zh",
      "title_zh": "开卷视觉编程！GLM-5V-Turbo上线，一张草图搞定前端",
      "summary_zh": "量子位：智谱 AI 发布 GLM-5V-Turbo 视觉模型，支持通过一张手绘草图直接生成前端代码，开启视觉编程新范式。该模型可理解 UI 布局意图，自动转化为可运行的 HTML/CSS 代码，大幅降低前端开发门槛。",
      "tags": [
        "产品发布",
        "多模态"
      ],
      "source_name": "量子位",
      "source_url": "https://www.qbitai.com/2026/04/394641.html",
      "published_at": "2026-04-02T03:00:00Z",
      "collected_at": "2026-04-02T15:10:00Z",
      "importance": 3,
      "merged_sources": []
    },
    {
      "id": "8dc244db",
      "lang": "en",
      "title_en": "The Claude Code Leak",
      "title_zh": "Claude Code源码泄漏深度解析",
      "summary_en": "build.ms (via Hacker News): An analysis of the accidental Claude Code source code leak after Anthropic shipped version 2.1.88 containing source maps with over 512,000 lines of TypeScript. The piece offers five observations about what the leak reveals regarding AI software development practices, noting the codebase reflects patterns typical of rapid AI-assisted development and examining what the internal architecture reveals about agentic system design.",
      "summary_zh": "build.ms（Hacker News）：对 Anthropic Claude Code 2.1.88 版本意外泄漏超过51.2万行 TypeScript 源码事件的深度分析。作者提出五项观察，指出代码库呈现 AI 辅助快速开发的典型特征，并解读内部架构所揭示的智能体系统设计思路。",
      "tags": [
        "行业动态"
      ],
      "source_name": "Hacker News",
      "source_url": "https://build.ms/2026/4/1/the-claude-code-leak/",
      "published_at": "2026-04-02T02:26:05Z",
      "collected_at": "2026-04-02T09:00:00Z",
      "importance": 3,
      "merged_sources": []
    },
    {
      "id": "80b925b0",
      "lang": "zh",
      "title_zh": "Claude Code爆改Python版加冕最快10万星，且clone且珍惜",
      "summary_zh": "量子位：一位开发者将 Claude Code 的 TypeScript 版本改写为 Python，项目在 GitHub 上以史上最快速度突破 10 万 star。该项目因绕过官方限制、功能相似且开源免费引发广泛关注，但随时面临被下架风险。",
      "tags": [
        "开发工具",
        "开源"
      ],
      "source_name": "量子位",
      "source_url": "https://www.qbitai.com/2026/04/394570.html",
      "published_at": "2026-04-02T02:00:00Z",
      "collected_at": "2026-04-02T03:10:00Z",
      "importance": 4,
      "merged_sources": []
    },
    {
      "id": "d5fe455b",
      "lang": "zh",
      "title_zh": "豆包大模型日均Token突破120万亿，Seedance 2.0开放公测",
      "summary_zh": "火山引擎：火山引擎宣布 Seedance 2.0 API 面向企业用户开放公测，具备版权与肖像安全保障机制。截至2026年3月，豆包大模型日均 Token 使用量突破120万亿，近三个月翻倍，较2024年5月发布时增长1000倍。火山引擎累计 Token 使用量超过1万亿的企业已从100家增至140家。",
      "tags": [
        "产品发布",
        "多模态"
      ],
      "source_name": "量子位",
      "source_url": "https://www.qbitai.com/2026/04/394616.html",
      "published_at": "2026-04-02T02:00:00Z",
      "collected_at": "2026-04-02T09:00:00Z",
      "importance": 4,
      "merged_sources": []
    },
    {
      "id": "180d8e0f",
      "lang": "en",
      "title_en": "The AI Marketing BS Index",
      "title_zh": "AI营销废话指数",
      "summary_en": "Bastian Rieck (via Hacker News): A researcher introduces the 'AI Marketing BS Index,' a humorous yet critical metric quantifying buzzword density and substance deficit in AI product marketing claims. The post scores real announcements, highlighting the industry tendency toward hyperbolic language over meaningful technical communication.",
      "summary_zh": "Bastian Rieck（Hacker News）：一位研究者提出 AI 营销废话指数，用于量化 AI 产品营销中的流行词密度与内容空洞程度。该帖对真实发布公告进行打分，揭示行业在夸大宣传语言与有价值技术沟通之间的失衡问题。",
      "tags": [
        "行业动态",
        "观点"
      ],
      "source_name": "Hacker News",
      "source_url": "https://bastian.rieck.me/blog/2026/bs/",
      "published_at": "2026-04-02T01:35:12Z",
      "collected_at": "2026-04-02T03:10:00Z",
      "importance": 3,
      "merged_sources": []
    },
    {
      "id": "88ede095",
      "lang": "zh",
      "title_zh": "开源路由插件ClawXRouter：Agent云端本地协同成本降58%",
      "summary_zh": "清华THUNLP/中国人民大学/面壁智能：清华大学 THUNLP 实验室、中国人民大学、AI9Stars、面壁智能与 OpenBMB 联合发布开源端云协同 AI 智能体路由插件 ClawXRouter。该插件在本地模型与云端 API 之间智能调度：简单任务本地运行、敏感数据本地脱敏、复杂任务交由云端，实验数据显示综合成本降低58%，同时保护数据隐私。",
      "tags": [
        "开源",
        "Agent"
      ],
      "source_name": "量子位",
      "source_url": "https://www.qbitai.com/2026/04/394606.html",
      "published_at": "2026-04-02T01:00:00Z",
      "collected_at": "2026-04-02T09:00:00Z",
      "importance": 3,
      "merged_sources": []
    },
    {
      "id": "ee451276",
      "lang": "en",
      "title_en": "Show HN: Real-time dashboard for Claude Code agent teams",
      "title_zh": "实时仪表盘用于监控 Claude Code 智能体团队",
      "summary_en": "simple10 (via Hacker News): An open-source real-time observability dashboard for teams running multiple Claude Code agents simultaneously. The tool provides live visibility into agent status, task queues, and code outputs, addressing the growing need for multi-agent orchestration tooling.",
      "summary_zh": "simple10（Hacker News）：一款开源实时可观测仪表盘，适用于同时运行多个 Claude Code 智能体的团队。该工具提供智能体状态、任务队列和代码输出的实时视图，回应了多智能体编排工具日益增长的需求。",
      "tags": [
        "开发工具",
        "智能体"
      ],
      "source_name": "Hacker News",
      "source_url": "https://github.com/simple10/agents-observe",
      "published_at": "2026-04-02T00:04:28Z",
      "collected_at": "2026-04-02T03:10:00Z",
      "importance": 3,
      "merged_sources": []
    },
    {
      "id": "41f7a052",
      "lang": "en",
      "title_en": "Gemma 4: Byte for byte, the most capable open models",
      "title_zh": "Gemma 4 发布：最高性价比开源模型",
      "summary_en": "Google DeepMind: Google DeepMind introduced Gemma 4, its most capable open model family to date. Built on Gemini 3 technology, Gemma 4 supports advanced reasoning, agentic workflows, multimodal input, and 140 languages. Released under Apache 2.0 license, available across multiple model sizes optimized for different hardware.",
      "summary_zh": "Google DeepMind：Google DeepMind 发布 Gemma 4，基于 Gemini 3 研究构建，是目前最智能的开源模型家族。支持高级推理、智能体工作流、多模态输入及 140 种语言，以 Apache 2.0 授权发布，提供多个尺寸适配不同硬件。",
      "tags": [
        "产品发布",
        "开源"
      ],
      "source_name": "Google DeepMind",
      "source_url": "https://blog.google/innovation-and-ai/technology/developers-tools/gemma-4/",
      "published_at": "2026-04-02T00:00:00Z",
      "collected_at": "2026-04-06T15:08:00Z",
      "importance": 5,
      "merged_sources": []
    },
    {
      "id": "2f22c4fb",
      "lang": "en",
      "title_en": "Emotion Concepts and Their Function in a Large Language Model",
      "title_zh": "大语言模型中的情绪概念及其功能：Anthropic 可解释性新研究",
      "summary_en": "Anthropic: Anthropic researchers published interpretability findings showing that Claude possesses internal representations of emotion-like concepts that causally influence its behavior. The research maps how features resembling emotions such as frustration, curiosity, and calm modulate the model's outputs, advancing mechanistic understanding of LLM internals.",
      "summary_zh": "Anthropic：Anthropic 研究人员发表可解释性研究成果，揭示 Claude 内部存在类情绪概念表征，并对其行为产生因果影响。研究描绘了挫败感、好奇心、平静等类情绪特征如何调节模型输出，深化了对大语言模型内部机制的理解。",
      "tags": [
        "研究",
        "安全与对齐"
      ],
      "source_name": "Anthropic",
      "source_url": "https://www.anthropic.com/research/emotion-concepts-function",
      "published_at": "2026-04-02T00:00:00Z",
      "collected_at": "2026-04-04T09:20:00Z",
      "importance": 4,
      "merged_sources": []
    },
    {
      "id": "b733f7d9",
      "lang": "en",
      "title_en": "Qwen3.6-Plus: Towards Real-World Agents",
      "title_zh": "Qwen3.6-Plus 发布：面向真实场景的 Agent 能力大模型",
      "summary_en": "Hacker News: Alibaba released Qwen3.6-Plus, the latest iteration of its Qwen model series, with a focus on real-world agentic capabilities. The model is designed for complex multi-step tasks, improved tool use, and stronger reasoning in practical deployment scenarios.",
      "summary_zh": "Hacker News：阿里巴巴发布 Qwen3.6-Plus，主打面向真实场景的 Agent 能力。该模型专为复杂多步骤任务设计，具备更强的工具调用能力和实际部署场景下的推理性能。",
      "tags": [
        "产品发布",
        "开源"
      ],
      "source_name": "Hacker News",
      "source_url": "https://qwen.ai/blog?id=qwen3.6",
      "published_at": "2026-04-02T00:00:00Z",
      "collected_at": "2026-04-04T09:20:00Z",
      "importance": 4,
      "merged_sources": []
    },
    {
      "id": "22c2ff8b",
      "lang": "en",
      "title_en": "Codex now offers pay-as-you-go pricing for teams",
      "title_zh": "OpenAI Codex 推出按需计费团队方案",
      "summary_en": "OpenAI: OpenAI introduced pay-as-you-go pricing for Codex-only seats in ChatGPT Business and Enterprise, removing fixed seat fees and billing on token consumption instead. ChatGPT Business annual pricing drops from $25 to $20 per seat. Teams with new Codex-only members receive up to $500 in credits. Over 2 million builders use Codex weekly, with Codex users inside Business and Enterprise growing 6x since January.",
      "summary_zh": "OpenAI：OpenAI 为 ChatGPT Business 和 Enterprise 的 Codex 独立席位推出按需计费方案，取消固定席位费、改按 Token 消耗计费。ChatGPT Business 年费从 25 美元降至 20 美元/席位，新增席位可获最高 500 美元额度奖励。目前每周超 200 万开发者使用 Codex，企业版用户自 1 月以来增长 6 倍。",
      "tags": [
        "产品发布",
        "编程"
      ],
      "source_name": "OpenAI",
      "source_url": "https://openai.com/index/codex-flexible-pricing-for-teams/",
      "published_at": "2026-04-02T00:00:00Z",
      "collected_at": "2026-04-03T03:16:00Z",
      "importance": 4,
      "merged_sources": []
    },
    {
      "id": "e13bb5f7",
      "lang": "en",
      "title_en": "Meet the new Cursor: Cursor 3, a unified workspace for building software with agents",
      "title_zh": "Cursor 3 发布：面向智能体的统一开发工作区",
      "summary_en": "Cursor: Cursor launched Cursor 3, a ground-up redesign of its IDE built around agents rather than individual file editing. The new interface supports multi-repo layouts, parallel local and cloud agent management, seamless handoff between environments, and integrates with Slack, GitHub, and Linear. Cloud agents produce demos and screenshots for verification. Users can switch back to the legacy Cursor IDE at any time.",
      "summary_zh": "Cursor：Cursor 发布 Cursor 3，从零重建以智能体为核心的开发工作区，支持多仓库布局、本地与云端智能体并行管理、无缝切换，并与 Slack、GitHub、Linear 集成。云端智能体会生成演示和截图供开发者确认，用户也可随时切回旧版 Cursor IDE。",
      "tags": [
        "产品发布",
        "编程",
        "Agent"
      ],
      "source_name": "Cursor",
      "source_url": "https://cursor.com/blog/cursor-3",
      "published_at": "2026-04-02T00:00:00Z",
      "collected_at": "2026-04-03T03:16:00Z",
      "importance": 5,
      "merged_sources": []
    },
    {
      "id": "500d4370",
      "lang": "zh",
      "title_zh": "中国最强编程模型来了！阿里Qwen3.6-Plus性能直逼Claude，国产大模型杀入决赛圈",
      "summary_zh": "量子位：阿里发布 Qwen3.6-Plus 新一代基座大模型，支持 1M 上下文，具备原生多模态理解和推理能力，在编程和 Agent 任务上超越参数量两至三倍的多款国产模型。在涵盖智能体编程和真实世界任务的多项权威评测中，Qwen3.6-Plus 成为最接近 Claude 系列的国产模型，后续将开源更多尺寸并发布旗舰版 Qwen3.6-Max。",
      "tags": [
        "产品发布",
        "编程",
        "Agent"
      ],
      "source_name": "量子位",
      "source_url": "https://www.qbitai.com/2026/04/394704.html",
      "published_at": "2026-04-02T00:00:00Z",
      "collected_at": "2026-04-03T03:16:00Z",
      "importance": 4,
      "merged_sources": []
    },
    {
      "id": "09de325f",
      "lang": "en",
      "title_en": "CUDA Tile Programming Now Available for BASIC",
      "title_zh": "CUDA Tile编程支持BASIC语言",
      "summary_en": "NVIDIA: NVIDIA has announced that CUDA Tile programming is now available for the BASIC programming language, expanding GPU programming accessibility to developers using BASIC. The feature enables GPU-accelerated computation through familiar BASIC syntax.",
      "summary_zh": "NVIDIA：NVIDIA 宣布 CUDA Tile 编程现已支持 BASIC 编程语言，将 GPU 编程能力扩展至 BASIC 开发者群体，使其能够通过熟悉的 BASIC 语法实现 GPU 加速计算。",
      "tags": [
        "工具与基础设施",
        "开源"
      ],
      "source_name": "Hacker News",
      "source_url": "https://developer.nvidia.com/blog/cuda-tile-programming-now-available-for-basic/",
      "published_at": "2026-04-01T16:19:00Z",
      "collected_at": "2026-04-02T00:10:00Z",
      "importance": 3,
      "merged_sources": []
    },
    {
      "id": "671e066a",
      "lang": "en",
      "title_en": "AI can push your Stream Deck buttons for you",
      "title_zh": "AI自动操控Stream Deck按键",
      "summary_en": "Elgato: Elgato has released an update to Stream Deck that integrates AI agent capabilities via MCP (Model Context Protocol), allowing AI agents to programmatically trigger Stream Deck actions and button presses without manual user input.",
      "summary_zh": "Elgato：Elgato 发布 Stream Deck 更新，通过 MCP（Model Context Protocol）集成 AI 智能体能力，允许 AI 代理自动触发 Stream Deck 按钮操作，无需用户手动输入。",
      "tags": [
        "产品发布",
        "Agent",
        "工具与基础设施"
      ],
      "source_name": "The Verge",
      "source_url": "https://www.theverge.com/tech/905021/elgato-stream-deck-mcp-ai-agent-update",
      "published_at": "2026-04-01T12:38:58Z",
      "collected_at": "2026-04-02T00:10:00Z",
      "importance": 3,
      "merged_sources": []
    }
  ]
}