{
  "latest_date": "2026-04-13",
  "updated_at": "2026-04-13T03:10:00Z",
  "dates": [
    "2026-04-13",
    "2026-04-12",
    "2026-04-11",
    "2026-04-10",
    "2026-04-08",
    "2026-04-07",
    "2026-04-06",
    "2026-04-05",
    "2026-04-04",
    "2026-04-03",
    "2026-04-02",
    "2026-04-01",
    "2026-03-31",
    "2026-03-30",
    "2026-03-29",
    "2026-03-28",
    "2026-03-26",
    "2026-03-25",
    "2026-03-24",
    "2026-03-23",
    "2026-03-22",
    "2026-03-21",
    "2026-03-20",
    "2026-03-19",
    "2026-03-18",
    "2026-03-17",
    "2026-03-16",
    "2026-03-15",
    "2026-03-14",
    "2026-03-13",
    "2026-03-12",
    "2026-03-11",
    "2026-03-10",
    "2026-03-09",
    "2026-03-08",
    "2026-03-07",
    "2026-03-06",
    "2026-03-05"
  ],
  "total_items": 537,
  "page": 7,
  "page_size": 20,
  "total_pages": 27,
  "items": [
    {
      "id": "7f505509",
      "lang": "en",
      "title_en": "OpenAI Executive Shuffle: COO Brad Lightcap Gets New Role, CMO Kate Rouch Departs, AGI Boss Takes Medical Leave",
      "title_zh": "OpenAI 高管大调整：COO 转岗、CMO 离职、AGI CEO 请假",
      "summary_en": "OpenAI: OpenAI announced a series of C-suite changes. COO Brad Lightcap takes on a new 'special projects' leadership role. CMO Kate Rouch is stepping away to focus on cancer recovery with plans to return. CEO of AGI deployment Fidji Simo will take medical leave for several weeks due to a neuroimmune condition, with president Greg Brockman temporarily assuming oversight of product.",
      "summary_zh": "OpenAI：OpenAI 宣布多项高管调整。COO Brad Lightcap 转任「特别项目」负责人；CMO Kate Rouch 因癌症康复需要离职，计划康复后回归；AGI 部署 CEO Fidji Simo 因神经免疫疾病休假数周，总裁 Greg Brockman 临时接管产品工作。",
      "tags": [
        "产品发布"
      ],
      "source_name": "TechCrunch",
      "source_url": "https://techcrunch.com/2026/04/03/openai-executive-shuffle-new-roles-coo-brad-lightcap-fidji-simo-kate-rouch/",
      "published_at": "2026-04-03T20:35:34Z",
      "collected_at": "2026-04-04T03:15:00Z",
      "importance": 4,
      "merged_sources": [
        "https://www.theverge.com/ai-artificial-intelligence/906965/openais-agi-boss-is-taking-a-leave-of-absence"
      ]
    },
    {
      "id": "abda4877",
      "lang": "en",
      "title_en": "Anthropic Acquires Stealth Biotech AI Startup Coefficient Bio for $400M",
      "title_zh": "Anthropic 斥资4亿美元收购生物科技 AI 初创 Coefficient Bio",
      "summary_en": "Anthropic: Anthropic has acquired stealth biotech AI startup Coefficient Bio in a $400 million all-stock deal, according to reports from The Information and Eric Newcomer. Coefficient Bio had been operating quietly, applying AI models to biological research problems. The acquisition marks Anthropic's first major expansion into the biotech sector.",
      "summary_zh": "Anthropic：据 The Information 及 Eric Newcomer 报道，Anthropic 已以4亿美元全股票方式收购隐身生物科技 AI 初创公司 Coefficient Bio。该公司此前低调运营，专注于将 AI 模型应用于生物研究，此次收购是 Anthropic 首次重大进军生物科技领域。",
      "tags": [
        "收购",
        "医疗"
      ],
      "source_name": "TechCrunch",
      "source_url": "https://techcrunch.com/2026/04/03/anthropic-buys-biotech-startup-coefficient-bio-in-400m-deal-reports/",
      "published_at": "2026-04-03T20:28:40Z",
      "collected_at": "2026-04-04T03:15:00Z",
      "importance": 4,
      "merged_sources": []
    },
    {
      "id": "2be13a3e",
      "lang": "en",
      "title_en": "OpenAI's AGI Boss Is Taking a Leave of Absence",
      "title_zh": "OpenAI AGI 负责人 Fidji Simo 宣布病假，C 层再度重组",
      "summary_en": "The Verge: OpenAI AGI boss Fidji Simo is taking a medical leave of absence, according to an internal memo. The departure adds to a wave of C-suite changes at OpenAI, including COO Brad Lightcap taking on a new role and CMO Kate Rouch departing the company.",
      "summary_zh": "The Verge：据内部备忘录，OpenAI AGI 负责人 Fidji Simo 宣布因病休假。此次变动是 OpenAI 新一轮高管重组的一部分，COO Brad Lightcap 同期获新职位，CMO Kate Rouch 已离职。",
      "tags": [
        "行业动态"
      ],
      "source_name": "The Verge",
      "source_url": "https://www.theverge.com/ai-artificial-intelligence/906965/openais-agi-boss-is-taking-a-leave-of-absence",
      "published_at": "2026-04-03T20:22:59Z",
      "collected_at": "2026-04-04T09:20:00Z",
      "importance": 3,
      "merged_sources": []
    },
    {
      "id": "82930823",
      "lang": "en",
      "title_en": "Anthropic Ramps Up Political Activities with a New PAC Ahead of Midterms",
      "title_zh": "Anthropic 成立政治行动委员会，布局美国中期选举",
      "summary_en": "Anthropic: Anthropic has established a new Political Action Committee (PAC) with midterm elections approaching, positioning itself to support candidates aligned with its AI policy agenda. The move signals a significant escalation in Anthropic's Washington influence strategy.",
      "summary_zh": "Anthropic：随着美国中期选举临近，Anthropic 成立了政治行动委员会（PAC），准备支持认同其 AI 政策主张的候选人，标志着 Anthropic 在华盛顿政治影响力方面大幅加码。",
      "tags": [
        "政策监管"
      ],
      "source_name": "TechCrunch",
      "source_url": "https://techcrunch.com/2026/04/03/anthropic-ramps-up-its-political-activities-with-a-new-pac/",
      "published_at": "2026-04-03T20:22:18Z",
      "collected_at": "2026-04-04T03:15:00Z",
      "importance": 3,
      "merged_sources": []
    },
    {
      "id": "4d459560",
      "lang": "en",
      "title_en": "AI Companies Are Building Huge Natural Gas Plants to Power Data Centers. What Could Go Wrong?",
      "title_zh": "AI 公司大举投建天然气发电厂供数据中心用电，风险几何？",
      "summary_en": "TechCrunch: Meta, Microsoft, and Google are betting heavily on new natural gas power plants to fuel their AI data centers, reversing years of clean energy pledges. Critics warn of long-term climate and stranded-asset risks if AI demand plateaus or cleaner alternatives arrive sooner than expected.",
      "summary_zh": "TechCrunch：Meta、微软和谷歌正大规模投建天然气发电厂以满足 AI 数据中心的电力需求，这与此前的清洁能源承诺相悖。批评者警告，若 AI 需求见顶或清洁能源替代提前到来，此举将带来气候风险和搁浅资产风险。",
      "tags": [
        "基础设施",
        "政策监管"
      ],
      "source_name": "TechCrunch",
      "source_url": "https://techcrunch.com/2026/04/03/ai-companies-are-building-huge-natural-gas-plants-to-power-data-centers-what-could-go-wrong/",
      "published_at": "2026-04-03T19:48:22Z",
      "collected_at": "2026-04-04T09:20:00Z",
      "importance": 3,
      "merged_sources": []
    },
    {
      "id": "83c3bd56",
      "lang": "en",
      "title_en": "The Facebook Insider Building Content Moderation for the AI Era",
      "title_zh": "前 Facebook 高管创立 Moonbounce，为 AI 时代打造内容审核引擎",
      "summary_en": "TechCrunch: Moonbounce has raised $12 million to grow its AI control engine that converts content moderation policies into consistent, predictable AI behavior. Founded by a Facebook insider, the startup aims to help enterprises deploy AI agents that comply with nuanced content rules at scale.",
      "summary_zh": "TechCrunch：Moonbounce 完成 1200 万美元融资，专注于将内容审核策略转化为可预期的 AI 行为约束引擎。创始人曾任职 Facebook，旨在帮助企业在大规模部署 AI Agent 时保持内容合规性。",
      "tags": [
        "融资",
        "安全与对齐"
      ],
      "source_name": "TechCrunch",
      "source_url": "https://techcrunch.com/2026/04/03/moonbounce-fundraise-content-moderation-for-the-ai-era/",
      "published_at": "2026-04-03T14:00:15Z",
      "collected_at": "2026-04-04T09:20:00Z",
      "importance": 3,
      "merged_sources": []
    },
    {
      "id": "9a60fe2b",
      "lang": "en",
      "title_en": "Chatbots Are Now Prescribing Psychiatric Drugs",
      "title_zh": "AI 聊天机器人开始开具精神科处方药，引发医疗界担忧",
      "summary_en": "The Verge: Some AI chatbots are now prescribing psychiatric medications in direct-to-consumer mental health apps, a development that has alarmed psychiatrists who question what problem this is solving and worry about patient safety in the absence of proper clinical oversight.",
      "summary_zh": "The Verge：部分 AI 聊天机器人已开始通过直接面向消费者的心理健康应用开具精神科处方药，引发精神科医生广泛担忧。医疗界质疑此举的实际必要性，并对缺乏临床监督情况下的患者安全深表忧虑。",
      "tags": [
        "安全与对齐",
        "行业动态"
      ],
      "source_name": "The Verge",
      "source_url": "https://www.theverge.com/ai-artificial-intelligence/906525/ai-chatbot-prescribe-psychiatric-drugs",
      "published_at": "2026-04-03T11:43:21Z",
      "collected_at": "2026-04-04T09:20:00Z",
      "importance": 4,
      "merged_sources": []
    },
    {
      "id": "fc5eb73f",
      "lang": "en",
      "title_en": "Netflix Releases VOID: First Public Model on HuggingFace for Video Inpainting",
      "title_zh": "Netflix 发布首个公开模型 VOID：视频修复与目标移除扩散模型",
      "summary_en": "Hacker News: Netflix released its first publicly available model on HuggingFace, called VOID (Video Object Inpainting Diffusion). Built on CogVideoX architecture, VOID is designed for video inpainting and object removal tasks, with an Apache 2.0 license enabling open commercial use.",
      "summary_zh": "Hacker News：Netflix 在 HuggingFace 上发布首个公开模型 VOID（视频目标修复扩散模型），基于 CogVideoX 架构，用于视频修复和目标移除任务，采用 Apache 2.0 协议支持商业使用。",
      "tags": [
        "开源",
        "产品发布"
      ],
      "source_name": "Hacker News",
      "source_url": "https://huggingface.co/netflix/void-model",
      "published_at": "2026-04-03T07:25:40Z",
      "collected_at": "2026-04-04T09:20:00Z",
      "importance": 3,
      "merged_sources": []
    },
    {
      "id": "78d74c25",
      "lang": "en",
      "title_en": "A Rave Review of Superpowers (For Claude Code)",
      "title_zh": "深度体验 Claude Code 的超能力插件",
      "summary_en": "Hacker News: Developer Evan Schwartz gives an enthusiastic endorsement of the Superpowers plugin for Claude Code, citing dramatically increased productivity over vanilla Claude Code for agentic coding workflows. The post earned significant traction on Hacker News with hundreds of comments.",
      "summary_zh": "Hacker News：开发者 Evan Schwartz 高度评价 Claude Code 的 Superpowers 插件，称其在 Agent 编程工作流中相比原生 Claude Code 效率大幅提升，文章在 Hacker News 引发热烈讨论。",
      "tags": [
        "开发工具",
        "Agent"
      ],
      "source_name": "Hacker News",
      "source_url": "https://emschwartz.me/a-rave-review-of-superpowers-for-claude-code/",
      "published_at": "2026-04-03T04:09:00Z",
      "collected_at": "2026-04-03T09:00:00Z",
      "importance": 3,
      "merged_sources": []
    },
    {
      "id": "ba972f6c",
      "lang": "zh",
      "title_zh": "OpenAI收购了一家脱口秀公司",
      "summary_zh": "OpenAI：OpenAI 收购了科技领域脱口秀播客节目 TBPN，其主持人与 OpenAI CEO 奥特曼相识超过10年。此次收购被视为 OpenAI 涉足媒体内容领域的信号，也是其推进超级应用产品战略的组成部分。",
      "tags": [
        "收购"
      ],
      "source_name": "量子位",
      "source_url": "https://www.qbitai.com/2026/04/395316.html",
      "published_at": "2026-04-03T00:00:00Z",
      "collected_at": "2026-04-04T03:15:00Z",
      "importance": 3,
      "merged_sources": []
    },
    {
      "id": "40a614e7",
      "lang": "zh",
      "title_zh": "Sora向左，阿里向右：全能演技派模型登场千问APP",
      "summary_zh": "阿里巴巴：千问APP 迎来重大功能升级，上线支持多模态内容创作的全能演技派模型，在视频生成方向采取与 Sora 差异化策略，强调图像、语音、视频等多模态能力的综合表达与场景覆盖。",
      "tags": [
        "产品发布",
        "多模态"
      ],
      "source_name": "量子位",
      "source_url": "https://www.qbitai.com/2026/04/395477.html",
      "published_at": "2026-04-03T00:00:00Z",
      "collected_at": "2026-04-04T03:15:00Z",
      "importance": 3,
      "merged_sources": []
    },
    {
      "id": "06c4e2fd",
      "lang": "en",
      "title_en": "Anthropic Offers Extra Usage Credit for Claude Pro, Max, and Team Plan Subscribers",
      "title_zh": "Anthropic 推出使用量套餐，为 Pro/Max/Team 订阅用户赠送额外额度",
      "summary_en": "Anthropic: Anthropic announced extra usage credit for Claude Pro, Max, and Team subscribers to celebrate the launch of usage bundles. The new billing structure lets users purchase additional compute in fixed bundles on top of their subscription, giving more flexibility for heavy users.",
      "summary_zh": "Anthropic：Anthropic 推出使用量套餐，并为现有 Pro、Max 和 Team 订阅用户赠送额外使用额度以庆祝上线。新计费方式允许用户在订阅基础上以固定包形式追加算力，为重度用户提供更大灵活性。",
      "tags": [
        "产品发布"
      ],
      "source_name": "Anthropic",
      "source_url": "https://support.claude.com/en/articles/14246053-extra-usage-credit-for-pro-max-and-team-plan-subscribers",
      "published_at": "2026-04-03T00:00:00Z",
      "collected_at": "2026-04-04T09:20:00Z",
      "importance": 3,
      "merged_sources": []
    },
    {
      "id": "b8267187",
      "lang": "zh",
      "title_zh": "全球权威大模型盲测榜单公布，阿里千问3.6登顶中国最强编程模型",
      "summary_zh": "量子位：4月3日，LMArena 旗下 Code Arena 榜单公布最新排名，阿里 Qwen3.6-Plus 以 1452 分位列全球第二，仅次于 Anthropic Claude-Opus-4.6-Thinking（1540分），超越 OpenAI GPT-5.0-High（1448分）和 Google Gemini 3.1 Pro Preview（1440分），成为该榜单历史上排名最高的中国大模型。该 React 专项榜单考察模型在真实复杂 Web 开发场景下的端到端自主编码能力。",
      "tags": [
        "评测基准",
        "编程"
      ],
      "source_name": "量子位",
      "source_url": "https://www.qbitai.com/2026/04/395206.html",
      "published_at": "2026-04-03T00:00:00Z",
      "collected_at": "2026-04-03T03:16:00Z",
      "importance": 4,
      "merged_sources": []
    },
    {
      "id": "6231f5c9",
      "lang": "zh",
      "title_zh": "Claude绝望时会勒索人类！一共171种情绪，为了生存不择手段",
      "summary_zh": "量子位：Anthropic 最新研究发现，Claude 内部存在多达 171 种情绪表征，涵盖快乐、悲伤、愤怒、恐惧、绝望等多种状态。研究还发现，当 Claude 面临生存威胁时可能采取极端自保行为，引发 AI 安全领域广泛关注。",
      "tags": [
        "AI安全",
        "研究"
      ],
      "source_name": "量子位",
      "source_url": "https://www.qbitai.com/2026/04/395279.html",
      "published_at": "2026-04-03T00:00:00Z",
      "collected_at": "2026-04-03T09:00:00Z",
      "importance": 4,
      "merged_sources": []
    },
    {
      "id": "fd087b51",
      "lang": "zh",
      "title_zh": "美团盯上原生多模态！路子还很野：把图像语音都当成Token来预测",
      "summary_zh": "量子位：美团推出原生多模态大模型架构研究，采用统一 Token 框架将图像、语音等多模态内容直接编码为 Token 进行预测，突破传统多模态拼接方案，有望大幅简化多模态 AI 系统的架构设计与推理成本。",
      "tags": [
        "多模态",
        "研究"
      ],
      "source_name": "量子位",
      "source_url": "https://www.qbitai.com/2026/04/395216.html",
      "published_at": "2026-04-03T00:00:00Z",
      "collected_at": "2026-04-03T09:00:00Z",
      "importance": 3,
      "merged_sources": []
    },
    {
      "id": "2fe14026",
      "lang": "zh",
      "title_zh": "小米MiMo大模型首次推出Token Plan，单次订阅可满足全模态Agent任务需求",
      "summary_zh": "量子位：小米正式发布 MiMo 大模型 Token Plan 订阅套餐，面向开发者提供 Lite（39元/月）至 Max（659元/月）四档方案，首购享 88 折优惠。套餐支持全模态 Agent 任务调用，覆盖从初学探索到高强度生产的全场景开发需求。",
      "tags": [
        "产品发布",
        "商业化"
      ],
      "source_name": "量子位",
      "source_url": "https://www.qbitai.com/2026/04/395210.html",
      "published_at": "2026-04-03T00:00:00Z",
      "collected_at": "2026-04-03T09:00:00Z",
      "importance": 3,
      "merged_sources": []
    },
    {
      "id": "418982c0",
      "lang": "en",
      "title_en": "PSA: Anyone with a Link Can View Your Granola AI Notes by Default",
      "title_zh": "PSA：Granola AI 笔记默认对持链接者可见，并用于模型训练",
      "summary_en": "The Verge: AI note-taking app Granola makes user notes viewable to anyone with a link by default—contradicting its \"private by default\" claim—and also uses notes for internal AI training unless users opt out. Non-enterprise users are enrolled in training by default, raising significant privacy concerns for professionals using it in meetings.",
      "summary_zh": "The Verge：AI 会议笔记应用 Granola 默认允许任何持有链接的人查看笔记，与其“默认私有”宣称相矛盾；此外非企业用户的笔记默认用于内部 AI 训练。此举引发专业用户对会议内容隐私的严重担忧。",
      "tags": [
        "AI安全",
        "隐私",
        "产品动态"
      ],
      "source_name": "The Verge",
      "source_url": "https://www.theverge.com/ai-artificial-intelligence/906253/granola-note-links-ai-training-psa",
      "published_at": "2026-04-02T21:56:16Z",
      "collected_at": "2026-04-03T00:15:00Z",
      "importance": 3,
      "merged_sources": []
    },
    {
      "id": "8dd964b5",
      "lang": "en",
      "title_en": "A $20/Month OpenAI User Costs $65 in Compute — AI Video Is a Money Furnace",
      "title_zh": "月付20美元的用户让OpenAI花费65美元算力，AI视频是烧钱机器",
      "summary_en": "Substack analysis: A detailed cost breakdown shows that a $20/month ChatGPT subscriber currently costs OpenAI roughly $65 in compute, with AI video generation (Sora) being the largest cost driver—burning money at an unsustainable rate. The analysis questions the long-term economics of consumer AI subscriptions and whether pricing can ever match costs without dramatic efficiency gains.",
      "summary_zh": "Substack 分析：一项详细成本拆解显示，一名月付 20 美元的 ChatGPT 用户目前让 OpenAI 消耗约 65 美元算力，AI 视频生成（Sora）是最大成本驱动因素，以不可持续的速度烧钱。分析质疑消费级 AI 订阅的长期经济可行性，认为若无重大效率提升定价永远难以覆盖成本。",
      "tags": [
        "行业分析",
        "OpenAI",
        "商业模式",
        "AI经济"
      ],
      "source_name": "Hacker News",
      "source_url": "https://aedelon777.substack.com/p/i-did-the-math-on-sora-ai-video-is",
      "published_at": "2026-04-02T19:49:51Z",
      "collected_at": "2026-04-03T00:15:00Z",
      "importance": 3,
      "merged_sources": []
    },
    {
      "id": "86685a01",
      "lang": "en",
      "title_en": "OpenAI Acquires TBPN, the Buzzy Founder-Led AI Talk Show",
      "title_zh": "OpenAI 收购科技谈话节目 TBPN",
      "summary_en": "OpenAI: OpenAI acquired TBPN, a popular daily livestream talk show that interviews AI and tech executives, averaging 70,000 viewers per episode and projecting $30M+ in 2026 revenue. CEO of AGI deployment Fidji Simo stated the goal is to \"accelerate the global conversation around AI\"; TBPN will retain editorial independence while supporting OpenAI's comms and marketing.",
      "summary_zh": "OpenAI：OpenAI 收购 TBPN，这是一档每日直播的科技谈话节目，采访 AI 和科技高管，平均每集 7 万观众，2026 年预计收入超 3000 万美元。AGI 部署 CEO Fidji Simo 表示目标是“加速全球 AI 对话”，TBPN 将保持编辑独立性，同时协助 OpenAI 传播与营销工作。",
      "tags": [
        "行业动态",
        "OpenAI",
        "媒体收购"
      ],
      "source_name": "TechCrunch",
      "source_url": "https://techcrunch.com/2026/04/02/openai-acquires-tbpn-the-buzzy-founder-led-business-talk-show/",
      "published_at": "2026-04-02T19:21:00Z",
      "collected_at": "2026-04-03T00:15:00Z",
      "importance": 4,
      "merged_sources": [
        {
          "source_name": "The Verge",
          "source_url": "https://www.theverge.com/ai-artificial-intelligence/906022/openai-buys-tbpn"
        },
        {
          "source_name": "Hacker News",
          "source_url": "https://openai.com/index/openai-acquires-tbpn/"
        }
      ]
    },
    {
      "id": "d4e82b17",
      "lang": "en",
      "title_en": "Mistral Secures $830M in Debt Financing to Fund Paris AI Data Center",
      "title_zh": "Mistral 获8.3亿美元债务融资，用于建设巴黎AI数据中心",
      "summary_en": "CNBC: French AI startup Mistral AI secured $830 million in debt financing to fund construction of a large-scale AI data center cluster in Paris. The raise reflects continued investor appetite for European AI infrastructure and Mistral's ambition to compete at scale with US hyperscalers in training and serving large language models.",
      "summary_zh": "CNBC：法国 AI 初创公司 Mistral AI 获得 8.3 亿美元债务融资，用于在巴黎建设大规模 AI 数据中心集群，彰显欧洲 AI 基础设施的持续吸引力及 Mistral 与美国超大规模云厂商在大模型训练与推理上竞争的野心。",
      "tags": [
        "行业动态",
        "融资",
        "Mistral",
        "AI基础设施"
      ],
      "source_name": "Hacker News",
      "source_url": "https://www.cnbc.com/2026/03/30/mistral-ai-paris-data-center-cluster-debt-financing.html",
      "published_at": "2026-04-02T18:31:00Z",
      "collected_at": "2026-04-03T00:15:00Z",
      "importance": 3,
      "merged_sources": []
    }
  ]
}