{
  "latest_date": "2026-04-13",
  "updated_at": "2026-04-13T03:10:00Z",
  "dates": [
    "2026-04-13",
    "2026-04-12",
    "2026-04-11",
    "2026-04-10",
    "2026-04-08",
    "2026-04-07",
    "2026-04-06",
    "2026-04-05",
    "2026-04-04",
    "2026-04-03",
    "2026-04-02",
    "2026-04-01",
    "2026-03-31",
    "2026-03-30",
    "2026-03-29",
    "2026-03-28",
    "2026-03-26",
    "2026-03-25",
    "2026-03-24",
    "2026-03-23",
    "2026-03-22",
    "2026-03-21",
    "2026-03-20",
    "2026-03-19",
    "2026-03-18",
    "2026-03-17",
    "2026-03-16",
    "2026-03-15",
    "2026-03-14",
    "2026-03-13",
    "2026-03-12",
    "2026-03-11",
    "2026-03-10",
    "2026-03-09",
    "2026-03-08",
    "2026-03-07",
    "2026-03-06",
    "2026-03-05"
  ],
  "total_items": 537,
  "page": 19,
  "page_size": 20,
  "total_pages": 27,
  "items": [
    {
      "id": "48227e4c",
      "lang": "en",
      "title_en": "Lyria 3 Pro: Create longer AI music tracks across more Google products",
      "title_zh": "Lyria 3 Pro：创作更长AI音乐，登陆更多谷歌产品",
      "summary_en": "Google DeepMind: Lyria 3 Pro enables AI music generation of tracks up to three minutes long with structural awareness, expanding beyond the previous 30-second limit, and is being integrated into Gemini, YouTube, and other Google surfaces.",
      "summary_zh": "Google DeepMind：Lyria 3 Pro支持生成最长3分钟、具备结构感知能力的AI音乐，突破此前30秒上限，并将集成至Gemini、YouTube等谷歌产品。",
      "tags": [
        "模型发布",
        "多模态"
      ],
      "source_name": "Google DeepMind",
      "source_url": "https://deepmind.google/blog/lyria-3-pro-create-longer-tracks-in-more/",
      "published_at": "2026-03-25T16:01:39Z",
      "collected_at": "2026-03-26T00:00:00Z",
      "importance": 4,
      "merged_sources": []
    },
    {
      "id": "56d86022",
      "lang": "en",
      "title_en": "Harvey confirms $11B valuation as Sequoia triples down on AI legal tech",
      "title_zh": "AI法律科技公司Harvey估值确认达110亿美元，红杉三度加注",
      "summary_en": "Harvey: The AI-powered legal tech startup has confirmed an $11 billion valuation with continued backing from Sequoia, Andreessen Horowitz, and Kleiner Perkins, making it one of the highest-valued AI vertical SaaS companies in the legal sector.",
      "summary_zh": "Harvey：这家AI法律科技初创公司确认估值达110亿美元，获得红杉、a16z、Kleiner Perkins等机构持续加码，成为法律垂直AI领域估值最高的公司之一。",
      "tags": [
        "投融资",
        "AI应用",
        "法律AI"
      ],
      "source_name": "TechCrunch",
      "source_url": "https://techcrunch.com/2026/03/25/harvey-confirms-11b-valuation-sequoia-triples-down/",
      "published_at": "2026-03-25T15:27:00Z",
      "collected_at": "2026-03-26T00:00:00Z",
      "importance": 4,
      "merged_sources": []
    },
    {
      "id": "bedf0dbb",
      "lang": "en",
      "title_en": "Granola raises $125M at $1.5B valuation, expanding to enterprise AI",
      "title_zh": "AI会议助手Granola融资1.25亿美元，估值15亿挺进企业AI",
      "summary_en": "Granola: The AI meeting assistant raised $125M at a $1.5B valuation, nearly 6x its previous $250M mark, as it expands from meeting notetaking into a broader enterprise AI platform supporting AI agents.",
      "summary_zh": "Granola：AI会议助手完成1.25亿美元融资，估值升至15亿美元（较此前2.5亿美元暴涨近6倍），正从会议记录扩展为支持AI代理的企业级AI平台。",
      "tags": [
        "投融资",
        "AI应用",
        "企业软件"
      ],
      "source_name": "TechCrunch",
      "source_url": "https://techcrunch.com/2026/03/25/granola-raises-125m-hits-1-5b-valuation-as-it-expands-from-meeting-notetaker-to-enterprise-ai-app/",
      "published_at": "2026-03-25T14:48:00Z",
      "collected_at": "2026-03-26T00:00:00Z",
      "importance": 3,
      "merged_sources": []
    },
    {
      "id": "ce61270d",
      "lang": "en",
      "title_en": "Ensu: Ente launches a local LLM app (Hacker News #1)",
      "title_zh": "Ensu：Ente推出本地LLM应用（Hacker News热榜第一）",
      "summary_en": "Ente: Ensu is a new local LLM application from the privacy-focused photo storage company, enabling users to run language models entirely on-device without cloud data transfer, topping Hacker News with a score of 322.",
      "summary_zh": "Ente：隐私照片存储Ente团队推出本地LLM应用Ensu，支持完全在设备端运行大语言模型，无需上传云端，在Hacker News以322分登顶热榜。",
      "tags": [
        "开源工具",
        "本地AI",
        "隐私"
      ],
      "source_name": "Hacker News",
      "source_url": "https://ente.com/blog/ensu/",
      "published_at": "2026-03-25T12:49:00Z",
      "collected_at": "2026-03-26T00:00:00Z",
      "importance": 3,
      "merged_sources": []
    },
    {
      "id": "c1df6772",
      "lang": "en",
      "title_en": "Cursor self-hosted cloud agents now generally available",
      "title_zh": "Cursor自托管云端Agent正式发布：代码和工具执行留在企业内网",
      "summary_en": "Cursor: Self-hosted cloud agents are now generally available, letting enterprises run Cursor's AI coding agents entirely within their own infrastructure—code, secrets, and build artifacts never leave the environment—while still benefiting from Cursor's orchestration and model access. Customers like Brex, Money Forward, and Notion have already adopted this feature.",
      "summary_zh": "Cursor：自托管云端Agent正式发布，企业可在自有基础设施内运行Cursor AI编程代理，代码、密钥及构建产物全程不离开内网，同时享用Cursor的调度与模型能力，Brex、Money Forward等企业已采用。",
      "tags": [
        "产品发布",
        "代码工具",
        "Agent",
        "企业软件"
      ],
      "source_name": "Cursor",
      "source_url": "https://cursor.com/blog/self-hosted-cloud-agents",
      "published_at": "2026-03-25T12:00:00Z",
      "collected_at": "2026-03-26T03:00:00Z",
      "importance": 4,
      "merged_sources": []
    },
    {
      "id": "ed549ebd",
      "lang": "en",
      "title_en": "Senate Democrats push bill to codify Anthropic red lines on autonomous weapons",
      "title_zh": "美国参议院民主党人推动立法，将Anthropic AI红线写入法律",
      "summary_en": "U.S. Congress: Sen. Adam Schiff is working on legislation to codify Anthropic's self-imposed red lines banning AI in autonomous weapons and mass surveillance decisions, amid growing Pentagon-Anthropic tensions over AI deployment in defense.",
      "summary_zh": "美国国会：参议员亚当·希夫正推动立法，将Anthropic自设的AI红线——禁止AI参与自主武器及大规模监控——写入法律，背景是Anthropic与五角大楼在AI军事应用上的矛盾升级。",
      "tags": [
        "政策监管",
        "AI安全",
        "军事AI"
      ],
      "source_name": "The Verge",
      "source_url": "https://www.theverge.com/policy/900341/senator-schiff-anthropic-autonomous-weapons-mass-surveillance",
      "published_at": "2026-03-25T11:05:46Z",
      "collected_at": "2026-03-26T00:00:00Z",
      "importance": 5,
      "merged_sources": []
    },
    {
      "id": "75939090",
      "lang": "en",
      "title_en": "Zuckerberg and Jensen Huang join Trump's new AI-focused tech advisory panel",
      "title_zh": "扎克伯格与黄仁勋加入特朗普AI科技顾问委员会",
      "summary_en": "White House: Meta CEO Mark Zuckerberg, Nvidia CEO Jensen Huang, Oracle's Larry Ellison, and Google co-founder Sergey Brin are among the first members of Trump's President's Council of Advisors on Science and Technology, with a strong AI focus.",
      "summary_zh": "白宫：Meta CEO扎克伯格、英伟达CEO黄仁勋、甲骨文拉里·埃里森及谷歌联创谢尔盖·布林成为特朗普新设总统科技顾问委员会首批成员，该委员会着重聚焦AI产业。",
      "tags": [
        "政策监管",
        "行业动态"
      ],
      "source_name": "The Verge",
      "source_url": "https://www.theverge.com/policy/900340/trump-tech-panel-mark-zuckerberg-jensen-huang",
      "published_at": "2026-03-25T10:41:21Z",
      "collected_at": "2026-03-26T00:00:00Z",
      "importance": 4,
      "merged_sources": []
    },
    {
      "id": "336ca8c8",
      "lang": "zh",
      "title_zh": "OpenAI关停Sora！25个月从封神到退场",
      "title_en": "OpenAI shuts down Sora: 25 months from hype to exit",
      "summary_zh": "量子位：OpenAI正式关停视频生成模型Sora，距其发布仅25个月；同步曝光与迪士尼10亿美元合作谈判破裂，折射出AI视频赛道的激烈竞争与商业化困境。",
      "summary_en": "Qbitai: OpenAI has officially shut down Sora video generation model just 25 months after launch, concurrent with reports that a billion-dollar Disney deal fell through, highlighting fierce competition and commercialization challenges in AI video.",
      "tags": [
        "产品动态",
        "OpenAI",
        "AI视频"
      ],
      "source_name": "量子位",
      "source_url": "https://www.qbitai.com/2026/03/391799.html",
      "published_at": "2026-03-25T08:00:00Z",
      "collected_at": "2026-03-26T00:00:00Z",
      "importance": 5,
      "merged_sources": []
    },
    {
      "id": "03758a62",
      "lang": "en",
      "title_en": "Anthropic's Claude Code gets a safer auto mode",
      "title_zh": "Anthropic Claude Code新增更安全自动模式",
      "summary_en": "Anthropic: Claude Code's new auto mode lets the AI make permissions-level decisions on behalf of users, offering a safer alternative to unrestricted agent access for automated coding tasks.",
      "summary_zh": "Anthropic：Claude Code新增自动模式，允许AI代替用户做出权限层面的决策，为自动化编程任务提供更安全的代理替代方案。",
      "tags": [
        "产品更新",
        "代码工具",
        "Agent"
      ],
      "source_name": "The Verge",
      "source_url": "https://www.theverge.com/ai-artificial-intelligence/900201/anthropic-claude-code-auto-mode",
      "published_at": "2026-03-25T07:39:46Z",
      "collected_at": "2026-03-26T00:00:00Z",
      "importance": 4,
      "merged_sources": []
    },
    {
      "id": "fd089818",
      "lang": "zh",
      "title_zh": "DeepSeek急招Agent方向！一口气放17个岗位，重度Vibe Coding优先",
      "title_en": "DeepSeek urgently hiring for Agent roles: 17 positions posted, Vibe Coding a priority",
      "summary_zh": "量子位：DeepSeek一次性发布17个Agent方向招聘岗位，明确优先考虑有重度Vibe Coding经验的候选人，反映其在智能体研发上的大规模投入与战略紧迫性。",
      "summary_en": "Qbitai: DeepSeek simultaneously posted 17 open Agent-focused positions, explicitly prioritizing candidates with heavy Vibe Coding experience, signaling a major accelerated push into agentic AI research and development.",
      "tags": [
        "行业动态",
        "DeepSeek",
        "Agent"
      ],
      "source_name": "量子位",
      "source_url": "https://www.qbitai.com/2026/03/392024.html",
      "published_at": "2026-03-25T07:00:00Z",
      "collected_at": "2026-03-26T00:00:00Z",
      "importance": 3,
      "merged_sources": []
    },
    {
      "id": "afaa88eb",
      "lang": "zh",
      "title_zh": "黄仁勋暴论：AGI已经实现，Ilya错了，程序员将有10亿",
      "title_en": "Jensen Huang: AGI has been achieved, Ilya is wrong, there will be 1 billion programmers",
      "summary_zh": "量子位：英伟达CEO黄仁勋公开宣称AGI已经实现，认为Ilya Sutskever对AGI的定义有误；并预测随着AI辅助编程普及，全球程序员数量将迈向10亿规模。",
      "summary_en": "Qbitai: Nvidia CEO Jensen Huang claimed AGI has already been achieved and that Ilya Sutskever's definition is incorrect; he also predicted that AI-assisted programming will eventually enable one billion people to become programmers.",
      "tags": [
        "行业观点",
        "AGI"
      ],
      "source_name": "量子位",
      "source_url": "https://www.qbitai.com/2026/03/391750.html",
      "published_at": "2026-03-25T06:00:00Z",
      "collected_at": "2026-03-26T00:00:00Z",
      "importance": 4,
      "merged_sources": []
    },
    {
      "id": "0c9c67ce",
      "lang": "en",
      "title_en": "With $3.5B in fresh capital, Kleiner Perkins is going all in on AI",
      "title_zh": "Kleiner Perkins完成35亿美元募资，全力押注AI",
      "summary_en": "TechCrunch: Kleiner Perkins has closed a $3.5 billion fundraise, allocating $1 billion for early-stage AI startups and $2.5 billion for late-stage growth businesses, signaling a major strategic pivot by one of Silicon Valley's most storied venture firms to double down on AI.",
      "summary_zh": "TechCrunch：Kleiner Perkins完成35亿美元募资，其中10亿美元用于早期AI创业公司，25亿美元投向成长期企业，标志着这家老牌硅谷风投全面押注AI的战略转型。",
      "tags": [
        "行业动态",
        "投融资"
      ],
      "source_name": "TechCrunch",
      "source_url": "https://techcrunch.com/2026/03/24/with-3-5b-in-fresh-capital-kleiner-perkins-is-going-all-in-on-ai/",
      "published_at": "2026-03-25T00:47:20Z",
      "collected_at": "2026-03-25T03:00:00Z",
      "importance": 4,
      "merged_sources": []
    },
    {
      "id": "42714d8c",
      "lang": "zh",
      "title_zh": "它石智航联合六大机构发布OmniVTA视触觉世界模型",
      "summary_zh": "它石智航：它石智航联合新加坡国立大学、复旦大学、中科院自动化所、清华大学、中关村学院及北京航空航天大学，发布OmniVTA视触觉操作框架和OmniViTac大规模视触觉数据集。该系统让机器人从被动感知升级为对触觉进行主动预测和闭环精准控制，支持复杂灵巧操作任务。相关论文已在arXiv发布。",
      "tags": [
        "研究论文",
        "多模态"
      ],
      "source_name": "量子位",
      "source_url": "https://www.qbitai.com/2026/03/392105.html",
      "published_at": "2026-03-25T00:00:00Z",
      "collected_at": "2026-03-25T09:00:00Z",
      "importance": 3,
      "merged_sources": []
    },
    {
      "id": "7bb8054a",
      "lang": "zh",
      "title_zh": "DeepSeek急招Agent方向，重度Vibe Coding优先",
      "summary_zh": "DeepSeek：DeepSeek一口气发布17个招聘岗位，核心聚焦Agent方向，覆盖算法研究、数据评测及基础设施全链条。多个岗位明确要求或优先考虑重度使用Claude Code、Cursor、Copilot等AI编程工具的候选人，全栈开发岗还要求作为Vibe Coding重度用户持续探索模型能力。",
      "tags": [
        "Agent",
        "编程"
      ],
      "source_name": "量子位",
      "source_url": "https://www.qbitai.com/2026/03/392024.html",
      "published_at": "2026-03-25T00:00:00Z",
      "collected_at": "2026-03-25T09:00:00Z",
      "importance": 2,
      "merged_sources": []
    },
    {
      "id": "5a0e5ffa",
      "lang": "zh",
      "title_zh": "WorkBuddy：微信里的AI专家团队工作流",
      "summary_zh": "WorkBuddy：WorkBuddy是一款可在微信中使用的AI工作流产品，支持多个AI专家角色协同作业，覆盖运营策略、选题、内容生产等环节。用户可通过配置AI角色分工，在微信内完成自媒体内容全流程，并支持定时推送AI热点摘要等自动化功能。",
      "tags": [
        "产品发布",
        "Agent"
      ],
      "source_name": "量子位",
      "source_url": "https://www.qbitai.com/2026/03/391894.html",
      "published_at": "2026-03-25T00:00:00Z",
      "collected_at": "2026-03-25T09:00:00Z",
      "importance": 2,
      "merged_sources": []
    },
    {
      "id": "0f161b31",
      "lang": "zh",
      "title_zh": "昆仑万维Mureka V8登顶全球AI音乐模型榜",
      "summary_zh": "昆仑万维：昆仑万维旗下AI音乐模型Mureka V8在Artificial Analysis音乐模型榜单中登顶，超越Suno V4.5、Udio v1.5 Allegro等国际主流模型，实现人声（vocal）与器乐（instrument）双项第一。测试显示其在低复杂度提示词下也具备较强的理解和生成能力。",
      "tags": [
        "产品发布",
        "多模态",
        "评测基准"
      ],
      "source_name": "量子位",
      "source_url": "https://www.qbitai.com/2026/03/391839.html",
      "published_at": "2026-03-25T00:00:00Z",
      "collected_at": "2026-03-25T09:00:00Z",
      "importance": 3,
      "merged_sources": []
    },
    {
      "id": "877123e3",
      "lang": "zh",
      "title_zh": "AI全链路加持！一加15T打造全能小屏，售价4299元起",
      "summary_zh": "量子位：一加全新小屏旗舰一加 15T 正式发布，搭载第五代骁龙 8 至尊版处理器与 ColorOS 16 系统，全面集成 AI 功能。机型配备 6.32 英寸屏幕、7500mAh 大电池及 LUMO 凝光影像系统，165Hz 高帧游戏体验，售价 4299 元起。",
      "tags": [
        "产品发布",
        "手机"
      ],
      "source_name": "量子位",
      "source_url": "https://www.qbitai.com/2026/03/391775.html",
      "published_at": "2026-03-24T14:35:34Z",
      "collected_at": "2026-03-24T15:00:00Z",
      "importance": 2,
      "merged_sources": []
    },
    {
      "id": "66c9a554",
      "lang": "en",
      "title_en": "Anthropic's Claude Code and Cowork can control your computer",
      "title_zh": "Anthropic Claude Code 与 Cowork 现可控制电脑",
      "summary_en": "Anthropic: Anthropic has announced that Claude Code and its new Cowork feature can now control computers directly, enabling GUI-level automation tasks. The capability allows Claude to interact with desktop applications and perform complex multi-step workflows on behalf of users.",
      "summary_zh": "Anthropic：Anthropic 宣布 Claude Code 及新功能 Cowork 现可直接控制电脑，实现 GUI 级别的自动化操作，让 Claude 能够与桌面应用程序交互并代替用户执行复杂的多步骤工作流。",
      "tags": [
        "产品发布",
        "AI Agent",
        "编程工具"
      ],
      "source_name": "The Verge",
      "source_url": "https://www.theverge.com/ai-artificial-intelligence/899430/anthropic-claude-code-cowork-ai-control-computer",
      "published_at": "2026-03-24T13:32:23Z",
      "collected_at": "2026-03-24T15:00:00Z",
      "importance": 4,
      "merged_sources": []
    },
    {
      "id": "5ca1f58b",
      "lang": "en",
      "title_en": "Anthropic's Claude Code and Cowork can control your computer",
      "title_zh": "Anthropic Claude Code 与 Cowork 获得电脑控制能力",
      "summary_en": "Anthropic: Anthropic has expanded Claude Code and its Cowork collaboration tool with computer use capabilities, allowing the AI to autonomously control desktop applications and perform complex multi-step tasks. The update brings agentic capabilities directly into developer workflows.",
      "summary_zh": "Anthropic：Anthropic 为 Claude Code 和协作工具 Cowork 新增了电脑控制功能，使 AI 能够自主操作桌面应用程序并执行复杂的多步骤任务，将智能体能力直接融入开发者工作流。",
      "tags": [
        "产品发布",
        "Agent"
      ],
      "source_name": "The Verge",
      "source_url": "https://www.theverge.com/ai-artificial-intelligence/899430/anthropic-claude-code-cowork-computer-use",
      "published_at": "2026-03-24T13:32:23Z",
      "collected_at": "2026-03-24T15:00:00Z",
      "importance": 4,
      "merged_sources": []
    },
    {
      "id": "e77aa854",
      "lang": "zh",
      "title_zh": "龙虾爆火之后，AI初创的全球化机会来了吗？｜线下沙龙报名",
      "summary_zh": "量子位：量子位将于 3 月 26 日举办 AI 初创全球化线下沙龙，邀请小影科技、FluxA、谷歌、京东、声网、Meshy 等企业分享出海实践经验，面向有全球化意向的 AI 创业团队开放报名。",
      "tags": [
        "行业活动",
        "出海"
      ],
      "source_name": "量子位",
      "source_url": "https://www.qbitai.com/2026/03/391760.html",
      "published_at": "2026-03-24T13:09:56Z",
      "collected_at": "2026-03-24T15:00:00Z",
      "importance": 2,
      "merged_sources": []
    }
  ]
}