{
  "latest_date": "2026-04-07",
  "updated_at": "2026-04-07T00:08:00Z",
  "dates": [
    "2026-04-07",
    "2026-04-06",
    "2026-04-05",
    "2026-04-04",
    "2026-04-03",
    "2026-04-02",
    "2026-04-01",
    "2026-03-31",
    "2026-03-30",
    "2026-03-29",
    "2026-03-28",
    "2026-03-26",
    "2026-03-25",
    "2026-03-24",
    "2026-03-23",
    "2026-03-22",
    "2026-03-21",
    "2026-03-20",
    "2026-03-19",
    "2026-03-18",
    "2026-03-17",
    "2026-03-16",
    "2026-03-15",
    "2026-03-14",
    "2026-03-13",
    "2026-03-12",
    "2026-03-11",
    "2026-03-10",
    "2026-03-09",
    "2026-03-08",
    "2026-03-07",
    "2026-03-06",
    "2026-03-05"
  ],
  "total_items": 466,
  "page": 2,
  "page_size": 20,
  "total_pages": 24,
  "items": [
    {
      "id": "22bfdeb3",
      "lang": "en",
      "title_en": "Suno is a music copyright nightmare",
      "title_zh": "Suno版权问题调查：AI仿冒乐曲泛滥",
      "summary_en": "Suno: An investigation found Suno's copyright filters are easily bypassed, enabling users to generate AI imitations of songs including works by Beyonce, Black Sabbath, and Aqua using free software. AI detectors flagged the outputs as likely AI-generated. Suno's policy prohibits copyrighted material, but enforcement appears ineffective, raising concerns about streaming platforms being flooded with AI cover slop.",
      "summary_zh": "Suno：调查发现Suno平台版权过滤器极易绕过，用户可利用免费软件生成碧昂斯、黑色安息日等歌手作品的AI仿冒版本，AI检测工具均将其标记为疑似AI生成。Suno声称禁止使用受版权保护素材，但实际执行效果存疑，外界担忧流媒体平台将被AI仿冒音乐大量侵占。",
      "tags": [
        "政策监管",
        "多模态"
      ],
      "source_name": "The Verge",
      "source_url": "https://www.theverge.com/ai-artificial-intelligence/906896/sunos-copyright-ai-music-covers",
      "published_at": "2026-04-05T16:00:00Z",
      "collected_at": "2026-04-06T00:00:00Z",
      "importance": 3,
      "merged_sources": []
    },
    {
      "id": "7be922b9",
      "lang": "en",
      "title_en": "I let Gemini in Google Maps plan my day and it went surprisingly well",
      "title_zh": "Gemini 接管 Google Maps 行程规划：出人意料地好用",
      "summary_en": "The Verge: Google's Gemini AI, integrated into Google Maps, was tested for full-day itinerary planning. The hands-on found it capable of building coherent travel plans with restaurant picks, transit suggestions, and timing — outperforming earlier AI map assistants in practical usability.",
      "summary_zh": "The Verge：测试者将 Google Maps 中的 Gemini AI 用于全天行程规划，发现其能自动整合餐厅推荐、交通建议和时间安排，实用性超出预期，表现优于以往的 AI 地图助手。",
      "tags": [
        "AI应用",
        "产品发布"
      ],
      "source_name": "The Verge",
      "source_url": "https://www.theverge.com/tech/907015/gemini-google-maps-hands-on",
      "published_at": "2026-04-05T14:00:00Z",
      "collected_at": "2026-04-05T15:10:00Z",
      "importance": 3,
      "merged_sources": []
    },
    {
      "id": "9c73d434",
      "lang": "en",
      "title_en": "Eight years of wanting, three months of building with AI",
      "title_zh": "渴望了八年，借助 AI 三个月造出来了",
      "summary_en": "Hacker News: A developer who spent eight years wishing for better SQLite developer tooling used AI to build SyntaQLite in just three months. The post explores how AI coding assistants dramatically compressed the time from idea to shipping product for solo developers.",
      "summary_zh": "Hacker News：一位开发者等待了八年，希望有更好的 SQLite 开发工具，最终借助 AI 在三个月内完成了 SyntaQLite。文章探讨了 AI 编码助手如何大幅压缩独立开发者从想法到上线的时间。",
      "tags": [
        "AI应用",
        "开源"
      ],
      "source_name": "Hacker News",
      "source_url": "https://lalitm.com/post/building-syntaqlite-ai/",
      "published_at": "2026-04-05T12:43:47Z",
      "collected_at": "2026-04-05T15:10:00Z",
      "importance": 3,
      "merged_sources": []
    },
    {
      "id": "9571bb9e",
      "lang": "en",
      "title_en": "Grammarly's sloppelganger saga",
      "title_zh": "Grammarly 的 AI 审稿困境",
      "summary_en": "The Verge: An expert reviewer recounts a lengthy saga with Grammarly, whose AI suggestions increasingly homogenized their writing style — raising questions about how AI grammar and writing tools reshape individual voice and the broader implications for authentic expression.",
      "summary_zh": "The Verge：一位专业审稿人讲述了与 Grammarly 的漫长纠葛——AI 建议不断同质化其写作风格，引发了对 AI 写作工具如何重塑个人表达以及真实性的深层思考。",
      "tags": [
        "AI应用",
        "政策监管"
      ],
      "source_name": "The Verge",
      "source_url": "https://www.theverge.com/column/906606/grammarly-expert-review-ai-saga",
      "published_at": "2026-04-05T12:00:00Z",
      "collected_at": "2026-04-05T15:10:00Z",
      "importance": 3,
      "merged_sources": []
    },
    {
      "id": "2d5b2299",
      "lang": "en",
      "title_en": "In Japan, the robot isn't coming for your job; it's filling the one nobody wants",
      "title_zh": "日本机器人不抢工作，专填无人愿做的岗位",
      "summary_en": "TechCrunch: Driven by severe labor shortages, Japan is moving physical AI and robotics from pilot projects into real-world deployment at scale — focusing on physically demanding or undesirable jobs in logistics, agriculture, and care sectors rather than displacing white-collar workers.",
      "summary_zh": "TechCrunch：面对严峻的劳动力短缺，日本正将物理 AI 与机器人技术从试点推向大规模落地，重点填补物流、农业和护理等行业中无人愿做的体力岗位，而非取代脑力工作者。",
      "tags": [
        "AI应用",
        "机器人"
      ],
      "source_name": "TechCrunch",
      "source_url": "https://techcrunch.com/2026/04/05/japan-is-proving-experimental-physical-ai-is-ready-for-the-real-world/",
      "published_at": "2026-04-05T10:00:00Z",
      "collected_at": "2026-04-05T15:10:00Z",
      "importance": 3,
      "merged_sources": []
    },
    {
      "id": "f3b7e290",
      "lang": "zh",
      "title_zh": "太初元碁向员工发放百亿算力token并将共建高校AI科教融合学院",
      "summary_zh": "太初元碁：在公司成立五周年大会上，太初元碁宣布向20名员工发放总价值约100万元的百亿算力token（均来自国产智算中心），鼓励员工开展AI Agent创新。同时，太初元碁与浙江工商大学、国家超级计算无锡中心、浙江力积存储科技共建人工智能科教融合学院，为该学院提供智能算力底座，推动「产-学-研」深度融合的AI人才培养。",
      "tags": [
        "产品发布",
        "Agent"
      ],
      "source_name": "量子位",
      "source_url": "https://www.qbitai.com/2026/04/396533.html",
      "published_at": "2026-04-05T08:53:12Z",
      "collected_at": "2026-04-06T00:00:00Z",
      "importance": 2,
      "merged_sources": []
    },
    {
      "id": "5ef1c864",
      "lang": "zh",
      "title_zh": "OpenAI新模型不是GPTX！全新预训练「土豆」曝光，Sora成弃子的原因找到了",
      "summary_zh": "量子位：据报道，OpenAI 正在训练一款代号为「土豆」的全新预训练基础模型，定位并非 GPT-X 系列延续，同时有消息称 Sora 团队遭遇内部资源重组，可能是其发展滞后的主因。",
      "tags": [
        "大模型",
        "产品发布"
      ],
      "source_name": "量子位",
      "source_url": "https://www.qbitai.com/2026/04/396535.html",
      "published_at": "2026-04-05T08:00:00Z",
      "collected_at": "2026-04-05T15:10:00Z",
      "importance": 4,
      "merged_sources": []
    },
    {
      "id": "3d90023f",
      "lang": "zh",
      "title_zh": "太初元碁向员工发放百亿算力token并将共建高校AI科教融合学院",
      "summary_zh": "量子位：国内 AI 公司太初元碁宣布向全体员工发放价值百亿的算力 token，并计划与高校共建 AI 科教融合学院，推动产学研深度合作，加速 AI 人才培养与应用落地。",
      "tags": [
        "AI应用",
        "产业动态"
      ],
      "source_name": "量子位",
      "source_url": "https://www.qbitai.com/2026/04/396533.html",
      "published_at": "2026-04-05T06:00:00Z",
      "collected_at": "2026-04-05T15:10:00Z",
      "importance": 3,
      "merged_sources": []
    },
    {
      "id": "3d8ec146",
      "lang": "en",
      "title_en": "I used AI. It worked. I hated it",
      "title_zh": "我用了 AI，它好用，但我很痛苦",
      "summary_en": "Hacker News: A developer used Claude Code to build a tool they needed and found it technically effective — but the experience felt deeply unsatisfying. The post reflects on what it means to outsource creative problem-solving to AI and the emotional cost of getting results without the journey.",
      "summary_zh": "Hacker News：一位开发者用 Claude Code 构建了所需工具，技术上相当成功，但过程中却感到极度不适。文章反思了将创造性问题解决外包给 AI 的意义，以及在没有亲历过程的情况下获得结果所带来的情感代价。",
      "tags": [
        "AI应用",
        "Agent"
      ],
      "source_name": "Hacker News",
      "source_url": "https://taggart-tech.com/reckoning/",
      "published_at": "2026-04-05T05:08:39Z",
      "collected_at": "2026-04-05T15:10:00Z",
      "importance": 3,
      "merged_sources": []
    },
    {
      "id": "d304f09b",
      "lang": "zh",
      "title_zh": "具身龙虾，上车理想",
      "summary_zh": "量子位：理想汽车与具身智能初创合作，将 AI 机器人（昵称「龙虾」）部署至门店场景，实现主动迎宾、取车引导等交互功能，探索具身 AI 在汽车零售与服务场景的落地路径。",
      "tags": [
        "机器人",
        "AI应用"
      ],
      "source_name": "量子位",
      "source_url": "https://www.qbitai.com/2026/04/396517.html",
      "published_at": "2026-04-05T05:00:00Z",
      "collected_at": "2026-04-05T15:10:00Z",
      "importance": 3,
      "merged_sources": []
    },
    {
      "id": "e2a4d6b1",
      "lang": "zh",
      "title_zh": "OpenAI新模型不是GPTX！全新预训练「土豆」曝光，Sora成弃子的原因找到了",
      "summary_zh": "OpenAI：据爆料，OpenAI内部代号「土豆（Spud）」的最新预训练模型即为GPT-6，计划于4月14日发布。知情人士称该模型性能较GPT-5.4提升40%，具备原生多模态架构，支持文本、音频、图像、视频，上下文窗口达2M。OpenAI内部将GPT-6定位为「通向AGI的最后一公里」，并计划将ChatGPT、Codex与Atlas浏览器融合为统一智能体应用。Sora资源被削减以集中支持GPT-6研发。",
      "tags": [
        "产品发布",
        "推理",
        "多模态"
      ],
      "source_name": "量子位",
      "source_url": "https://www.qbitai.com/2026/04/396535.html",
      "published_at": "2026-04-05T04:49:33Z",
      "collected_at": "2026-04-06T00:00:00Z",
      "importance": 5,
      "merged_sources": []
    },
    {
      "id": "0c34644e",
      "lang": "zh",
      "title_zh": "Linux内核维护者崩溃了！AI每天狂塞10份漏洞报告，想摸会鱼都难",
      "summary_zh": "量子位：AI 自动化安全扫描工具每天向 Linux 内核维护者提交多达 10 份漏洞报告，且大多数报告准确无误，令维护者疲于应对补丁工作。这一现象引发业界对 AI 辅助安全研究规模化带来的工程压力与治理挑战的广泛讨论。",
      "tags": [
        "AI安全",
        "开源"
      ],
      "source_name": "量子位",
      "source_url": "https://www.qbitai.com/2026/04/396358.html",
      "published_at": "2026-04-05T03:00:00Z",
      "collected_at": "2026-04-05T03:10:08Z",
      "importance": 3,
      "merged_sources": []
    },
    {
      "id": "655d9a8b",
      "lang": "zh",
      "title_zh": "GPT-6，曝光了",
      "summary_zh": "量子位：有关 OpenAI GPT-6 的内部细节被曝光，报道显示该模型彻底面向 AGI 目标设计，在架构和能力目标上与此前系列有重大差异，OpenAI 正全力押注这一下一代旗舰模型。",
      "tags": [
        "大模型",
        "产品发布"
      ],
      "source_name": "量子位",
      "source_url": "https://www.qbitai.com/2026/04/396366.html",
      "published_at": "2026-04-05T03:00:00Z",
      "collected_at": "2026-04-05T15:10:00Z",
      "importance": 5,
      "merged_sources": []
    },
    {
      "id": "f04624aa",
      "lang": "en",
      "title_en": "Towards end-to-end automation of AI research",
      "title_zh": "AI 研究全自动化初现曙光",
      "summary_en": "Hacker News: A Nature paper demonstrates an AI system capable of producing research papers with minimal human involvement — even passing the first round of peer review at a major ML conference workshop. The finding raises questions about the future role of human researchers and the integrity of scientific publishing.",
      "summary_zh": "Hacker News：《自然》刊发论文，展示了一套几乎无需人工干预即可生成研究论文的 AI 系统，甚至通过了顶级机器学习会议分会场的首轮同行评审，引发科研诚信与人类研究者未来角色的深层讨论。",
      "tags": [
        "基础研究",
        "AI安全"
      ],
      "source_name": "Hacker News",
      "source_url": "https://www.nature.com/articles/s41586-026-10265-5",
      "published_at": "2026-04-05T02:48:00Z",
      "collected_at": "2026-04-05T15:10:00Z",
      "importance": 4,
      "merged_sources": []
    },
    {
      "id": "90715715",
      "lang": "zh",
      "title_zh": "为了不跟龙虾抢电脑用，有人开始造Agent专属的\"三无\"硬件，比Mac Mini+存储便宜",
      "summary_zh": "量子位：随着本地运行 AI Agent（昵称「小龙虾」）需求激增，一位创业者推出专为 Agent 设计的 Agent Computer 硬件——无多余外设、专注本地推理与数据存储，定价低于 Mac Mini 加额外存储组合，主打隐私与专属算力。",
      "tags": [
        "AI应用",
        "Agent"
      ],
      "source_name": "量子位",
      "source_url": "https://www.qbitai.com/2026/04/396351.html",
      "published_at": "2026-04-05T02:30:00Z",
      "collected_at": "2026-04-05T03:10:08Z",
      "importance": 3,
      "merged_sources": []
    },
    {
      "id": "91fc906a",
      "lang": "en",
      "title_en": "LLM Wiki – An \"Idea File\" for Language Model Research (Karpathy)",
      "title_zh": "Karpathy 分享大语言模型研究想法清单",
      "summary_en": "Hacker News: Andrej Karpathy shared a GitHub Gist serving as a running \"idea file\" for LLM research directions, covering topics such as architecture improvements, training techniques, evaluation methods, and open problems in the field. The list quickly gained community attention.",
      "summary_zh": "Hacker News：Andrej Karpathy 在 GitHub Gist 公开了一份持续更新的 LLM 研究想法清单，涵盖架构改进、训练技巧、评估方法及未解难题，迅速引发社区热议。",
      "tags": [
        "基础研究",
        "大模型"
      ],
      "source_name": "Hacker News",
      "source_url": "https://gist.github.com/karpathy/442a6bf555914893e9891c11519de94f",
      "published_at": "2026-04-05T00:57:45Z",
      "collected_at": "2026-04-05T00:00:00Z",
      "importance": 4,
      "merged_sources": []
    },
    {
      "id": "45a8c079",
      "lang": "en",
      "title_en": "Show HN: Real-time AI (audio/video in, voice out) on an M3 Pro with Gemma E2B",
      "title_zh": "Parlor：M3 Pro 本地运行 Gemma E2B 实时音视频 AI 对话",
      "summary_en": "Hacker News: A developer demonstrated Parlor, a local real-time AI assistant running on Apple M3 Pro using Google's Gemma E2B model. It accepts audio and video input and delivers voice output entirely on-device without cloud dependencies.",
      "summary_zh": "Hacker News：开发者展示 Parlor，在 Apple M3 Pro 上基于 Gemma E2B 本地运行的实时 AI 助手，支持音频和视频输入，以语音输出，完全设备端运行，无需云端依赖。",
      "tags": [
        "本地部署",
        "多模态"
      ],
      "source_name": "Hacker News",
      "source_url": "https://github.com/fikrikarim/parlor",
      "published_at": "2026-04-05T00:00:00Z",
      "collected_at": "2026-04-06T15:08:00Z",
      "importance": 2,
      "merged_sources": []
    },
    {
      "id": "6c13f2a3",
      "lang": "en",
      "title_en": "Show HN: sllm – Split a GPU node with other developers, unlimited tokens",
      "title_zh": "sllm：多人共享GPU节点，不限 Token 的 LLM 推理服务",
      "summary_en": "Hacker News: sllm is an open-source tool that allows developers to share a GPU node for LLM inference with no token limits. The project aims to make high-throughput model inference more accessible and cost-effective for small teams and researchers.",
      "summary_zh": "Hacker News：sllm 是一款开源工具，支持多名开发者共享同一 GPU 节点运行 LLM 推理，且无 Token 限制。该项目旨在让小团队和研究人员以更低成本获得高吞吐量的模型推理能力。",
      "tags": [
        "推理",
        "开源"
      ],
      "source_name": "Hacker News",
      "source_url": "https://sllm.cloud",
      "published_at": "2026-04-04T23:18:58Z",
      "collected_at": "2026-04-05T00:00:00Z",
      "importance": 2,
      "merged_sources": []
    },
    {
      "id": "2f22c4fb",
      "lang": "en",
      "title_en": "Emotion Concepts and Their Function in a Large Language Model",
      "title_zh": "大语言模型中情感概念的功能研究",
      "summary_en": "Anthropic: Anthropic researchers published a study exploring how emotion-like concepts emerge and function within large language models. The paper investigates whether LLMs develop internal representations analogous to human emotion and how these influence model behavior and outputs.",
      "summary_zh": "Anthropic：Anthropic 研究人员发表论文，探讨大语言模型内部是否形成类似情感的概念，以及这些概念如何影响模型行为和输出。研究揭示了 LLM 内部表征与人类情感的潜在类比关系。",
      "tags": [
        "AI安全",
        "基础研究"
      ],
      "source_name": "Hacker News",
      "source_url": "https://www.anthropic.com/research/emotion-concepts-function",
      "published_at": "2026-04-04T22:30:25Z",
      "collected_at": "2026-04-05T00:00:00Z",
      "importance": 4,
      "merged_sources": []
    },
    {
      "id": "4b5942c9",
      "lang": "en",
      "title_en": "Components of a Coding Agent",
      "title_zh": "编程 Agent 的核心组成",
      "summary_en": "Hacker News: Sebastian Raschka's article breaks down the essential architectural components of a coding agent — including planning, tool use, code execution, memory, and feedback loops — and discusses design trade-offs relevant to building production-grade AI software agents.",
      "summary_zh": "Hacker News：Sebastian Raschka 发文分析编程 Agent 的核心架构组件，包括规划、工具调用、代码执行、记忆和反馈循环，并探讨构建生产级 AI 软件 Agent 的设计取舍。",
      "tags": [
        "AI应用",
        "Agent"
      ],
      "source_name": "Hacker News",
      "source_url": "https://magazine.sebastianraschka.com/p/components-of-a-coding-agent",
      "published_at": "2026-04-04T21:16:33Z",
      "collected_at": "2026-04-05T00:00:00Z",
      "importance": 3,
      "merged_sources": []
    }
  ]
}