{
  "latest_date": "2026-03-29",
  "updated_at": "2026-03-29T09:00:00Z",
  "dates": [
    "2026-03-29",
    "2026-03-28",
    "2026-03-26",
    "2026-03-25",
    "2026-03-24",
    "2026-03-23",
    "2026-03-22",
    "2026-03-21",
    "2026-03-20",
    "2026-03-19",
    "2026-03-18",
    "2026-03-17",
    "2026-03-16",
    "2026-03-15",
    "2026-03-14",
    "2026-03-13",
    "2026-03-12",
    "2026-03-11",
    "2026-03-10",
    "2026-03-09",
    "2026-03-08",
    "2026-03-07",
    "2026-03-06",
    "2026-03-05"
  ],
  "total_items": 234,
  "page": 6,
  "page_size": 20,
  "total_pages": 12,
  "items": [
    {
      "id": "cea750e1",
      "lang": "en",
      "title_en": "AI boom risks widening wealth divide, says BlackRock's Larry Fink",
      "title_zh": "贝莱德CEO芬克：AI繁荣可能加剧贫富分化",
      "summary_en": "The Guardian: BlackRock CEO Larry Fink warned in his annual letter that the AI boom risks significantly widening wealth inequality. He called on companies and policymakers to ensure AI productivity gains are broadly shared, or risk severe social and political backlash.",
      "summary_zh": "The Guardian：贝莱德CEO拉里·芬克在年度致股东信中警告，AI繁荣可能大幅加剧贫富不均，呼吁企业和政策制定者确保AI生产力红利广泛普惠，否则将面临严重的社会和政治反弹。",
      "tags": [
        "产业动态",
        "政策法规"
      ],
      "source_name": "Hacker News",
      "source_url": "https://www.theguardian.com/technology/2026/mar/23/ai-boom-risks-widening-wealth-divide-blackrock-larry-fink",
      "published_at": "2026-03-23T23:32:00Z",
      "collected_at": "2026-03-24T03:00:00Z",
      "importance": 3,
      "merged_sources": []
    },
    {
      "id": "7befec30",
      "lang": "en",
      "title_en": "Air Street becomes one of the largest solo VCs in Europe with $232M fund",
      "title_zh": "Air Street 完成 2.32 亿美元基金，成欧洲最大 AI 专项 VC 之一",
      "summary_en": "TechCrunch: London-based Air Street Capital closed a $232M Fund III focused exclusively on early-stage AI companies in Europe and North America. The fund signals continued strong investor appetite for AI infrastructure and applied AI startups despite market volatility.",
      "summary_zh": "TechCrunch：伦敦 AI 专项风投 Air Street Capital 完成 2.32 亿美元第三期基金，专注欧洲和北美早期 AI 创业公司。这一规模使其成为欧洲最大的单人管理 AI 风险基金之一，显示资本对 AI 赛道仍保持高度热情。",
      "tags": [
        "投资融资",
        "AI生态"
      ],
      "source_name": "TechCrunch",
      "source_url": "https://techcrunch.com/2026/03/23/air-street-becomes-one-of-the-largest-solo-vcs-in-europe-with-232m-fund/",
      "published_at": "2026-03-23T22:36:39Z",
      "collected_at": "2026-03-24T00:00:00Z",
      "importance": 3,
      "merged_sources": []
    },
    {
      "id": "d0c04e26",
      "lang": "en",
      "title_en": "GSA extends comments on AI clause after industry pushback",
      "title_zh": "行业反弹后，美国 GSA 延长 AI 条款意见征集期",
      "summary_en": "Hacker News: The U.S. General Services Administration extended its public comment period on a sweeping AI contract clause after significant pushback from industry groups, who argued the requirements were overly burdensome for AI vendors doing business with the federal government.",
      "summary_zh": "Hacker News：美国总务管理局（GSA）在收到行业团体强烈反对后，延长了一项涵盖广泛 AI 合同条款的公众意见征集期。行业方认为相关要求对与联邦政府合作的 AI 企业过于苛刻。",
      "tags": [
        "AI政策",
        "监管"
      ],
      "source_name": "Hacker News",
      "source_url": "https://fedscoop.com/gsa-extends-comments-on-sweeping-ai-clause-after-industry-pushback/",
      "published_at": "2026-03-23T22:29:09Z",
      "collected_at": "2026-03-24T00:00:00Z",
      "importance": 3,
      "merged_sources": []
    },
    {
      "id": "767903a7",
      "lang": "zh",
      "title_zh": "阿里在海外上了个企业级龙虾，我用它30分钟手搓了一家网店",
      "summary_zh": "量子位：阿里巴巴在海外推出面向中小企业的AI Agent平台，整合选品、营销、客服等多个Agent，可30分钟内搭建完整网店，直连供应商，支持Telegram/Discord实时更新，旨在帮助全球用户低门槛创业。",
      "tags": [
        "产品发布",
        "AI Agent"
      ],
      "source_name": "量子位",
      "source_url": "https://www.qbitai.com/2026/03/391584.html",
      "published_at": "2026-03-23T22:00:00Z",
      "collected_at": "2026-03-24T09:05:00Z",
      "importance": 3,
      "merged_sources": []
    },
    {
      "id": "7204a8f0",
      "lang": "en",
      "title_en": "Claude Code Cheat Sheet",
      "title_zh": "Claude Code 速查手册上线",
      "summary_en": "Hacker News: A community-contributed Claude Code cheat sheet surfaced on Hacker News, consolidating key commands, workflows, and tips for using Anthropic's Claude Code agentic coding tool. The resource quickly gained traction among developers integrating Claude Code into daily workflows.",
      "summary_zh": "Hacker News：一份社区整理的 Claude Code 速查手册在 Hacker News 走红，汇聚了 Anthropic 编程代理工具 Claude Code 的核心命令、工作流与使用技巧，受到广泛开发者关注。",
      "tags": [
        "AI工具",
        "Anthropic",
        "代码生成"
      ],
      "source_name": "Hacker News",
      "source_url": "https://cc.storyfox.cz",
      "published_at": "2026-03-23T21:44:20Z",
      "collected_at": "2026-03-24T00:00:00Z",
      "importance": 2,
      "merged_sources": []
    },
    {
      "id": "8dbaa11d",
      "lang": "en",
      "title_en": "Flipper Zero gets an AI upgrade",
      "title_zh": "Flipper Zero 获得 AI 能力升级",
      "summary_en": "Hacker News: Flipper Zero, the popular open-source multi-tool hacking device, has received an AI-powered upgrade that adds natural language command processing and automated protocol analysis. The integration allows users to describe attack scenarios in plain language, lowering the barrier for security research and testing.",
      "summary_zh": "Hacker News：广受欢迎的开源多功能安全工具 Flipper Zero 获得 AI 升级，新增自然语言命令处理与自动协议分析功能。用户可用日常语言描述测试场景，进一步降低安全研究的门槛。",
      "tags": [
        "AI工具",
        "安全",
        "AI应用"
      ],
      "source_name": "Hacker News",
      "source_url": "https://gizmodo.com/flipper-zero-everyones-favorite-legally-dubious-hacker-tool-gets-an-ai-upgrade-2000736967",
      "published_at": "2026-03-23T20:56:48Z",
      "collected_at": "2026-03-24T00:00:00Z",
      "importance": 2,
      "merged_sources": []
    },
    {
      "id": "55acb1bc",
      "lang": "en",
      "title_en": "How I'm Productive with Claude Code",
      "title_zh": "开发者实战：如何用 Claude Code 提升生产力",
      "summary_en": "Hacker News: A developer shared a detailed workflow post on how they effectively use Claude Code for daily engineering tasks, including prompt strategies, task scoping, and debugging patterns. The post gained significant engagement as practical, experience-driven guidance on agentic coding tools.",
      "summary_zh": "Hacker News：一位开发者分享了在日常工程任务中高效使用 Claude Code 的实战工作流，涵盖提示策略、任务拆解和调试模式，因其实践导向而获得大量关注。",
      "tags": [
        "AI工具",
        "代码生成",
        "Anthropic"
      ],
      "source_name": "Hacker News",
      "source_url": "https://neilkakkar.com/productive-with-claude-code.html",
      "published_at": "2026-03-23T20:49:10Z",
      "collected_at": "2026-03-24T00:00:00Z",
      "importance": 2,
      "merged_sources": []
    },
    {
      "id": "832385b8",
      "lang": "en",
      "title_en": "OpenAI is building a fully automated researcher",
      "title_zh": "OpenAI 正在打造全自动化科研代理",
      "summary_en": "Hacker News: MIT Technology Review reported that OpenAI is investing heavily in building a fully automated AI researcher capable of independently conducting experiments, reviewing literature, and generating novel hypotheses. The project represents a key step in OpenAI's roadmap toward AI systems that can contribute to scientific discovery autonomously.",
      "summary_zh": "Hacker News：MIT Technology Review 报道，OpenAI 正大力投入研发全自动化 AI 科研代理，该系统可独立开展实验、检索文献并提出新假设。这是 OpenAI 通向自主科学发现路线图上的关键一步。",
      "tags": [
        "OpenAI",
        "AI研究",
        "代理"
      ],
      "source_name": "Hacker News",
      "source_url": "https://www.technologyreview.com/2026/03/20/1134438/openai-is-throwing-everything-into-building-a-fully-automated-researcher/",
      "published_at": "2026-03-23T20:43:30Z",
      "collected_at": "2026-03-24T00:00:00Z",
      "importance": 4,
      "merged_sources": []
    },
    {
      "id": "de93a185",
      "lang": "en",
      "title_en": "LLMs learn what programmers create, not how programmers work",
      "title_zh": "LLM 学的是程序员的产出，而非工作方式",
      "summary_en": "Hacker News: A widely discussed Hacker News thread examined the fundamental limitation that LLMs are trained on code artifacts—commits, files, documentation—rather than the iterative, exploratory process of how programmers actually think and work. This gap may explain persistent failure modes in AI-assisted development.",
      "summary_zh": "Hacker News：一篇热门讨论指出，LLM 是从代码产物（提交记录、文件、文档）中学习的，而非程序员实际的探索性思维过程，这一根本差距或许解释了 AI 辅助编程中持续出现的失效模式。",
      "tags": [
        "LLM",
        "代码生成",
        "AI研究"
      ],
      "source_name": "Hacker News",
      "source_url": "https://news.ycombinator.com/item?id=47494696",
      "published_at": "2026-03-23T20:31:48Z",
      "collected_at": "2026-03-24T00:00:00Z",
      "importance": 3,
      "merged_sources": []
    },
    {
      "id": "b97ff49b",
      "lang": "en",
      "title_en": "Bernie Sanders AI gotcha video flops but the memes are great",
      "title_zh": "伯尼·桑德斯 AI 整蛊视频翻车，反成表情包素材",
      "summary_en": "TechCrunch: A political AI-generated video attempting to embarrass Bernie Sanders backfired, generating mockery rather than the intended controversy. The incident highlights ongoing public skepticism toward AI-generated political content and the difficulty of deploying deepfakes effectively in political contexts.",
      "summary_zh": "TechCrunch：一段试图用 AI 生成视频整蛊桑德斯的尝试以失败告终，视频本身反而变成被广泛传播的表情包。此事件折射出公众对 AI 政治内容的高度警惕，以及深度伪造在政治场景中难以奏效的现实。",
      "tags": [
        "AI伦理",
        "深度伪造"
      ],
      "source_name": "TechCrunch",
      "source_url": "https://techcrunch.com/2026/03/23/bernie-sanders-ai-gotcha-video-flops-but-the-memes-are-great/",
      "published_at": "2026-03-23T20:15:59Z",
      "collected_at": "2026-03-24T00:00:00Z",
      "importance": 2,
      "merged_sources": []
    },
    {
      "id": "db49c0f4",
      "lang": "en",
      "title_en": "Elizabeth Warren calls Pentagon's decision to bar Anthropic from defense contracts 'retaliation'",
      "title_zh": "沃伦批评五角大楼将Anthropic逐出国防合同为政治报复",
      "summary_en": "TechCrunch: Senator Elizabeth Warren publicly criticized the Pentagon's decision to exclude Anthropic from defense supply chain contracts, calling it political retaliation. The move raised concerns about the government using procurement power to punish AI companies critical of administration policies.",
      "summary_zh": "TechCrunch：参议员伊丽莎白·沃伦公开批评五角大楼将Anthropic排除在国防供应链合同之外的决定，称其为政治报复行为。此举引发外界对政府利用采购权力打压批评行政当局政策的AI公司的担忧。",
      "tags": [
        "政策法规",
        "产业动态"
      ],
      "source_name": "TechCrunch",
      "source_url": "https://techcrunch.com/2026/03/23/elizabeth-warren-anthropic-pentagon-defense-supply-chain-risk-retaliation/",
      "published_at": "2026-03-23T20:08:45Z",
      "collected_at": "2026-03-24T03:00:00Z",
      "importance": 4,
      "merged_sources": []
    },
    {
      "id": "b9f640a2",
      "lang": "en",
      "title_en": "Nvidia CEO Jensen Huang says 'I think we've achieved AGI'",
      "title_zh": "黄仁勋：我认为我们已经实现了 AGI",
      "summary_en": "The Verge: Nvidia CEO Jensen Huang told Lex Fridman in a podcast that he believes AGI has been achieved, then slightly walked back the claim under scrutiny. Huang's comment sparked debate over how AGI should be defined, with many arguing current systems still fall short of general reasoning capabilities.",
      "summary_zh": "The Verge：英伟达 CEO 黄仁勋在与 Lex Fridman 的播客对话中表示，他认为 AGI 已经实现，随后在追问下有所保留。此言论引发广泛讨论，业界对 AGI 的定义和当前模型能力存在明显分歧。",
      "tags": [
        "AGI",
        "英伟达",
        "业界观点"
      ],
      "source_name": "The Verge",
      "source_url": "https://www.theverge.com/ai-artificial-intelligence/899086/jensen-huang-nvidia-agi",
      "published_at": "2026-03-23T19:42:33Z",
      "collected_at": "2026-03-24T00:00:00Z",
      "importance": 4,
      "merged_sources": []
    },
    {
      "id": "72d373b8",
      "lang": "en",
      "title_en": "Sam Altman-backed fusion startup Helion in talks to sell power to OpenAI",
      "title_zh": "Sam Altman支持的核聚变初创Helion洽谈向OpenAI供电",
      "summary_en": "TechCrunch: Helion Energy, a fusion power startup backed by Sam Altman, is reportedly in talks to supply electricity to OpenAI's data centers. The deal highlights OpenAI's aggressive push to secure long-term energy sources to power its growing AI infrastructure demands.",
      "summary_zh": "TechCrunch：据报道，由Sam Altman投资的核聚变能源初创公司Helion Energy正与OpenAI洽谈向其数据中心供电的协议，彰显了OpenAI为满足AI基础设施日益增长的能源需求而积极寻求长期电力来源的战略布局。",
      "tags": [
        "产业动态",
        "基础设施"
      ],
      "source_name": "TechCrunch",
      "source_url": "https://techcrunch.com/2026/03/23/sam-altman-openai-fusion-energy-board-helion/",
      "published_at": "2026-03-23T19:30:00Z",
      "collected_at": "2026-03-24T03:00:00Z",
      "importance": 4,
      "merged_sources": []
    },
    {
      "id": "33635af9",
      "lang": "en",
      "title_en": "Autoresearch on an old research idea",
      "title_zh": "用AI自动化研究旧课题：从文献检索到实验验证的全流程探索",
      "summary_en": "Hacker News: A researcher shared their experience using AI-powered autoresearch tools to revisit and extend an old research idea. The post details how LLM-based pipelines handled literature search, hypothesis generation, and preliminary experimental validation with minimal human input.",
      "summary_zh": "Hacker News：一名研究者分享了使用AI自动化研究工具从零重拾旧课题的经历，详述了基于LLM的流水线如何在极少人工干预下完成文献检索、假设生成和初步实验验证等全流程工作。",
      "tags": [
        "AI应用",
        "研究工具"
      ],
      "source_name": "Hacker News",
      "source_url": "https://ykumar.me/blog/eclip-autoresearch/",
      "published_at": "2026-03-23T18:40:00Z",
      "collected_at": "2026-03-24T03:00:00Z",
      "importance": 3,
      "merged_sources": []
    },
    {
      "id": "9e624714",
      "lang": "en",
      "title_en": "Vibe-coding startup Lovable is on the hunt for acquisitions",
      "title_zh": "Vibe 编程新星 Lovable 积极寻求收购目标",
      "summary_en": "TechCrunch: Lovable, a fast-growing vibe-coding platform that lets users build apps through natural language, is actively seeking acquisitions of startups and teams to accelerate growth. The company's founder noted strong product-market fit and the desire to bring in complementary tooling or talent.",
      "summary_zh": "TechCrunch：高速增长的 Vibe 编程平台 Lovable 正积极寻求收购创业公司和团队。其创始人表示，Lovable 已验证产品市场契合度，希望通过并购引入互补工具或人才以加速发展。",
      "tags": [
        "AI工具",
        "投资融资",
        "代码生成"
      ],
      "source_name": "TechCrunch",
      "source_url": "https://techcrunch.com/2026/03/23/vibe-coding-startup-lovable-is-on-the-hunt-for-acquisitions/",
      "published_at": "2026-03-23T18:22:04Z",
      "collected_at": "2026-03-24T00:00:00Z",
      "importance": 3,
      "merged_sources": []
    },
    {
      "id": "af0ea955",
      "lang": "en",
      "title_en": "Designing AI for Disruptive Science",
      "title_zh": "如何为颠覆性科学研究设计 AI 系统",
      "summary_en": "Hacker News: A long-form essay on Asimov Press explores design principles for AI systems intended to accelerate disruptive scientific research, arguing that current AI tools optimize for incremental progress rather than paradigm-shifting discoveries. The piece proposes architectural and incentive changes to better align AI with high-risk, high-reward science.",
      "summary_zh": "Hacker News：Asimov Press 发表长文，探讨为颠覆性科学研究设计 AI 系统的原则，指出当前 AI 工具偏向渐进式进展而非范式转变型发现，并提出架构与激励机制改革建议。",
      "tags": [
        "AI研究",
        "科学",
        "AI伦理"
      ],
      "source_name": "Hacker News",
      "source_url": "https://www.asimov.press/p/ai-science",
      "published_at": "2026-03-23T18:19:05Z",
      "collected_at": "2026-03-24T00:00:00Z",
      "importance": 3,
      "merged_sources": []
    },
    {
      "id": "ab92028f",
      "lang": "en",
      "title_en": "Apple WWDC set for June 8-12 with AI advancements and Siri improvements",
      "title_zh": "苹果 WWDC 定档 6 月 8-12 日，AI 与 Siri 升级成重头戏",
      "summary_en": "TechCrunch: Apple confirmed WWDC 2026 will be held June 8–12, with expectations focused heavily on AI advancements and a substantially upgraded Siri. The conference is seen as Apple's opportunity to close the gap with competitors in on-device AI and conversational assistant capabilities.",
      "summary_zh": "TechCrunch：苹果确认 WWDC 2026 将于 6 月 8 日至 12 日举行，外界期待苹果在此次大会上展示大幅升级的 Siri 及全面的设备端 AI 能力，以缩小与竞争对手的差距。",
      "tags": [
        "苹果",
        "Siri",
        "模型发布"
      ],
      "source_name": "TechCrunch",
      "source_url": "https://techcrunch.com/2026/03/23/apple-wwdc-june-8-12-ai-advancements-siri-developers-conference/",
      "published_at": "2026-03-23T18:00:45Z",
      "collected_at": "2026-03-24T00:00:00Z",
      "importance": 3,
      "merged_sources": []
    },
    {
      "id": "63d71f26",
      "lang": "en",
      "title_en": "Outworked – An Open Source Office UI for Claude Code Agents",
      "title_zh": "Outworked：Claude Code 代理的开源办公 UI",
      "summary_en": "Hacker News: Outworked is an open-source project that provides a structured office-style UI for managing and monitoring Claude Code agents, supporting task assignment, status tracking, and output review. It targets teams deploying multiple agentic coding sessions simultaneously.",
      "summary_zh": "Hacker News：Outworked 是一个开源项目，为 Claude Code 代理提供类办公界面的管理与监控 UI，支持任务分配、状态追踪与输出审查，适用于同时运行多个编程代理的团队。",
      "tags": [
        "AI工具",
        "代理",
        "开源"
      ],
      "source_name": "Hacker News",
      "source_url": "https://github.com/outworked/outworked",
      "published_at": "2026-03-23T17:44:22Z",
      "collected_at": "2026-03-24T00:00:00Z",
      "importance": 2,
      "merged_sources": []
    },
    {
      "id": "b4e74e04",
      "lang": "en",
      "title_en": "Confronting the CEO of the AI company that impersonated me",
      "title_zh": "与仿冒我的AI公司CEO正面交锋",
      "summary_en": "The Verge: The Verge podcast confronts Superhuman/Grammarly CEO Shishir Mehrotra over AI tools that impersonated the host's voice and writing style without consent. The episode raises sharp questions about AI identity fraud, consent, and the accountability of AI companies using user data to build personal digital replicas.",
      "summary_zh": "The Verge：The Verge播客主持人与Superhuman/Grammarly CEO Shishir Mehrotra正面对话，追问其AI工具在未经授权的情况下模仿主持人声音和写作风格一事。本期节目深入探讨了AI身份欺诈、用户同意权及AI公司利用用户数据构建数字分身的责任问题。",
      "tags": [
        "AI伦理",
        "行业动态"
      ],
      "source_name": "The Verge",
      "source_url": "https://www.theverge.com/podcast/898715/superhuman-grammarly-expert-review-shishir-mehrotra-interview-ai-impersonation",
      "published_at": "2026-03-23T17:30:00Z",
      "collected_at": "2026-03-24T09:05:00Z",
      "importance": 3,
      "merged_sources": []
    },
    {
      "id": "13cd4b0b",
      "lang": "en",
      "title_en": "Fast regex search: indexing text for agent tools",
      "title_zh": "Cursor：为 AI 代理工具构建正则搜索索引",
      "summary_en": "Cursor: Cursor published a technical deep-dive into building regex search indexes for agent tools, enabling fast pattern matching across large codebases. The system allows AI agents to locate text without relying on semantic embeddings, improving accuracy for structured queries in monorepos.",
      "summary_zh": "Cursor：Cursor 发布技术文章，介绍为 AI 代理工具构建正则表达式搜索索引的方案，实现对大型代码库的快速模式匹配。该系统无需依赖语义向量，直接支持结构化查询，尤其适用于大型 Monorepo 场景。",
      "tags": [
        "AI工具",
        "Cursor",
        "代理"
      ],
      "source_name": "Cursor",
      "source_url": "https://cursor.com/blog/fast-regex-search",
      "published_at": "2026-03-23T16:50:37Z",
      "collected_at": "2026-03-24T00:00:00Z",
      "importance": 4,
      "merged_sources": []
    }
  ]
}