{
  "latest_date": "2026-04-13",
  "updated_at": "2026-04-13T03:10:00Z",
  "dates": [
    "2026-04-13",
    "2026-04-12",
    "2026-04-11",
    "2026-04-10",
    "2026-04-08",
    "2026-04-07",
    "2026-04-06",
    "2026-04-05",
    "2026-04-04",
    "2026-04-03",
    "2026-04-02",
    "2026-04-01",
    "2026-03-31",
    "2026-03-30",
    "2026-03-29",
    "2026-03-28",
    "2026-03-26",
    "2026-03-25",
    "2026-03-24",
    "2026-03-23",
    "2026-03-22",
    "2026-03-21",
    "2026-03-20",
    "2026-03-19",
    "2026-03-18",
    "2026-03-17",
    "2026-03-16",
    "2026-03-15",
    "2026-03-14",
    "2026-03-13",
    "2026-03-12",
    "2026-03-11",
    "2026-03-10",
    "2026-03-09",
    "2026-03-08",
    "2026-03-07",
    "2026-03-06",
    "2026-03-05"
  ],
  "total_items": 537,
  "page": 25,
  "page_size": 20,
  "total_pages": 27,
  "items": [
    {
      "id": "14577107",
      "lang": "zh",
      "title_zh": "英伟达最强B200算力浪费60%！普林斯顿团队出手，利用率升至71%",
      "summary_zh": "普林斯顿：研究显示英伟达最强 B200 GPU 算力利用率仅约40%，团队提出新方案将利用率提升至71%，黄仁勋已关注该研究。",
      "tags": [
        "产品发布"
      ],
      "source_name": "量子位",
      "source_url": "https://www.qbitai.com/2026/03/388815.html",
      "published_at": "2026-03-18T00:00:00Z",
      "collected_at": "2026-03-23T03:20:00Z",
      "importance": 4,
      "merged_sources": []
    },
    {
      "id": "4ecc1118",
      "lang": "zh",
      "title_zh": "全行业都在忙着“吃虾”，MiniMax M2.7已经让虾自己拿起筷子了",
      "summary_zh": "MiniMax：发布 M2.7 模型，实现大模型自我进化训练，标志 AI 进入自主迭代新阶段。",
      "tags": [
        "Agent"
      ],
      "source_name": "量子位",
      "source_url": "https://www.qbitai.com/2026/03/389024.html",
      "published_at": "2026-03-18T00:00:00Z",
      "collected_at": "2026-03-23T03:20:00Z",
      "importance": 2,
      "merged_sources": []
    },
    {
      "id": "58422b38",
      "lang": "zh",
      "title_zh": "阿里“悟空”上线！钉钉给企业送来龙虾大军",
      "summary_zh": "阿里/钉钉：「悟空」Agent 平台上线，为企业提供内置行业解决方案的 MCP（龙虾）全家桶服务。",
      "tags": [
        "Agent"
      ],
      "source_name": "量子位",
      "source_url": "https://www.qbitai.com/2026/03/388845.html",
      "published_at": "2026-03-18T00:00:00Z",
      "collected_at": "2026-03-23T03:20:00Z",
      "importance": 2,
      "merged_sources": []
    },
    {
      "id": "fcc95dc8",
      "lang": "en",
      "title_en": "Now everyone in the US is getting Google's personalized Gemini AI",
      "title_zh": "谷歌个性化 Gemini AI 全面向美国用户开放",
      "summary_en": "Google: The company expanded its Personal Intelligence feature—which uses Gemini AI to personalize search and app experiences based on user data—to all US users.",
      "summary_zh": "谷歌：个性化智能功能正式向全体美国用户开放，该功能基于 Gemini AI，通过分析用户数据个性化搜索和应用体验。",
      "tags": [
        "产品发布"
      ],
      "source_name": "The Verge",
      "source_url": "https://www.theverge.com/ai-artificial-intelligence/896107/google-expands-personal-intelligence",
      "published_at": "2026-03-17T14:00:00Z",
      "collected_at": "2026-03-23T09:10:00Z",
      "importance": 3,
      "merged_sources": []
    },
    {
      "id": "0f672894",
      "lang": "en",
      "title_en": "Why Garry Tan's Claude Code setup has gotten so much love and hate",
      "title_zh": "为何 Garry Tan 的 Claude Code 配置引发如此两极分化的反应",
      "summary_en": "Garry Tan's public Claude Code development setup sparked intense debate in the developer community, with supporters praising its AI-assisted workflow and critics questioning over-reliance on AI for software engineering.",
      "summary_zh": "Garry Tan 公开的 Claude Code 开发配置在开发者社区引发激烈讨论，支持者称赞其 AI 辅助工作流，批评者则质疑软件工程中过度依赖 AI。",
      "tags": [
        "编程"
      ],
      "source_name": "TechCrunch",
      "source_url": "https://techcrunch.com/2026/03/17/why-garry-tans-claude-code-setup-has-gotten-so-much-love-and-hate/",
      "published_at": "2026-03-17T14:00:00Z",
      "collected_at": "2026-03-23T09:10:00Z",
      "importance": 3,
      "merged_sources": []
    },
    {
      "id": "09503aad",
      "lang": "en",
      "title_en": "Training Composer for longer horizons",
      "title_zh": "训练 Composer 应对更长任务：自摘要训练方法",
      "summary_en": "Cursor: Integrating self-summarization into Composer's training to extract signal from trajectories far longer than the model's context window.",
      "summary_zh": "Cursor：将自摘要机制融入 Composer 训练流程，从超出上下文窗口的超长任务轨迹中提取训练信号。",
      "tags": [
        "研究论文"
      ],
      "source_name": "Cursor",
      "source_url": "https://cursor.com/blog/self-summarization",
      "published_at": "2026-03-17T12:00:00Z",
      "collected_at": "2026-03-23T03:20:00Z",
      "importance": 3,
      "merged_sources": []
    },
    {
      "id": "11740e48",
      "lang": "en",
      "title_en": "OpenAI cuts back on side quests",
      "title_zh": "OpenAI 削减非核心业务线",
      "summary_en": "OpenAI: The company announced a strategic refocus, cutting back on several peripheral projects and initiatives to concentrate resources on its core AI model development and ChatGPT products.",
      "summary_zh": "OpenAI：公司宣布战略收缩，削减多个边缘项目，将资源集中于核心 AI 模型研发和 ChatGPT 产品线。",
      "tags": [
        "产品发布"
      ],
      "source_name": "The Verge",
      "source_url": "https://www.theverge.com/ai-artificial-intelligence/895835/openai-cuts-back-on-side-quests",
      "published_at": "2026-03-17T12:00:00Z",
      "collected_at": "2026-03-23T09:10:00Z",
      "importance": 3,
      "merged_sources": []
    },
    {
      "id": "e3ccec42",
      "lang": "en",
      "title_en": "OpenAI's Sora video generator is reportedly coming to ChatGPT",
      "title_zh": "OpenAI Sora 视频生成器据报将集成进 ChatGPT",
      "summary_en": "OpenAI: Reports indicate the company plans to integrate its Sora video generation model directly into ChatGPT, making AI video creation accessible to a broader user base.",
      "summary_zh": "OpenAI：据报道公司计划将 Sora 视频生成模型直接集成进 ChatGPT，让更广泛的用户能够使用 AI 视频创作功能。",
      "tags": [
        "产品发布",
        "多模态"
      ],
      "source_name": "The Verge",
      "source_url": "https://www.theverge.com/ai-artificial-intelligence/893189/openai-chatgpt-sora-integration",
      "published_at": "2026-03-17T08:00:00Z",
      "collected_at": "2026-03-23T09:10:00Z",
      "importance": 3,
      "merged_sources": []
    },
    {
      "id": "2f03da92",
      "lang": "zh",
      "title_zh": "黄仁勋：龙虾就是新操作系统！英伟达7种芯片拼出算力怪兽，放话2027营收万亿美元",
      "summary_zh": "黄仁勋：在 GTC 上称 AI Agent 是新操作系统，展示英伟达7种芯片组成的算力矩阵，并放话2027年营收突破万亿美元。",
      "tags": [
        "融资",
        "Agent"
      ],
      "source_name": "量子位",
      "source_url": "https://www.qbitai.com/2026/03/388720.html",
      "published_at": "2026-03-17T00:00:00Z",
      "collected_at": "2026-03-23T03:20:00Z",
      "importance": 4,
      "merged_sources": []
    },
    {
      "id": "de32cd69",
      "lang": "zh",
      "title_zh": "GPT-5.4一周狂赚10亿美元ARR！一句嗨烧掉80刀，效率却飙升32倍",
      "summary_zh": "OpenAI：GPT-5.4 上线首周 ARR 突破10亿美元，单次调用成本最高80美元，但任务效率提升32倍。",
      "tags": [
        "融资",
        "产品发布"
      ],
      "source_name": "量子位",
      "source_url": "https://www.qbitai.com/2026/03/388443.html",
      "published_at": "2026-03-17T00:00:00Z",
      "collected_at": "2026-03-23T03:20:00Z",
      "importance": 4,
      "merged_sources": []
    },
    {
      "id": "6fcd379d",
      "lang": "zh",
      "title_zh": "Kimi新架构让马斯克叹服！17岁高中生作者一战成名",
      "summary_zh": "Moonshot AI：Kimi 新架构论文引发马斯克称赞，第一作者为17岁高中生，将注意力机制“旋转90度”实现突破。",
      "tags": [
        "产品发布"
      ],
      "source_name": "量子位",
      "source_url": "https://www.qbitai.com/2026/03/388493.html",
      "published_at": "2026-03-17T00:00:00Z",
      "collected_at": "2026-03-23T03:20:00Z",
      "importance": 3,
      "merged_sources": []
    },
    {
      "id": "355162f1",
      "lang": "zh",
      "title_zh": "百度龙虾全家桶火速上桌！出手就是全球最大搜索skill",
      "summary_zh": "百度：全套 MCP（龙虾）服务集中上线，接入全球最大搜索数据 Skill，提供行业级开箱即用解决方案。",
      "tags": [
        "Agent"
      ],
      "source_name": "量子位",
      "source_url": "https://www.qbitai.com/2026/03/388672.html",
      "published_at": "2026-03-17T00:00:00Z",
      "collected_at": "2026-03-23T03:20:00Z",
      "importance": 2,
      "merged_sources": []
    },
    {
      "id": "b9ad6e98",
      "lang": "en",
      "title_en": "Securing our codebase with autonomous agents",
      "title_zh": "Cursor 用自治安全 Agent 守护代码库",
      "summary_en": "Cursor: Security team deployed a fleet of autonomous agents to automatically find and fix vulnerabilities across a rapidly evolving codebase.",
      "summary_zh": "Cursor：安全团队构建自治 Agent 集群，在快速迭代的代码库中自动发现并修复安全漏洞。",
      "tags": [
        "产品发布"
      ],
      "source_name": "Cursor",
      "source_url": "https://cursor.com/blog/security-agents",
      "published_at": "2026-03-16T12:00:00Z",
      "collected_at": "2026-03-23T03:20:00Z",
      "importance": 3,
      "merged_sources": []
    },
    {
      "id": "f7e19806",
      "lang": "zh",
      "title_zh": "315曝光的“AI投毒”原理：GEO这样操控大模型推荐",
      "summary_zh": "量子位：揭秘315曝光的“AI 投毒”原理——GEO（生成引擎优化）可操控大模型推荐结果，甚至虚构产品也会被推荐。",
      "tags": [
        "产品发布"
      ],
      "source_name": "量子位",
      "source_url": "https://www.qbitai.com/2026/03/388387.html",
      "published_at": "2026-03-16T00:00:00Z",
      "collected_at": "2026-03-23T03:20:00Z",
      "importance": 2,
      "merged_sources": []
    },
    {
      "id": "557f9455",
      "lang": "zh",
      "title_zh": "养虾时代终结？免部署、7×24小时在线、自进化的“赛博骡子”来了！",
      "summary_zh": "量子位：新型“赛博骡子” AI Agent 平台上线，无需部署、7×24小时在线、支持自进化，或将改变 MCP 生态格局。",
      "tags": [
        "Agent"
      ],
      "source_name": "量子位",
      "source_url": "https://www.qbitai.com/2026/03/388071.html",
      "published_at": "2026-03-16T00:00:00Z",
      "collected_at": "2026-03-23T03:20:00Z",
      "importance": 2,
      "merged_sources": []
    },
    {
      "id": "09bbfc3d",
      "lang": "zh",
      "title_zh": "一手实测首个龙虾模型：长路径任务不失误，一人包揽全栈开发",
      "summary_zh": "量子位：实测首个 MCP 专属模型，长路径任务零失误，一人可完成全栈开发，并推出配套专属套餐。",
      "tags": [
        "产品发布",
        "Agent"
      ],
      "source_name": "量子位",
      "source_url": "https://www.qbitai.com/2026/03/388352.html",
      "published_at": "2026-03-16T00:00:00Z",
      "collected_at": "2026-03-23T03:20:00Z",
      "importance": 2,
      "merged_sources": []
    },
    {
      "id": "c444df44",
      "lang": "zh",
      "title_zh": "天下苦「调参」久矣！MIT师生推出全新RandOpt算法",
      "summary_zh": "MIT：研究团队推出 RandOpt 全新超参数优化算法，揭示预训练模型周围早已“藏匿”大量专家知识。",
      "tags": [
        "研究论文"
      ],
      "source_name": "量子位",
      "source_url": "https://www.qbitai.com/2026/03/388054.html",
      "published_at": "2026-03-16T00:00:00Z",
      "collected_at": "2026-03-23T03:20:00Z",
      "importance": 2,
      "merged_sources": []
    },
    {
      "id": "71a1c43d",
      "lang": "en",
      "title_en": "The billionaires made a promise, now some want out",
      "title_zh": "亿万富翁们曾许下承诺，如今有人想反悔",
      "summary_en": "A growing number of tech billionaires who signed AI safety pledges are reportedly seeking to walk back their commitments as competitive pressures intensify in the AI race.",
      "summary_zh": "越来越多签署 AI 安全承诺的科技亿万富翁，据报道在 AI 竞争压力加剧之下正试图收回此前的承诺。",
      "tags": [
        "政策监管",
        "安全对齐"
      ],
      "source_name": "TechCrunch",
      "source_url": "https://techcrunch.com/2026/03/15/the-billionaires-made-a-promise-now-some-want-out/",
      "published_at": "2026-03-15T12:00:00Z",
      "collected_at": "2026-03-23T09:10:00Z",
      "importance": 3,
      "merged_sources": []
    },
    {
      "id": "522036a8",
      "lang": "zh",
      "title_zh": "科技CEO用ChatGPT+基因数据定制癌症疫苗！肿瘤缩小50%",
      "summary_zh": "量子位：科技 CEO 使用 ChatGPT 结合基因数据定制个性化癌症疫苗，肿瘤缩小50%；另有用户报告 AI 成功帮助宠物犬康复。",
      "tags": [
        "产品发布"
      ],
      "source_name": "量子位",
      "source_url": "https://www.qbitai.com/2026/03/387935.html",
      "published_at": "2026-03-15T00:00:00Z",
      "collected_at": "2026-03-23T03:20:00Z",
      "importance": 3,
      "merged_sources": []
    },
    {
      "id": "c1d6a247",
      "lang": "en",
      "title_en": "OpenAI is delaying ChatGPT's adult mode",
      "title_zh": "OpenAI 推迟推出 ChatGPT 成人模式",
      "summary_en": "OpenAI: The company announced it is delaying the rollout of ChatGPT's adult content mode, citing the need for additional safety review and policy refinement before wider deployment.",
      "summary_zh": "OpenAI：公司宣布推迟推出 ChatGPT 成人内容模式，原因是在更广泛部署前需要进一步的安全审查和政策完善。",
      "tags": [
        "产品发布",
        "安全对齐"
      ],
      "source_name": "The Verge",
      "source_url": "https://www.theverge.com/ai-artificial-intelligence/891046/openai-is-delaying-chatgpts-adult-mode",
      "published_at": "2026-03-14T12:00:00Z",
      "collected_at": "2026-03-23T09:10:00Z",
      "importance": 2,
      "merged_sources": []
    }
  ]
}