{
  "latest_date": "2026-04-06",
  "updated_at": "2026-04-06T15:08:00Z",
  "dates": [
    "2026-04-06",
    "2026-04-05",
    "2026-04-04",
    "2026-04-03",
    "2026-04-02",
    "2026-04-01",
    "2026-03-31",
    "2026-03-30",
    "2026-03-29",
    "2026-03-28",
    "2026-03-26",
    "2026-03-25",
    "2026-03-24",
    "2026-03-23",
    "2026-03-22",
    "2026-03-21",
    "2026-03-20",
    "2026-03-19",
    "2026-03-18",
    "2026-03-17",
    "2026-03-16",
    "2026-03-15",
    "2026-03-14",
    "2026-03-13",
    "2026-03-12",
    "2026-03-11",
    "2026-03-10",
    "2026-03-09",
    "2026-03-08",
    "2026-03-07",
    "2026-03-06",
    "2026-03-05"
  ],
  "total_items": 460,
  "page": 23,
  "page_size": 20,
  "total_pages": 23,
  "items": [
    {
      "id": "a583cd07",
      "lang": "zh",
      "title_zh": "499上门装龙虾的人，开始赚299卸载龙虾的钱了",
      "summary_zh": "量子位：「卸虾」业务异军突起，专门帮用户卸载 MCP 服务的市场需求快速爆发。",
      "tags": [
        "Agent"
      ],
      "source_name": "量子位",
      "source_url": "https://www.qbitai.com/2026/03/386235.html",
      "published_at": "2026-03-11T00:00:00Z",
      "collected_at": "2026-03-23T03:20:00Z",
      "importance": 2,
      "merged_sources": []
    },
    {
      "id": "2c7edba2",
      "lang": "en",
      "title_en": "Anthropic to open Sydney office, its fourth in Asia-Pacific",
      "title_zh": "Anthropic 悉尼办公室：亚太区第四站",
      "summary_en": "Anthropic: Opening a Sydney office as its fourth location in Asia-Pacific, expanding global presence in the region.",
      "summary_zh": "Anthropic：在悉尼设立亚太区第四个办公室，持续扩大在该地区的全球布局。",
      "tags": [
        "产品发布"
      ],
      "source_name": "Anthropic",
      "source_url": "https://www.anthropic.com/news/sydney-fourth-office-asia-pacific",
      "published_at": "2026-03-10T12:00:00Z",
      "collected_at": "2026-03-23T03:20:00Z",
      "importance": 4,
      "merged_sources": []
    },
    {
      "id": "6859d61e",
      "lang": "zh",
      "title_zh": "OpenAI为龙虾紧急收购了一家23人公司",
      "summary_zh": "量子位：OpenAI 为 MCP（龙虾协议）紧急收购一家 23 人团队的公司，该公司成立两年估值已达8600万美元。",
      "tags": [
        "Agent"
      ],
      "source_name": "量子位",
      "source_url": "https://www.qbitai.com/2026/03/385637.html",
      "published_at": "2026-03-10T00:00:00Z",
      "collected_at": "2026-03-23T03:20:00Z",
      "importance": 3,
      "merged_sources": []
    },
    {
      "id": "5cd90b1f",
      "lang": "zh",
      "title_zh": "腾讯「鹅虾」紧急上线！一手实测：养虾门槛归零，QQ飞书钉钉全能接",
      "summary_zh": "腾讯：「鹅虾」MCP 服务紧急上线，支持 QQ、飞书、钉钉等主流平台，大幅降低 MCP 接入门槛。",
      "tags": [
        "Agent"
      ],
      "source_name": "量子位",
      "source_url": "https://www.qbitai.com/2026/03/385664.html",
      "published_at": "2026-03-10T00:00:00Z",
      "collected_at": "2026-03-23T03:20:00Z",
      "importance": 2,
      "merged_sources": []
    },
    {
      "id": "287e91bd",
      "lang": "zh",
      "title_zh": "Jeff Dean最新访谈：未来开发者人均50个智能体，写需求成核心技能",
      "summary_zh": "Jeff Dean：在最新访谈中预测未来开发者人均管理50个 AI Agent，并透露蒸馏是 Google Flash 系列模型突破的关键。",
      "tags": [
        "产品发布"
      ],
      "source_name": "量子位",
      "source_url": "https://www.qbitai.com/2026/03/385569.html",
      "published_at": "2026-03-10T00:00:00Z",
      "collected_at": "2026-03-23T03:20:00Z",
      "importance": 2,
      "merged_sources": []
    },
    {
      "id": "ead32d43",
      "lang": "zh",
      "title_zh": "只要1分钟！电脑装满血龙虾，现在跟下载APP似的",
      "summary_zh": "量子位：只需1分钟即可完成 MCP 服务部署，门槛大幅降低，并配套推出专属模型。",
      "tags": [
        "Agent"
      ],
      "source_name": "量子位",
      "source_url": "https://www.qbitai.com/2026/03/385097.html",
      "published_at": "2026-03-10T00:00:00Z",
      "collected_at": "2026-03-23T03:20:00Z",
      "importance": 2,
      "merged_sources": []
    },
    {
      "id": "098c40d8",
      "lang": "zh",
      "title_zh": "88岁图灵奖得主，用Claude一小时破解30年数学悬案",
      "summary_zh": "量子位：88岁图灵奖得主 Leslie Valiant 用 Claude 一小时破解了困扰30年的数学难题，并向 Claude 致谢。",
      "tags": [
        "产品发布"
      ],
      "source_name": "量子位",
      "source_url": "https://www.qbitai.com/2026/03/384890.html",
      "published_at": "2026-03-09T00:00:00Z",
      "collected_at": "2026-03-23T03:20:00Z",
      "importance": 3,
      "merged_sources": []
    },
    {
      "id": "01fd4663",
      "lang": "zh",
      "title_zh": "卡帕西开源Agent自进化训练框架，5分钟一轮实验，48h内揽星9.5k",
      "summary_zh": "量子位：Karpathy 开源 Agent 自进化训练框架，5分钟即可完成一轮实验，48小时内在 GitHub 收获9500星。",
      "tags": [
        "Agent",
        "研究论文",
        "开源"
      ],
      "source_name": "量子位",
      "source_url": "https://www.qbitai.com/2026/03/384953.html",
      "published_at": "2026-03-09T00:00:00Z",
      "collected_at": "2026-03-23T03:20:00Z",
      "importance": 2,
      "merged_sources": []
    },
    {
      "id": "3f0bc09b",
      "lang": "zh",
      "title_zh": "龙虾最佳适配模型，OpenClaw之父给出了推荐",
      "summary_zh": "量子位：MCP（龙虾协议）创始人推荐的最佳适配模型 Top 3 中，国产模型占据两席。",
      "tags": [
        "产品发布",
        "Agent"
      ],
      "source_name": "量子位",
      "source_url": "https://www.qbitai.com/2026/03/384837.html",
      "published_at": "2026-03-09T00:00:00Z",
      "collected_at": "2026-03-23T03:20:00Z",
      "importance": 2,
      "merged_sources": []
    },
    {
      "id": "69590a1c",
      "lang": "zh",
      "title_zh": "龙虾最大痛点被官方插件升级！对话永不忘记，GPT和Gemini最强模型都可接入",
      "summary_zh": "量子位：MCP 官方记忆插件重大升级，支持接入 GPT 和 Gemini 最强模型，实现对话永久记忆。",
      "tags": [
        "产品发布",
        "Agent"
      ],
      "source_name": "量子位",
      "source_url": "https://www.qbitai.com/2026/03/384907.html",
      "published_at": "2026-03-09T00:00:00Z",
      "collected_at": "2026-03-23T03:20:00Z",
      "importance": 4,
      "merged_sources": []
    },
    {
      "id": "79445b1c",
      "lang": "zh",
      "title_zh": "20岁大学生花10天VibeCoding一个开源项目，获盛大3000万投资",
      "summary_zh": "量子位：20岁大学生用10天 VibeCoding 完成开源项目，获盛大3000万元投资。",
      "tags": [
        "融资",
        "开源"
      ],
      "source_name": "量子位",
      "source_url": "https://www.qbitai.com/2026/03/384728.html",
      "published_at": "2026-03-08T00:00:00Z",
      "collected_at": "2026-03-23T03:20:00Z",
      "importance": 2,
      "merged_sources": []
    },
    {
      "id": "645db125",
      "lang": "zh",
      "title_zh": "高中生AI创业，现在只招龙虾员工：每月成本2800",
      "summary_zh": "高中生AI创业公司：全员转为AI Agent（龙虾），设立多个部门，每月运营成本仅2800元。",
      "tags": [
        "Agent"
      ],
      "source_name": "量子位",
      "source_url": "https://www.qbitai.com/2026/03/384797.html",
      "published_at": "2026-03-08T00:00:00Z",
      "collected_at": "2026-03-23T03:20:00Z",
      "importance": 2,
      "merged_sources": []
    },
    {
      "id": "fb5d0cab",
      "lang": "en",
      "title_en": "OpenAI is working on ChatGPT smart speakers, cameras, and AI glasses",
      "title_zh": "OpenAI 正在研发 ChatGPT 智能音箱、摄像头和 AI 眼镜",
      "summary_en": "OpenAI: The company is developing a range of AI hardware products including smart speakers, cameras, and AI-enabled glasses, signaling a push into the consumer device market powered by ChatGPT.",
      "summary_zh": "OpenAI：公司正在研发一系列 AI 硬件产品，包括智能音箱、摄像头和 AI 眼镜，标志着其向 ChatGPT 驱动的消费级设备市场进军。",
      "tags": [
        "产品发布",
        "硬件"
      ],
      "source_name": "The Verge",
      "source_url": "https://www.theverge.com/ai-artificial-intelligence/882077/openai-chatgpt-smart-speaker-camera-glasses-lamp",
      "published_at": "2026-03-07T16:00:00Z",
      "collected_at": "2026-03-23T09:10:00Z",
      "importance": 4,
      "merged_sources": []
    },
    {
      "id": "d3ae286e",
      "lang": "en",
      "title_en": "Where things stand with the Department of War",
      "title_zh": "与国防部门相关事项的最新进展",
      "summary_en": "Anthropic published an update on its situation and discussions with the U.S. Department of War, outlining its position and guidance for customers.",
      "summary_zh": "Anthropic 发布公告更新其与美国国防部门相关事项的最新进展，并给出立场说明与对客户的建议。",
      "tags": [
        "政策监管"
      ],
      "source_name": "Anthropic",
      "source_url": "https://www.anthropic.com/news/where-stand-department-war",
      "published_at": "2026-03-06T00:40:00Z",
      "collected_at": "2026-03-06T05:17:22Z",
      "importance": 4,
      "merged_sources": []
    },
    {
      "id": "2d40af76",
      "lang": "en",
      "title_en": "Anthropic CEO Dario Amodei could still be trying to make a deal with Pentagon",
      "title_zh": "Anthropic 仍寻求五角大楼合作",
      "summary_en": "Anthropic: CEO Dario Amodei is reportedly still trying to preserve a Pentagon partnership after internal talks over a federal sales team and military use cases broke down. The report says the company is balancing national-security business opportunities against internal opposition and reputational risk. The outcome of the negotiations remains unresolved.",
      "summary_zh": "Anthropic：在联邦销售团队和军事用途争议导致内部谈判破裂后，CEO Dario Amodei 据报仍在推动与五角大楼达成合作。报道显示，公司一边争取国家安全业务，一边处理内部反对意见与声誉风险，相关谈判仍未落定。",
      "tags": [
        "政策监管"
      ],
      "source_name": "TechCrunch",
      "source_url": "https://techcrunch.com/2026/03/05/anthropic-ceo-dario-amodei-could-still-be-trying-to-make-a-deal-with-pentagon/",
      "published_at": "2026-03-05T16:45:00Z",
      "collected_at": "2026-03-05T18:46:22Z",
      "importance": 3,
      "merged_sources": [
        "https://www.theverge.com/tech/650811/anthropic-makes-last-ditch-effort-to-salvage-deal-with-pentagon-after-blowup"
      ]
    },
    {
      "id": "96a73e6d",
      "lang": "zh",
      "title_zh": "元象开源全球最大MoE多模态推理模型：成本仅为DeepSeek 1/7，Yuan3.0 Ultra",
      "summary_zh": "元象：元象发布并开源 Yuan3.0 Ultra，多模态 MoE 推理模型主打图像理解与复杂推理。报道援引官方信息称，其推理成本约为同类方案的七分之一，模型已面向开发者开放。",
      "tags": [
        "开源",
        "多模态"
      ],
      "source_name": "量子位",
      "source_url": "https://www.qbitai.com/2026/03/384330.html",
      "published_at": "2026-03-05T13:04:02Z",
      "collected_at": "2026-03-05T18:46:22Z",
      "importance": 4,
      "merged_sources": []
    },
    {
      "id": "4c3aedb7",
      "lang": "en",
      "title_en": "Lio bags a $30M Series A from Andreessen Horowitz to automate enterprise procurement",
      "title_zh": "Lio 获 3000 万美元 A 轮",
      "summary_en": "Lio: Enterprise procurement startup Lio raised a $30 million Series A led by Andreessen Horowitz. The company says its AI agents analyze purchasing data and automate sourcing workflows for large organizations, and it plans to use the new capital to expand product development and go-to-market operations.",
      "summary_zh": "Lio：企业采购自动化创业公司 Lio 完成由 Andreessen Horowitz 领投的 3000 万美元 A 轮融资。公司表示，其 AI Agent 可分析采购数据并自动化寻源流程，新资金将用于产品研发和市场扩张。",
      "tags": [
        "融资",
        "Agent"
      ],
      "source_name": "TechCrunch",
      "source_url": "https://techcrunch.com/2026/03/05/lio-ai-series-a-a16z-30m-raise-automate-enterprise-procurement/",
      "published_at": "2026-03-05T13:00:00Z",
      "collected_at": "2026-03-05T18:46:22Z",
      "importance": 4,
      "merged_sources": []
    },
    {
      "id": "5766268e",
      "lang": "zh",
      "title_zh": "华为重金押注的世界模型公司，新融了10个亿！又一位技术女将从大厂“杀”出",
      "summary_zh": "极佳视界：聚焦世界模型与空间智能的极佳视界完成约 10 亿元新融资。报道显示，公司获得产业资本持续押注，资金将用于模型研发、产品化和商业拓展，继续推进具身智能相关布局。",
      "tags": [
        "融资",
        "硬件"
      ],
      "source_name": "量子位",
      "source_url": "https://www.qbitai.com/2026/03/384312.html",
      "published_at": "2026-03-05T12:27:57Z",
      "collected_at": "2026-03-05T18:46:22Z",
      "importance": 4,
      "merged_sources": []
    },
    {
      "id": "eea6230f",
      "lang": "en",
      "title_en": "Introducing GPT-5.4",
      "title_zh": "OpenAI 发布 GPT-5.4",
      "summary_en": "OpenAI: OpenAI introduced GPT-5.4 as its newest flagship model for complex tasks and published a matching GPT-5.4 Thinking System Card. The release emphasizes stronger reasoning behavior and updated safety evaluations, with rollout across ChatGPT and API products. The system card details capability testing, risk areas, and mitigations for the new model.",
      "summary_zh": "OpenAI：OpenAI 发布 GPT-5.4，并同步公开 GPT-5.4 Thinking System Card。新模型面向复杂任务，强调更稳定的推理表现和更新后的安全评估，并通过 ChatGPT 与 API 渠道上线。系统卡披露了能力测试、风险点与缓解措施。",
      "tags": [
        "产品发布",
        "推理"
      ],
      "source_name": "OpenAI",
      "source_url": "https://openai.com/index/introducing-gpt-5-4/",
      "published_at": null,
      "collected_at": "2026-03-05T18:46:22Z",
      "importance": 5,
      "merged_sources": []
    },
    {
      "id": "fa5a665f",
      "lang": "en",
      "title_en": "Build agents that run automatically in the background with Automations",
      "title_zh": "Cursor 推出后台自动化",
      "summary_en": "Cursor: Cursor launched Automations, a feature for running coding agents automatically in the background. The product lets users trigger recurring or event-driven workflows without keeping the editor open, extending Cursor from interactive assistance to unattended agent execution. The feature is positioned as part of Cursor's broader agent workflow stack.",
      "summary_zh": "Cursor：Cursor 推出 Automations，支持在后台自动运行编程 Agent。该功能可按周期或事件触发工作流，无需持续打开编辑器，进一步把 Cursor 从交互式助手扩展为可无人值守执行任务的 Agent 平台。",
      "tags": [
        "产品发布",
        "Agent"
      ],
      "source_name": "Cursor",
      "source_url": "https://cursor.com/blog/automations",
      "published_at": null,
      "collected_at": "2026-03-05T18:46:22Z",
      "importance": 4,
      "merged_sources": []
    }
  ]
}