{
  "latest_date": "2026-04-08",
  "updated_at": "2026-04-08T03:11:00Z",
  "dates": [
    "2026-04-08",
    "2026-04-07",
    "2026-04-06",
    "2026-04-05",
    "2026-04-04",
    "2026-04-03",
    "2026-04-02",
    "2026-04-01",
    "2026-03-31",
    "2026-03-30",
    "2026-03-29",
    "2026-03-28",
    "2026-03-26",
    "2026-03-25",
    "2026-03-24",
    "2026-03-23",
    "2026-03-22",
    "2026-03-21",
    "2026-03-20",
    "2026-03-19",
    "2026-03-18",
    "2026-03-17",
    "2026-03-16",
    "2026-03-15",
    "2026-03-14",
    "2026-03-13",
    "2026-03-12",
    "2026-03-11",
    "2026-03-10",
    "2026-03-09",
    "2026-03-08",
    "2026-03-07",
    "2026-03-06",
    "2026-03-05"
  ],
  "total_items": 490,
  "page": 17,
  "page_size": 20,
  "total_pages": 25,
  "items": [
    {
      "id": "336ca8c8",
      "lang": "zh",
      "title_zh": "OpenAI关停Sora！25个月从封神到退场",
      "title_en": "OpenAI shuts down Sora: 25 months from hype to exit",
      "summary_zh": "量子位：OpenAI正式关停视频生成模型Sora，距其发布仅25个月；同步曝光与迪士尼10亿美元合作谈判破裂，折射出AI视频赛道的激烈竞争与商业化困境。",
      "summary_en": "Qbitai: OpenAI has officially shut down Sora video generation model just 25 months after launch, concurrent with reports that a billion-dollar Disney deal fell through, highlighting fierce competition and commercialization challenges in AI video.",
      "tags": [
        "产品动态",
        "OpenAI",
        "AI视频"
      ],
      "source_name": "量子位",
      "source_url": "https://www.qbitai.com/2026/03/391799.html",
      "published_at": "2026-03-25T08:00:00Z",
      "collected_at": "2026-03-26T00:00:00Z",
      "importance": 5,
      "merged_sources": []
    },
    {
      "id": "03758a62",
      "lang": "en",
      "title_en": "Anthropic's Claude Code gets a safer auto mode",
      "title_zh": "Anthropic Claude Code新增更安全自动模式",
      "summary_en": "Anthropic: Claude Code's new auto mode lets the AI make permissions-level decisions on behalf of users, offering a safer alternative to unrestricted agent access for automated coding tasks.",
      "summary_zh": "Anthropic：Claude Code新增自动模式，允许AI代替用户做出权限层面的决策，为自动化编程任务提供更安全的代理替代方案。",
      "tags": [
        "产品更新",
        "代码工具",
        "Agent"
      ],
      "source_name": "The Verge",
      "source_url": "https://www.theverge.com/ai-artificial-intelligence/900201/anthropic-claude-code-auto-mode",
      "published_at": "2026-03-25T07:39:46Z",
      "collected_at": "2026-03-26T00:00:00Z",
      "importance": 4,
      "merged_sources": []
    },
    {
      "id": "fd089818",
      "lang": "zh",
      "title_zh": "DeepSeek急招Agent方向！一口气放17个岗位，重度Vibe Coding优先",
      "title_en": "DeepSeek urgently hiring for Agent roles: 17 positions posted, Vibe Coding a priority",
      "summary_zh": "量子位：DeepSeek一次性发布17个Agent方向招聘岗位，明确优先考虑有重度Vibe Coding经验的候选人，反映其在智能体研发上的大规模投入与战略紧迫性。",
      "summary_en": "Qbitai: DeepSeek simultaneously posted 17 open Agent-focused positions, explicitly prioritizing candidates with heavy Vibe Coding experience, signaling a major accelerated push into agentic AI research and development.",
      "tags": [
        "行业动态",
        "DeepSeek",
        "Agent"
      ],
      "source_name": "量子位",
      "source_url": "https://www.qbitai.com/2026/03/392024.html",
      "published_at": "2026-03-25T07:00:00Z",
      "collected_at": "2026-03-26T00:00:00Z",
      "importance": 3,
      "merged_sources": []
    },
    {
      "id": "afaa88eb",
      "lang": "zh",
      "title_zh": "黄仁勋暴论：AGI已经实现，Ilya错了，程序员将有10亿",
      "title_en": "Jensen Huang: AGI has been achieved, Ilya is wrong, there will be 1 billion programmers",
      "summary_zh": "量子位：英伟达CEO黄仁勋公开宣称AGI已经实现，认为Ilya Sutskever对AGI的定义有误；并预测随着AI辅助编程普及，全球程序员数量将迈向10亿规模。",
      "summary_en": "Qbitai: Nvidia CEO Jensen Huang claimed AGI has already been achieved and that Ilya Sutskever's definition is incorrect; he also predicted that AI-assisted programming will eventually enable one billion people to become programmers.",
      "tags": [
        "行业观点",
        "AGI"
      ],
      "source_name": "量子位",
      "source_url": "https://www.qbitai.com/2026/03/391750.html",
      "published_at": "2026-03-25T06:00:00Z",
      "collected_at": "2026-03-26T00:00:00Z",
      "importance": 4,
      "merged_sources": []
    },
    {
      "id": "0c9c67ce",
      "lang": "en",
      "title_en": "With $3.5B in fresh capital, Kleiner Perkins is going all in on AI",
      "title_zh": "Kleiner Perkins完成35亿美元募资，全力押注AI",
      "summary_en": "TechCrunch: Kleiner Perkins has closed a $3.5 billion fundraise, allocating $1 billion for early-stage AI startups and $2.5 billion for late-stage growth businesses, signaling a major strategic pivot by one of Silicon Valley's most storied venture firms to double down on AI.",
      "summary_zh": "TechCrunch：Kleiner Perkins完成35亿美元募资，其中10亿美元用于早期AI创业公司，25亿美元投向成长期企业，标志着这家老牌硅谷风投全面押注AI的战略转型。",
      "tags": [
        "行业动态",
        "投融资"
      ],
      "source_name": "TechCrunch",
      "source_url": "https://techcrunch.com/2026/03/24/with-3-5b-in-fresh-capital-kleiner-perkins-is-going-all-in-on-ai/",
      "published_at": "2026-03-25T00:47:20Z",
      "collected_at": "2026-03-25T03:00:00Z",
      "importance": 4,
      "merged_sources": []
    },
    {
      "id": "42714d8c",
      "lang": "zh",
      "title_zh": "它石智航联合六大机构发布OmniVTA视触觉世界模型",
      "summary_zh": "它石智航：它石智航联合新加坡国立大学、复旦大学、中科院自动化所、清华大学、中关村学院及北京航空航天大学，发布OmniVTA视触觉操作框架和OmniViTac大规模视触觉数据集。该系统让机器人从被动感知升级为对触觉进行主动预测和闭环精准控制，支持复杂灵巧操作任务。相关论文已在arXiv发布。",
      "tags": [
        "研究论文",
        "多模态"
      ],
      "source_name": "量子位",
      "source_url": "https://www.qbitai.com/2026/03/392105.html",
      "published_at": "2026-03-25T00:00:00Z",
      "collected_at": "2026-03-25T09:00:00Z",
      "importance": 3,
      "merged_sources": []
    },
    {
      "id": "7bb8054a",
      "lang": "zh",
      "title_zh": "DeepSeek急招Agent方向，重度Vibe Coding优先",
      "summary_zh": "DeepSeek：DeepSeek一口气发布17个招聘岗位，核心聚焦Agent方向，覆盖算法研究、数据评测及基础设施全链条。多个岗位明确要求或优先考虑重度使用Claude Code、Cursor、Copilot等AI编程工具的候选人，全栈开发岗还要求作为Vibe Coding重度用户持续探索模型能力。",
      "tags": [
        "Agent",
        "编程"
      ],
      "source_name": "量子位",
      "source_url": "https://www.qbitai.com/2026/03/392024.html",
      "published_at": "2026-03-25T00:00:00Z",
      "collected_at": "2026-03-25T09:00:00Z",
      "importance": 2,
      "merged_sources": []
    },
    {
      "id": "5a0e5ffa",
      "lang": "zh",
      "title_zh": "WorkBuddy：微信里的AI专家团队工作流",
      "summary_zh": "WorkBuddy：WorkBuddy是一款可在微信中使用的AI工作流产品，支持多个AI专家角色协同作业，覆盖运营策略、选题、内容生产等环节。用户可通过配置AI角色分工，在微信内完成自媒体内容全流程，并支持定时推送AI热点摘要等自动化功能。",
      "tags": [
        "产品发布",
        "Agent"
      ],
      "source_name": "量子位",
      "source_url": "https://www.qbitai.com/2026/03/391894.html",
      "published_at": "2026-03-25T00:00:00Z",
      "collected_at": "2026-03-25T09:00:00Z",
      "importance": 2,
      "merged_sources": []
    },
    {
      "id": "0f161b31",
      "lang": "zh",
      "title_zh": "昆仑万维Mureka V8登顶全球AI音乐模型榜",
      "summary_zh": "昆仑万维：昆仑万维旗下AI音乐模型Mureka V8在Artificial Analysis音乐模型榜单中登顶，超越Suno V4.5、Udio v1.5 Allegro等国际主流模型，实现人声（vocal）与器乐（instrument）双项第一。测试显示其在低复杂度提示词下也具备较强的理解和生成能力。",
      "tags": [
        "产品发布",
        "多模态",
        "评测基准"
      ],
      "source_name": "量子位",
      "source_url": "https://www.qbitai.com/2026/03/391839.html",
      "published_at": "2026-03-25T00:00:00Z",
      "collected_at": "2026-03-25T09:00:00Z",
      "importance": 3,
      "merged_sources": []
    },
    {
      "id": "877123e3",
      "lang": "zh",
      "title_zh": "AI全链路加持！一加15T打造全能小屏，售价4299元起",
      "summary_zh": "量子位：一加全新小屏旗舰一加 15T 正式发布，搭载第五代骁龙 8 至尊版处理器与 ColorOS 16 系统，全面集成 AI 功能。机型配备 6.32 英寸屏幕、7500mAh 大电池及 LUMO 凝光影像系统，165Hz 高帧游戏体验，售价 4299 元起。",
      "tags": [
        "产品发布",
        "手机"
      ],
      "source_name": "量子位",
      "source_url": "https://www.qbitai.com/2026/03/391775.html",
      "published_at": "2026-03-24T14:35:34Z",
      "collected_at": "2026-03-24T15:00:00Z",
      "importance": 2,
      "merged_sources": []
    },
    {
      "id": "66c9a554",
      "lang": "en",
      "title_en": "Anthropic's Claude Code and Cowork can control your computer",
      "title_zh": "Anthropic Claude Code 与 Cowork 现可控制电脑",
      "summary_en": "Anthropic: Anthropic has announced that Claude Code and its new Cowork feature can now control computers directly, enabling GUI-level automation tasks. The capability allows Claude to interact with desktop applications and perform complex multi-step workflows on behalf of users.",
      "summary_zh": "Anthropic：Anthropic 宣布 Claude Code 及新功能 Cowork 现可直接控制电脑，实现 GUI 级别的自动化操作，让 Claude 能够与桌面应用程序交互并代替用户执行复杂的多步骤工作流。",
      "tags": [
        "产品发布",
        "AI Agent",
        "编程工具"
      ],
      "source_name": "The Verge",
      "source_url": "https://www.theverge.com/ai-artificial-intelligence/899430/anthropic-claude-code-cowork-ai-control-computer",
      "published_at": "2026-03-24T13:32:23Z",
      "collected_at": "2026-03-24T15:00:00Z",
      "importance": 4,
      "merged_sources": []
    },
    {
      "id": "5ca1f58b",
      "lang": "en",
      "title_en": "Anthropic's Claude Code and Cowork can control your computer",
      "title_zh": "Anthropic Claude Code 与 Cowork 获得电脑控制能力",
      "summary_en": "Anthropic: Anthropic has expanded Claude Code and its Cowork collaboration tool with computer use capabilities, allowing the AI to autonomously control desktop applications and perform complex multi-step tasks. The update brings agentic capabilities directly into developer workflows.",
      "summary_zh": "Anthropic：Anthropic 为 Claude Code 和协作工具 Cowork 新增了电脑控制功能，使 AI 能够自主操作桌面应用程序并执行复杂的多步骤任务，将智能体能力直接融入开发者工作流。",
      "tags": [
        "产品发布",
        "Agent"
      ],
      "source_name": "The Verge",
      "source_url": "https://www.theverge.com/ai-artificial-intelligence/899430/anthropic-claude-code-cowork-computer-use",
      "published_at": "2026-03-24T13:32:23Z",
      "collected_at": "2026-03-24T15:00:00Z",
      "importance": 4,
      "merged_sources": []
    },
    {
      "id": "e77aa854",
      "lang": "zh",
      "title_zh": "龙虾爆火之后，AI初创的全球化机会来了吗？｜线下沙龙报名",
      "summary_zh": "量子位：量子位将于 3 月 26 日举办 AI 初创全球化线下沙龙，邀请小影科技、FluxA、谷歌、京东、声网、Meshy 等企业分享出海实践经验，面向有全球化意向的 AI 创业团队开放报名。",
      "tags": [
        "行业活动",
        "出海"
      ],
      "source_name": "量子位",
      "source_url": "https://www.qbitai.com/2026/03/391760.html",
      "published_at": "2026-03-24T13:09:56Z",
      "collected_at": "2026-03-24T15:00:00Z",
      "importance": 2,
      "merged_sources": []
    },
    {
      "id": "d0007d81",
      "lang": "en",
      "title_en": "Mirage raises $75M to continue building models for its AI video editing app Captions",
      "title_zh": "Mirage 融资 7500 万美元，继续开发 AI 视频编辑应用 Captions",
      "summary_en": "TechCrunch: Mirage has raised $75 million to further develop AI models powering its video editing application Captions. The funding will be used to advance its AI-driven video production capabilities and expand the app's features for creators.",
      "summary_zh": "TechCrunch：Mirage 完成 7500 万美元融资，将用于进一步开发其视频编辑应用 Captions 背后的 AI 模型，推进 AI 驱动的视频制作能力，并为创作者拓展更多功能。",
      "tags": [
        "融资",
        "多模态",
        "产品发布"
      ],
      "source_name": "TechCrunch",
      "source_url": "https://techcrunch.com/2026/03/24/mirage-raises-75m-to-continue-building-models-for-its-ai-video-editing-app-captions/",
      "published_at": "2026-03-24T13:05:00Z",
      "collected_at": "2026-03-24T15:00:00Z",
      "importance": 3,
      "merged_sources": []
    },
    {
      "id": "dc202831",
      "lang": "en",
      "title_en": "Agile Robots becomes the latest robotics company to partner with Google DeepMind",
      "title_zh": "Agile Robots 成为最新与 Google DeepMind 合作的机器人公司",
      "summary_en": "TechCrunch: Agile Robots has announced a partnership with Google DeepMind, joining a growing list of robotics companies collaborating with the AI research lab. The partnership aims to integrate DeepMind's AI capabilities into Agile Robots' humanoid and legged robot platforms.",
      "summary_zh": "TechCrunch：Agile Robots 宣布与 Google DeepMind 建立合作关系，加入越来越多与该 AI 研究实验室合作的机器人公司行列，旨在将 DeepMind 的 AI 能力整合到其人形及腿足机器人平台。",
      "tags": [
        "机器人",
        "合作",
        "Google DeepMind"
      ],
      "source_name": "TechCrunch",
      "source_url": "https://techcrunch.com/2026/03/24/agile-robots-becomes-the-latest-robotics-company-to-partner-with-google-deepmind/",
      "published_at": "2026-03-24T12:05:00Z",
      "collected_at": "2026-03-24T15:00:00Z",
      "importance": 3,
      "merged_sources": []
    },
    {
      "id": "f55cdd45",
      "lang": "en",
      "title_en": "Update on the OpenAI Foundation",
      "title_zh": "OpenAI基金会最新动态",
      "summary_en": "OpenAI: The OpenAI Foundation announces plans to invest at least $1 billion across four mission areas including curing diseases, jobs and economic impact, AI resilience, and supporting communities, marking a major philanthropic expansion following recapitalization.",
      "summary_zh": "OpenAI：OpenAI基金会宣布计划在四个使命领域投资至少10亿美元，包括治愈疾病、就业与经济影响、AI韧性以及社区支持，标志着公司重组后的重大慈善扩张。",
      "tags": [
        "行业动态"
      ],
      "source_name": "OpenAI",
      "source_url": "https://openai.com/index/update-on-the-openai-foundation/",
      "published_at": "2026-03-24T12:00:00Z",
      "collected_at": "2026-03-25T01:12:00Z",
      "importance": 4,
      "merged_sources": []
    },
    {
      "id": "9ad30de2",
      "lang": "en",
      "title_en": "Powering Product Discovery in ChatGPT",
      "title_zh": "ChatGPT推出沉浸式购物产品发现功能",
      "summary_en": "OpenAI: ChatGPT launches richer, visually immersive shopping experiences powered by the Agentic Commerce Protocol, enabling product discovery, side-by-side comparisons, and deeper merchant integration within the chat interface.",
      "summary_zh": "OpenAI：ChatGPT推出基于Agentic Commerce Protocol的沉浸式购物体验，支持产品发现、对比购物及商家深度集成，进一步强化AI购物助手能力。",
      "tags": [
        "产品发布"
      ],
      "source_name": "OpenAI",
      "source_url": "https://openai.com/index/powering-product-discovery-in-chatgpt/",
      "published_at": "2026-03-24T12:00:00Z",
      "collected_at": "2026-03-25T01:12:00Z",
      "importance": 4,
      "merged_sources": [
        "https://www.theverge.com/ai-artificial-intelligence/899677/openai-google-gemini-ai-shopping-features"
      ]
    },
    {
      "id": "fe256ebf",
      "lang": "en",
      "title_en": "Helping developers build safer AI experiences for teens",
      "title_zh": "OpenAI发布青少年AI安全策略，助力开发者构建更安全的产品",
      "summary_en": "OpenAI: OpenAI released open-source prompt-based teen safety policies designed for use with gpt-oss-safeguard. The policies cover six risk areas including violent/sexual content, harmful body ideals, dangerous activities, roleplay, and age-restricted goods, helping developers build age-appropriate AI protections for young users without starting from scratch. Developed with input from Common Sense Media and everyone.ai.",
      "summary_zh": "OpenAI：OpenAI发布基于提示词的青少年安全策略，可直接与gpt-oss-safeguard配合使用。策略涵盖暴力/色情内容、有害体型观念、危险活动、角色扮演、限龄商品六大风险领域，帮助开发者在开源生态中为未成年用户构建年龄适配的安全保护机制。策略由Common Sense Media等机构参与制定，并通过ROOST Model Community开源发布。",
      "tags": [
        "AI安全",
        "开发者工具"
      ],
      "source_name": "OpenAI",
      "source_url": "https://openai.com/index/helping-developers-build-safer-ai-experiences-for-teens/",
      "published_at": "2026-03-24T12:00:00Z",
      "collected_at": "2026-03-25T03:00:00Z",
      "importance": 3,
      "merged_sources": []
    },
    {
      "id": "28c6dab0",
      "lang": "en",
      "title_en": "Anthropic hands Claude Code more control, but keeps it on a leash",
      "title_zh": "Anthropic为Claude Code新增自动模式，扩大自主执行权限",
      "summary_en": "TechCrunch: Anthropic has launched auto mode for Claude Code, enabling the AI agent to execute multi-step development tasks with fewer manual approvals. The update reflects a broader industry trend toward more autonomous agentic coding tools, while Anthropic maintains safety guardrails to limit unintended actions.",
      "summary_zh": "TechCrunch：Anthropic为Claude Code推出自动模式，允许AI代理自主完成多步骤开发任务，减少人工审批环节。此举体现了AI编程工具走向更高自主性的行业趋势，但Anthropic仍保留安全限制。",
      "tags": [
        "产品发布",
        "AI Agent"
      ],
      "source_name": "TechCrunch",
      "source_url": "https://techcrunch.com/2026/03/24/anthropic-hands-claude-code-more-control-but-keeps-it-on-a-leash/",
      "published_at": "2026-03-24T12:00:00Z",
      "collected_at": "2026-03-25T03:00:00Z",
      "importance": 4,
      "merged_sources": [
        "https://claude.com/blog/auto-mode",
        "https://www.theverge.com/ai-artificial-intelligence/899430/anthropic-claude-code-cowork-ai-control-computer"
      ]
    },
    {
      "id": "dc202831",
      "lang": "en",
      "title_en": "Agile Robots becomes the latest robotics company to partner with Google DeepMind",
      "title_zh": "Agile Robots与Google DeepMind合作，引入机器人基础模型",
      "summary_en": "TechCrunch: Agile Robots has announced a partnership with Google DeepMind to integrate DeepMind's robotics foundation models into its robots. The collaboration also involves data collection to advance DeepMind's AI research, making Agile Robots the latest in a growing list of robotics firms teaming up with the AI lab.",
      "summary_zh": "TechCrunch：Agile Robots宣布与Google DeepMind合作，将DeepMind机器人基础模型集成到其机器人产品中，同时为DeepMind AI研究提供数据支持，成为又一家与该AI实验室携手的机器人企业。",
      "tags": [
        "模型与技术",
        "行业动态"
      ],
      "source_name": "TechCrunch",
      "source_url": "https://techcrunch.com/2026/03/24/agile-robots-becomes-the-latest-robotics-company-to-partner-with-google-deepmind/",
      "published_at": "2026-03-24T12:00:00Z",
      "collected_at": "2026-03-25T03:00:00Z",
      "importance": 3,
      "merged_sources": []
    }
  ]
}