{
  "latest_date": "2026-04-13",
  "updated_at": "2026-04-13T03:10:00Z",
  "dates": [
    "2026-04-13",
    "2026-04-12",
    "2026-04-11",
    "2026-04-10",
    "2026-04-08",
    "2026-04-07",
    "2026-04-06",
    "2026-04-05",
    "2026-04-04",
    "2026-04-03",
    "2026-04-02",
    "2026-04-01",
    "2026-03-31",
    "2026-03-30",
    "2026-03-29",
    "2026-03-28",
    "2026-03-26",
    "2026-03-25",
    "2026-03-24",
    "2026-03-23",
    "2026-03-22",
    "2026-03-21",
    "2026-03-20",
    "2026-03-19",
    "2026-03-18",
    "2026-03-17",
    "2026-03-16",
    "2026-03-15",
    "2026-03-14",
    "2026-03-13",
    "2026-03-12",
    "2026-03-11",
    "2026-03-10",
    "2026-03-09",
    "2026-03-08",
    "2026-03-07",
    "2026-03-06",
    "2026-03-05"
  ],
  "total_items": 537,
  "page": 12,
  "page_size": 20,
  "total_pages": 27,
  "items": [
    {
      "id": "fad7c361",
      "lang": "en",
      "title_en": "Show HN: Pardus Browser - a browser for AI agents without Chromium",
      "title_zh": "Pardus Browser：专为 AI 智能体打造的非 Chromium 浏览器",
      "summary_en": "Hacker News: An open-source project introduces Pardus Browser, a lightweight browser built specifically for AI agents that avoids the overhead of Chromium. Designed to give agents clean, controllable web access, it aims to reduce resource consumption and improve determinism for automated browser-based AI workflows.",
      "summary_zh": "Hacker News：开源项目 Pardus Browser 发布，专为 AI 智能体打造，绕开 Chromium 的庞大体积。该浏览器旨在为智能体提供轻量、可控的网页访问能力，降低资源消耗，提升自动化浏览器工作流的确定性。",
      "tags": [
        "AI智能体",
        "开源",
        "工具"
      ],
      "source_name": "Hacker News",
      "source_url": "https://github.com/JasonHonKL/PardusBrowser/tree/main",
      "published_at": "2026-03-31T10:21:00Z",
      "collected_at": "2026-03-31T15:15:00Z",
      "importance": 3,
      "merged_sources": []
    },
    {
      "id": "97e39b05",
      "lang": "en",
      "title_en": "The Inference Shift – How Cheap Chips Could Put Frontier AI in Everyone's Hands",
      "title_zh": "推理转型：廉价芯片如何让前沿 AI 走进千家万户",
      "summary_en": "Analysis: An in-depth analysis argues that falling inference chip costs are about to democratize access to frontier AI models. As specialized inference hardware becomes commoditized, the author predicts a shift where running powerful models locally or cheaply in the cloud becomes widely accessible within 1-2 years.",
      "summary_zh": "分析：一篇深度分析文章指出，推理芯片成本的快速下降即将打破前沿 AI 的访问壁垒。随着专用推理硬件进入大规模量产阶段，作者预测在 1-2 年内，在本地或低价云端运行强大模型将成为普遍可及的能力。",
      "tags": [
        "分析",
        "硬件",
        "推理"
      ],
      "source_name": "Hacker News",
      "source_url": "https://substack.com/home/post/p-192665961",
      "published_at": "2026-03-31T09:28:44Z",
      "collected_at": "2026-03-31T08:50:00Z",
      "importance": 3,
      "merged_sources": []
    },
    {
      "id": "563686cd",
      "lang": "en",
      "title_en": "Universal Claude.md – cut Claude output tokens",
      "title_zh": "通用 Claude.md——大幅削减 Claude 输出 Token",
      "summary_en": "Community: A GitHub repository proposes a universal Claude.md configuration that significantly reduces Claude's output token usage. The approach applies prompt-level instructions to suppress verbosity and redundant formatting, helping developers cut API costs. Gained 293 upvotes on Hacker News.",
      "summary_zh": "社区：一个 GitHub 仓库提出通用 Claude.md 配置方案，通过提示级指令抑制冗余输出，有效降低 Claude API Token 消耗，帮助开发者节省成本。该帖在 Hacker News 获得 293 点赞。",
      "tags": [
        "工具",
        "开发者"
      ],
      "source_name": "Hacker News",
      "source_url": "https://github.com/drona23/claude-token-efficient",
      "published_at": "2026-03-31T09:28:44Z",
      "collected_at": "2026-03-31T09:15:00Z",
      "importance": 3,
      "merged_sources": []
    },
    {
      "id": "52a49b82",
      "lang": "en",
      "title_en": "Google's 200M-parameter time-series foundation model with 16k context",
      "title_zh": "Google 发布 2 亿参数时序基础模型，支持 16k 上下文",
      "summary_en": "Google Research: Google Research released TimesFM, a 200M-parameter time-series foundation model with 16k context length. The model achieves strong zero-shot forecasting across diverse domains including finance, weather, and energy, available open-source on GitHub.",
      "summary_zh": "Google Research：Google Research 发布 TimesFM，一个拥有 2 亿参数和 16k 上下文长度的时序基础模型。该模型在金融、天气、能源等多领域展现出强大的零样本预测能力，已在 GitHub 开源。",
      "tags": [
        "开源",
        "研究"
      ],
      "source_name": "Hacker News",
      "source_url": "https://github.com/google-research/timesfm",
      "published_at": "2026-03-31T09:08:39Z",
      "collected_at": "2026-03-31T08:50:00Z",
      "importance": 3,
      "merged_sources": []
    },
    {
      "id": "98e6a511",
      "lang": "en",
      "title_en": "Claude usage limits hitting faster than expected",
      "title_zh": "Claude 用量上限比预期更快触达",
      "summary_en": "Community: A Reddit thread on r/ClaudeCode reports that Claude API usage limits are being reached faster than anticipated by developers. Users discuss patterns in token consumption and strategies to manage limits, reflecting growing adoption of Claude in production coding workflows.",
      "summary_zh": "社区：Reddit r/ClaudeCode 帖子报告称开发者比预期更快触达 Claude API 用量上限。用户讨论 Token 消耗规律及管理策略，反映 Claude 在生产编程工作流中的使用量快速增长。",
      "tags": [
        "开发者",
        "工具"
      ],
      "source_name": "Hacker News",
      "source_url": "https://old.reddit.com/r/ClaudeCode/comments/1s7zg7h/investigating_usage_limits_",
      "published_at": "2026-03-31T08:15:00Z",
      "collected_at": "2026-03-31T09:15:00Z",
      "importance": 2,
      "merged_sources": []
    },
    {
      "id": "6cfda92b",
      "lang": "en",
      "title_en": "Ollama is now powered by MLX on Apple Silicon in preview",
      "title_zh": "Ollama 预览版开始使用 Apple MLX 加速",
      "summary_en": "Ollama: Ollama announced a preview of MLX-powered inference on Apple Silicon, enabling significantly faster local LLM performance on Mac devices. The integration leverages Apple's MLX framework to accelerate model execution natively on M-series chips.",
      "summary_zh": "Ollama：Ollama 宣布在 Apple Silicon 上推出基于 MLX 框架的推理加速预览版本，大幅提升 Mac 本地大模型运行速度。该功能充分利用苹果 M 系列芯片的神经引擎，为本地 AI 推理带来显著性能提升。",
      "tags": [
        "开源",
        "推理",
        "硬件"
      ],
      "source_name": "Hacker News",
      "source_url": "https://ollama.com/blog/mlx",
      "published_at": "2026-03-31T08:00:45Z",
      "collected_at": "2026-03-31T08:50:00Z",
      "importance": 4,
      "merged_sources": []
    },
    {
      "id": "8c3ac627",
      "lang": "en",
      "title_en": "GitHub backs down, kills Copilot pull-request ads after backlash",
      "title_zh": "GitHub 撤回决定，取消 Copilot PR 广告植入",
      "summary_en": "GitHub: GitHub reversed its controversial decision to embed promotional content into Copilot pull request descriptions after significant backlash from developers. The feature had drawn criticism for mixing AI suggestions with advertising. GitHub confirmed the rollback following community pressure.",
      "summary_zh": "GitHub：在开发者强烈反对后，GitHub 撤回了将推广内容嵌入 Copilot PR 描述的争议性决定。该功能因将 AI 建议与广告混合而饱受批评，GitHub 在社区压力下确认回滚。",
      "tags": [
        "产品发布",
        "开发者"
      ],
      "source_name": "Hacker News",
      "source_url": "https://www.theregister.com/2026/03/30/github_copilot_ads_pull_requests/",
      "published_at": "2026-03-31T08:00:00Z",
      "collected_at": "2026-03-31T09:15:00Z",
      "importance": 4,
      "merged_sources": []
    },
    {
      "id": "abca6098",
      "lang": "en",
      "title_en": "Claude Code bug can silently 10-20x API costs",
      "title_zh": "Claude Code 缓存 Bug 可导致 API 费用暴增 10-20 倍",
      "summary_en": "Community: A Reddit post flagged two cache-related bugs in Claude Code that can silently inflate API costs by 10-20x without any warning to the user. The bugs affect how prompt caching is handled, causing repeated full-context charges instead of cached responses.",
      "summary_zh": "社区：Reddit 上的一篇帖子披露了 Claude Code 中两个与缓存相关的 Bug，可在用户毫不知情的情况下使 API 费用暴涨 10-20 倍。漏洞导致提示缓存失效，每次请求均按完整上下文计费而非使用缓存价格。",
      "tags": [
        "工具",
        "AI应用"
      ],
      "source_name": "Hacker News",
      "source_url": "https://old.reddit.com/r/ClaudeCode/comments/1s7mitf/psa_claude_code_has_two_cache_bugs_that_can",
      "published_at": "2026-03-31T07:37:33Z",
      "collected_at": "2026-03-31T08:50:00Z",
      "importance": 3,
      "merged_sources": []
    },
    {
      "id": "19a5891a",
      "lang": "en",
      "title_en": "Mr. Chatterbox is a Victorian-era ethically trained model",
      "title_zh": "Mr. Chatterbox：以维多利亚时代伦理训练的 AI 模型",
      "summary_en": "Simon Willison: Simon Willison writes about Mr. Chatterbox, a language model fine-tuned on Victorian-era texts and ethical frameworks. The experiment explores how training data period and cultural context shape model behavior and responses, offering insights into the relationship between data curation and AI alignment.",
      "summary_zh": "Simon Willison：Simon Willison 介绍了 Mr. Chatterbox——一个基于维多利亚时代文本和伦理框架微调的语言模型。该实验探索训练数据时代背景如何塑造模型行为，为理解数据筛选与 AI 对齐的关系提供了新视角。",
      "tags": [
        "研究",
        "安全与对齐"
      ],
      "source_name": "Hacker News",
      "source_url": "https://simonwillison.net/2026/Mar/30/mr-chatterbox/",
      "published_at": "2026-03-31T07:30:00Z",
      "collected_at": "2026-03-31T09:15:00Z",
      "importance": 3,
      "merged_sources": []
    },
    {
      "id": "2ef279ef",
      "lang": "en",
      "title_en": "Claude Code's source code has been leaked via a map file in their NPM registry",
      "title_zh": "Claude Code 源代码因 NPM 注册表中的 map 文件泄露",
      "summary_en": "Community: A security researcher discovered that Claude Code's minified source code was inadvertently exposed via source map files published to the NPM registry. The leak revealed internal implementation details of Anthropic's coding agent, raising questions about supply chain security practices.",
      "summary_zh": "社区：一名安全研究人员发现，Claude Code 的压缩源代码通过发布到 NPM 注册表的 source map 文件意外泄露。此次泄露暴露了 Anthropic 编码智能体的内部实现细节，引发对软件供应链安全实践的质疑。",
      "tags": [
        "安全与对齐",
        "开发者"
      ],
      "source_name": "Hacker News",
      "source_url": "https://twitter.com/Fried_rice/status/2038894956459290963",
      "published_at": "2026-03-31T07:00:00Z",
      "collected_at": "2026-03-31T09:15:00Z",
      "importance": 3,
      "merged_sources": []
    },
    {
      "id": "a71799ac",
      "lang": "en",
      "title_en": "Emerging Litigation Risks in Financing AI Data Centers Boom",
      "title_zh": "AI 数据中心融资热潮中的新兴诉讼风险",
      "summary_en": "Quinn Emanuel: Law firm Quinn Emanuel publishes a client alert outlining emerging litigation risks associated with the AI data center financing boom. Topics covered include contract disputes, regulatory exposure, environmental challenges, and lender liability in infrastructure deals. Relevant for investors and developers in the AI infrastructure space.",
      "summary_zh": "Quinn Emanuel：律师事务所 Quinn Emanuel 发布客户提示，梳理 AI 数据中心融资热潮中的新兴诉讼风险，涵盖合同纠纷、监管敞口、环境挑战及基础设施交易中的出借方责任，对 AI 基础设施投资者和开发商具有参考价值。",
      "tags": [
        "分析",
        "基础设施"
      ],
      "source_name": "Hacker News",
      "source_url": "https://www.quinnemanuel.com/the-firm/publications/client-alert-emerging-litigation-",
      "published_at": "2026-03-31T06:30:00Z",
      "collected_at": "2026-03-31T09:15:00Z",
      "importance": 2,
      "merged_sources": []
    },
    {
      "id": "0ee915ff",
      "lang": "zh",
      "title_en": "10 days old startup valued at over $1B — Embodied AI investment heats up in China",
      "title_zh": "公司注册仅 10 天估值逾 10 亿美元！理想智驾大牛带热具身创投新热度",
      "summary_en": "量子位: A robotics startup founded by a top autonomous driving engineer from Li Auto (LIXIANG) reached a valuation exceeding $1 billion just 10 days after incorporation, reflecting a frenzied wave of investor interest in embodied AI in China. The development signals that embodied robotics is entering a hyper-competitive funding cycle.",
      "summary_zh": "量子位：一家由理想汽车智驾核心工程师创立的机器人公司，注册仅 10 天便获得逾 10 亿美元估值，折射出国内具身 AI 投资热潮持续升温。这一事件标志着具身机器人领域正式进入资本疯狂涌入的新周期。",
      "tags": [
        "具身AI",
        "机器人",
        "创业投资",
        "中国AI"
      ],
      "source_name": "量子位",
      "source_url": "https://www.qbitai.com/2026/03/394149.html",
      "published_at": "2026-03-31T06:00:00Z",
      "collected_at": "2026-04-01T00:14:00Z",
      "importance": 4,
      "merged_sources": []
    },
    {
      "id": "881b4547",
      "lang": "zh",
      "title_zh": "黄仁勋也站台的抱抱脸机器人卖爆了，背后公司竟来自中国",
      "summary_zh": "量子位：HuggingFace推出的低成本开源机器人因获得英伟达CEO黄仁勋公开背书而引爆市场，其背后核心硬件供应商来自中国深圳。该机器人凭借开源生态和低价策略正在成为开发者构建具身智能应用的首选平台。",
      "tags": [
        "机器人",
        "开源"
      ],
      "source_name": "量子位",
      "source_url": "https://www.qbitai.com/2026/03/393483.html",
      "published_at": "2026-03-31T05:00:00Z",
      "collected_at": "2026-03-31T08:50:00Z",
      "importance": 4,
      "merged_sources": []
    },
    {
      "id": "ae4c1a78",
      "lang": "zh",
      "title_en": "Zhipu AI post-IPO earnings: Revenue tops ¥724M, leading domestic LLM firms via MaaS",
      "title_zh": "智谱上市后首份财报：营收超 7.24 亿元，MaaS 业务发力成国内收入最高大模型公司",
      "summary_en": "量子位: Zhipu AI released its first earnings report after going public, reporting revenue exceeding ¥724 million, making it the highest-revenue domestic large model company in China. Growth was driven by its MaaS (Model-as-a-Service) business, signaling strong enterprise adoption of domestic foundation models.",
      "summary_zh": "量子位：智谱 AI 发布上市后首份财报，营收超 7.24 亿元，成为国内收入最高的大模型公司。增长主要由 MaaS（模型即服务）业务驱动，标志着国产基础模型在企业端的商业化已进入快速爬坡阶段。",
      "tags": [
        "智谱AI",
        "大模型",
        "MaaS",
        "中国AI",
        "财报"
      ],
      "source_name": "量子位",
      "source_url": "https://www.qbitai.com/2026/03/394135.html",
      "published_at": "2026-03-31T04:00:00Z",
      "collected_at": "2026-04-01T00:14:00Z",
      "importance": 4,
      "merged_sources": []
    },
    {
      "id": "9089e3da",
      "lang": "zh",
      "title_zh": "实测Qwen3.5-Omni：摄像头一开，AI给我现场讲论文、撸代码",
      "summary_zh": "量子位：量子位实测阿里最新发布的Qwen3.5-Omni多模态模型，该模型在215项基准测试中达到SOTA。测试表明其实时视觉理解能力出色，可通过摄像头即时解析论文内容、辅助编程，多模态交互体验接近GPT-4o水平。",
      "tags": [
        "产品发布",
        "多模态"
      ],
      "source_name": "量子位",
      "source_url": "https://www.qbitai.com/2026/03/393941.html",
      "published_at": "2026-03-31T04:00:00Z",
      "collected_at": "2026-03-31T08:50:00Z",
      "importance": 4,
      "merged_sources": []
    },
    {
      "id": "62c2309d",
      "lang": "zh",
      "title_zh": "2700GB高质量数据，训出空间智能SOTA，背后秘诀全栈开源",
      "summary_zh": "量子位：研究团队基于2700GB高质量3D空间数据训练出空间智能模型，在多项空间理解基准上达到SOTA。团队全栈开源数据集、训练代码及模型权重，为具身智能和机器人领域研究提供重要基础设施。",
      "tags": [
        "开源",
        "研究"
      ],
      "source_name": "量子位",
      "source_url": "https://www.qbitai.com/2026/03/393864.html",
      "published_at": "2026-03-31T03:30:00Z",
      "collected_at": "2026-03-31T08:50:00Z",
      "importance": 4,
      "merged_sources": []
    },
    {
      "id": "e16fea01",
      "lang": "en",
      "title_en": "Safeguarding cryptocurrency by disclosing quantum vulnerabilities responsibly",
      "title_zh": "负责任地披露量子漏洞以保护加密货币安全",
      "summary_en": "Google Research: Google Research has published a responsible disclosure of quantum computing vulnerabilities in elliptic curve cryptography used by major cryptocurrencies. The post outlines the timeline and methodology for coordinating with affected parties before publication, setting a precedent for how quantum threats to financial infrastructure should be handled.",
      "summary_zh": "Google Research：谷歌研究院就主流加密货币所用椭圆曲线密码学中的量子漏洞进行了负责任披露，阐述了在发布前与相关方协调的时间线与方法论，为量子威胁金融基础设施的处理方式树立了先例。",
      "tags": [
        "量子计算",
        "安全",
        "加密货币"
      ],
      "source_name": "Hacker News",
      "source_url": "https://research.google/blog/safeguarding-cryptocurrency-by-disclosing-quantum-vulnerabilities-responsibly/",
      "published_at": "2026-03-31T03:28:00Z",
      "collected_at": "2026-03-31T15:15:00Z",
      "importance": 3,
      "merged_sources": []
    },
    {
      "id": "a1bd9fce",
      "lang": "zh",
      "title_en": "ByteDance TRAE SOLO launches standalone app: From code to cross-domain AI work",
      "title_zh": "字节 TRAE SOLO 上线独立端：已不满足写代码，还要跨界干活",
      "summary_en": "量子位: ByteDance's TRAE SOLO coding AI has launched as a standalone desktop app, moving beyond pure code generation to handle cross-domain tasks including document processing, UI design, and multi-step workflows. The expansion signals ByteDance's ambition to compete with Claude Code and Cursor in the agentic IDE market.",
      "summary_zh": "量子位：字节跳动旗下 TRAE SOLO 编程 AI 推出独立桌面端，功能不再局限于代码生成，还将承担文档处理、UI 设计及多步骤工作流等跨领域任务，显示字节在 Agent IDE 市场与 Claude Code、Cursor 正面竞争的野心。",
      "tags": [
        "字节跳动",
        "AI编码",
        "AI Agent",
        "IDE"
      ],
      "source_name": "量子位",
      "source_url": "https://www.qbitai.com/2026/03/394014.html",
      "published_at": "2026-03-31T03:00:00Z",
      "collected_at": "2026-04-01T00:14:00Z",
      "importance": 4,
      "merged_sources": []
    },
    {
      "id": "1c92da65",
      "lang": "zh",
      "title_zh": "机器人线下真机对线打PK！这届黑客松可太会玩了",
      "summary_zh": "量子位：一场以人形机器人为主角的线下黑客松活动引发热议，参赛者携带真实机器人现场竞技，展示了抓取、操控、运动等多项能力。活动显示机器人开发门槛快速降低，开发者社区活跃度显著提升。",
      "tags": [
        "机器人",
        "AI应用"
      ],
      "source_name": "量子位",
      "source_url": "https://www.qbitai.com/2026/03/393887.html",
      "published_at": "2026-03-31T03:00:00Z",
      "collected_at": "2026-03-31T08:50:00Z",
      "importance": 3,
      "merged_sources": []
    },
    {
      "id": "a2efdf65",
      "lang": "zh",
      "title_zh": "瑞声科技公开人形机器人感知解决方案，释放机器人业务加速落地信号",
      "summary_zh": "量子位：声学元件巨头瑞声科技正式公开其人形机器人感知系统，涵盖触觉、听觉等多传感器融合方案。此举被视为该公司加速布局机器人硬件供应链的重要信号，有望进一步推动人形机器人规模化落地。",
      "tags": [
        "机器人",
        "硬件"
      ],
      "source_name": "量子位",
      "source_url": "https://www.qbitai.com/2026/03/393883.html",
      "published_at": "2026-03-31T02:30:00Z",
      "collected_at": "2026-03-31T08:50:00Z",
      "importance": 3,
      "merged_sources": []
    }
  ]
}