{
  "latest_date": "2026-03-31",
  "updated_at": "2026-03-31T03:10:00Z",
  "dates": [
    "2026-03-31",
    "2026-03-30",
    "2026-03-29",
    "2026-03-28",
    "2026-03-26",
    "2026-03-25",
    "2026-03-24",
    "2026-03-23",
    "2026-03-22",
    "2026-03-21",
    "2026-03-20",
    "2026-03-19",
    "2026-03-18",
    "2026-03-17",
    "2026-03-16",
    "2026-03-15",
    "2026-03-14",
    "2026-03-13",
    "2026-03-12",
    "2026-03-11",
    "2026-03-10",
    "2026-03-09",
    "2026-03-08",
    "2026-03-07",
    "2026-03-06",
    "2026-03-05"
  ],
  "total_items": 287,
  "page": 1,
  "page_size": 20,
  "total_pages": 15,
  "items": [
    {
      "id": "d1b28473",
      "lang": "en",
      "title_en": "Learn Claude Code by doing, not reading",
      "title_zh": "通过实践学习Claude Code",
      "summary_en": "Community: An interactive tutorial site teaches developers how to use Claude Code through hands-on exercises rather than documentation reading. The resource gained significant traction on Hacker News with 109 upvotes, reflecting strong community interest in practical AI coding assistant education.",
      "summary_zh": "社区：交互式教程网站claude.nagdy.me通过动手实践而非文档阅读方式教授开发者使用Claude Code，在Hacker News获得109票关注，反映出开发者社区对AI编程助手实践教程的强烈需求。",
      "tags": [
        "编程",
        "Agent"
      ],
      "source_name": "Hacker News",
      "source_url": "https://claude.nagdy.me/",
      "published_at": "2026-03-31T01:19:43Z",
      "collected_at": "2026-03-31T00:15:00Z",
      "importance": 2,
      "merged_sources": []
    },
    {
      "id": "f515d6ca",
      "lang": "en",
      "title_en": "Agentic AI and the next intelligence explosion",
      "title_zh": "Agent AI与下一次智能爆炸",
      "summary_en": "Researchers: A preprint on arXiv argues that the AI singularity should not be conceived as a monolithic godlike mind, but as a plural, social, relational phenomenon. The paper highlights that frontier reasoning models like DeepSeek-R1 improve not by thinking longer but by simulating internal societies of thought as spontaneous cognitive debates. The authors propose that scaling intelligence requires shifting from dyadic alignment to managing collective human-AI agency, describing an era of human-AI centaurs.",
      "summary_zh": "研究人员：arXiv预印本论文提出，AI奇点不应被理解为单一的神级智能，而是多元化的社会性现象。文章指出DeepSeek-R1等前沿推理模型通过模拟内部思想社会而非单纯更长思考来提升能力，并提出扩展智能需要从双边对齐转向管理集体人机协同，描述即将到来的人机半人马时代。",
      "tags": [
        "研究论文",
        "推理",
        "Agent"
      ],
      "source_name": "Hacker News",
      "source_url": "https://arxiv.org/abs/2603.20639",
      "published_at": "2026-03-31T01:14:17Z",
      "collected_at": "2026-03-31T00:15:00Z",
      "importance": 3,
      "merged_sources": []
    },
    {
      "id": "9dd374a0",
      "lang": "zh",
      "title_zh": "别再让AI只干零活了！AI工具正在接管投放全链路",
      "summary_zh": "量子位：艾瑞咨询报告显示，中国AI营销市场规模达669亿元，年复合增长率26.2%。当前多环节协同成为AI营销引擎新趋势，快手等平台已实现从素材生产、策略制定到实时投放、诊断复盘的全链路AI化，推动营销行业从单点AI工具向全流程智能化演进。",
      "tags": [
        "行业观察",
        "产品发布"
      ],
      "source_name": "量子位",
      "source_url": "https://www.qbitai.com/2026/03/393471.html",
      "published_at": "2026-03-31T01:03:38Z",
      "collected_at": "2026-03-31T03:10:00Z",
      "importance": 3,
      "merged_sources": []
    },
    {
      "id": "df4c40d4",
      "lang": "en",
      "title_en": "Qodo raises $70M for code verification as AI coding scales",
      "title_zh": "Qodo融资7000万美元，专注AI代码验证",
      "summary_en": "Qodo: New York-based AI code review and verification startup Qodo raised a $70 million Series B led by Qumra Capital, bringing total funding to $120 million. Investors include Maor Ventures, Phoenix Venture Partners, Peter Welinder (OpenAI), and Clara Shih (Meta). Qodo builds AI agents for code review, testing, and governance, positioning itself as a verification layer for AI-generated code.",
      "summary_zh": "Qodo：纽约AI代码审查与验证初创公司Qodo完成7000万美元B轮融资，由Qumra Capital领投，累计融资额达1.2亿美元，投资方包括OpenAI的Peter Welinder和Meta的Clara Shih。公司专注于构建AI代码审查、测试与治理智能体，定位为AI生成代码的验证层。",
      "tags": [
        "融资",
        "编程"
      ],
      "source_name": "TechCrunch",
      "source_url": "https://techcrunch.com/2026/03/30/qodo-bets-on-code-verification-as-ai-coding-scales-raises-70m/",
      "published_at": "2026-03-30T14:00:00Z",
      "collected_at": "2026-03-31T00:15:00Z",
      "importance": 3,
      "merged_sources": []
    },
    {
      "id": "d46dcd19",
      "lang": "en",
      "title_en": "AI chip startup Rebellions raises $400 million at $2.3B valuation in pre-IPO round",
      "title_zh": "AI芯片公司Rebellions完成4亿美元Pre-IPO融资，估值23亿美元",
      "summary_en": "Rebellions: South Korean fabless AI chip startup Rebellions raised $400 million in a pre-IPO round led by Mirae Asset Financial Group and the Korea National Growth Fund, valuing the company at $2.3 billion. The round follows a Series C completed in November and accompanies aggressive global expansion plans, with an IPO planned for later in 2026.",
      "summary_zh": "Rebellions：韩国无晶圆AI芯片公司Rebellions完成4亿美元Pre-IPO融资，由未来资产金融集团和韩国国家成长基金领投，估值达23亿美元。此轮融资紧随11月完成的C轮之后，伴随公司积极推进全球扩张计划，公司计划于2026年晚些时候上市。",
      "tags": [
        "融资",
        "硬件"
      ],
      "source_name": "TechCrunch",
      "source_url": "https://techcrunch.com/2026/03/30/ai-chip-startup-rebellions-raises-400-million-at-2-3b-valuation-in-pre-ipo-round/",
      "published_at": "2026-03-30T13:00:00Z",
      "collected_at": "2026-03-31T00:15:00Z",
      "importance": 3,
      "merged_sources": []
    },
    {
      "id": "8f5b6220",
      "lang": "en",
      "title_en": "Mistral AI raises $830M in debt to set up a data center near Paris",
      "title_zh": "Mistral AI融资8.3亿美元，在巴黎附近建设数据中心",
      "summary_en": "Mistral AI: French AI lab Mistral AI raised $830 million in debt financing to build a new Nvidia-powered data center in Bruyeres-le-Chatel near Paris, with plans to make it operational in Q2 2026. The company previously announced a $1.4 billion investment in Sweden for AI infrastructure, aiming to deploy 200 megawatts of compute capacity across European operations.",
      "summary_zh": "Mistral AI：法国AI公司Mistral AI通过债务融资筹集8.3亿美元，用于在巴黎郊区Bruyeres-le-Chatel建设以英伟达芯片为核心的新数据中心，计划于2026年第二季度投入运营。公司此前已宣布在瑞典投资14亿美元建设AI基础设施，目标是在欧洲部署总计200兆瓦的算力。",
      "tags": [
        "融资",
        "硬件"
      ],
      "source_name": "TechCrunch",
      "source_url": "https://techcrunch.com/2026/03/30/mistral-ai-raises-830m-in-debt-to-set-up-a-data-center-near-paris/",
      "published_at": "2026-03-30T12:49:00Z",
      "collected_at": "2026-03-31T00:15:00Z",
      "importance": 4,
      "merged_sources": []
    },
    {
      "id": "9bbb95e8",
      "lang": "zh",
      "title_zh": "Claude 90分钟挖穿Ghost CMS 20年安全漏洞",
      "summary_zh": "Anthropic：研究员Nicholas Carlini测试发现，Claude在90分钟内精准定位GitHub拥有5万Star的Ghost CMS首个高危漏洞，并在无身份验证情况下窃取管理员API密钥；同时Claude在Linux内核安全漏洞挖掘上亦超越了人类专家水平。Carlini表示，六个月前大模型在此领域几乎是门外汉，如今最新模型已在漏洞挖掘方面超过人类专家。",
      "tags": [
        "安全对齐",
        "评测基准"
      ],
      "source_name": "量子位",
      "source_url": "https://www.qbitai.com/2026/03/393186.html",
      "published_at": "2026-03-30T06:00:00Z",
      "collected_at": "2026-03-31T00:15:00Z",
      "importance": 4,
      "merged_sources": []
    },
    {
      "id": "7dbe9008",
      "lang": "zh",
      "title_zh": "国产世界模型GigaWorld-1登顶WorldArena全球第一",
      "summary_zh": "极佳视界：旗下具身世界模型GigaWorld-1在WorldArena评测中登顶全球第一，成为唯一综合得分突破60分的具身世界模型，在视觉真实性、几何精准度、物理准确度三大维度断层领先谷歌、英伟达。极佳视界由清华系团队领衔，汇聚阿里、百度、地平线等顶尖大厂核心骨干，3D准确度接近满分。",
      "tags": [
        "评测基准",
        "研究论文"
      ],
      "source_name": "量子位",
      "source_url": "https://www.qbitai.com/2026/03/393296.html",
      "published_at": "2026-03-30T05:00:00Z",
      "collected_at": "2026-03-31T00:15:00Z",
      "importance": 4,
      "merged_sources": []
    },
    {
      "id": "48825272",
      "lang": "zh",
      "title_zh": "美国开源AI旗帜倒下：Ai2削减开源投入，核心团队转投微软",
      "summary_zh": "艾伦人工智能研究所（Ai2）宣布削减开源模型（包括OLMo）的研发资金，转向AI应用方向。同期Ai2核心团队几乎被微软打包带走，包括前CEO阿里·法哈迪、前COO索菲·莱布雷希特、汉娜·哈吉希尔齐和兰杰·克里希纳，均加入微软穆斯塔法·苏莱曼领导的超级智能团队。OLMo是极少数真正开源的大模型之一，此次变化引发开源社区广泛关注。",
      "tags": [
        "开源",
        "产品发布"
      ],
      "source_name": "量子位",
      "source_url": "https://www.qbitai.com/2026/03/393395.html",
      "published_at": "2026-03-30T04:00:00Z",
      "collected_at": "2026-03-31T00:15:00Z",
      "importance": 4,
      "merged_sources": []
    },
    {
      "id": "7896db99",
      "lang": "zh",
      "title_zh": "DeepSeek网页版大升级后宕机11小时，被解读为新模型前兆",
      "summary_zh": "DeepSeek：DeepSeek网页版在3月29日出现大规模宕机，持续超过8小时并登上热搜。宕机前大量用户报告模型能力大幅提升，经典SVG绘图任务的构图和色彩明显改善，且模型开始稳定自报为DeepSeek-V3。DeepSeek此前已有多次不预告静默升级记录，此次宕机被业界普遍解读为新版本模型上线的前兆。",
      "tags": [
        "产品发布"
      ],
      "source_name": "量子位",
      "source_url": "https://www.qbitai.com/2026/03/393235.html",
      "published_at": "2026-03-30T03:30:00Z",
      "collected_at": "2026-03-31T00:15:00Z",
      "importance": 3,
      "merged_sources": []
    },
    {
      "id": "b38989c1",
      "lang": "zh",
      "title_zh": "全球OCR新王来自中国开源！PaddleOCR GitHub狂揽73300+Star",
      "summary_zh": "百度：PaddleOCR以73300+Star登顶GitHub全球OCR项目榜，终结谷歌Tesseract OCR近40年的霸榜地位。同步在Hugging Face长期位居OCR与文档解析领域头部。此次升级官网免费每日解析页数从1万提升至2万，并发布PaddleOCR OCEAN生态联盟，面向核心贡献者、企业用户、模型托管平台及硬件厂商开放合作。",
      "tags": [
        "开源",
        "产品发布"
      ],
      "source_name": "量子位",
      "source_url": "https://www.qbitai.com/2026/03/393433.html",
      "published_at": "2026-03-30T03:00:00Z",
      "collected_at": "2026-03-31T00:15:00Z",
      "importance": 3,
      "merged_sources": []
    },
    {
      "id": "7e0f12eb",
      "lang": "zh",
      "title_zh": "阿里发布Qwen3.5-Omni，多模态能力超越Gemini-3.1 Pro",
      "summary_zh": "阿里巴巴：阿里发布千问新一代全模态大模型Qwen3.5-Omni，在音视频理解、识别、交互等215项第三方测试任务中取得SOTA，超越Gemini-3.1 Pro。新模型采用混合注意力MoE架构，支持113种语言及方言语音识别、36种语言语音生成，具备音视频Vibe Coding能力，API定价每百万Tokens输入不到0.8元。目前已在阿里云百炼平台上线Plus、Flash、Light三个版本，普通用户可通过Qwen Chat免费体验。",
      "tags": [
        "产品发布",
        "多模态"
      ],
      "source_name": "量子位",
      "source_url": "https://www.qbitai.com/2026/03/393460.html",
      "published_at": "2026-03-30T02:00:00Z",
      "collected_at": "2026-03-31T00:15:00Z",
      "importance": 4,
      "merged_sources": []
    },
    {
      "id": "73970da2",
      "lang": "en",
      "title_en": "All the latest in AI 'music'",
      "title_zh": "AI「音乐」最新动态：Bandcamp 封禁 AI 内容、Suno 发布 v5.5",
      "summary_en": "The Verge: A roundup of the latest in AI-generated music: Bandcamp becomes the first major platform to ban AI content; Suno releases v5.5 with voice cloning and personalization; musicians push back against AI audio clones; and a study finds 97% of people struggle to identify AI-made music.",
      "summary_zh": "The Verge：AI 音乐领域最新动态汇总：Bandcamp 成为首个封禁 AI 内容的主要音乐平台；Suno 发布 v5.5，支持用户声音克隆与个性化；音乐人持续抵制 AI 音频克隆；研究显示97%的人难以识别 AI 生成音乐。",
      "tags": [
        "AI音乐",
        "版权",
        "AI应用"
      ],
      "source_name": "The Verge",
      "source_url": "https://www.theverge.com/ai-artificial-intelligence/903196/ai-music-suno-udio-art-lawsuit",
      "published_at": "2026-03-30T01:32:14Z",
      "collected_at": "2026-03-30T03:08:00Z",
      "importance": 3,
      "merged_sources": []
    },
    {
      "id": "8022be03",
      "lang": "en",
      "title_en": "The Sudden Fall of OpenAI's Most Hyped Product Since ChatGPT",
      "title_zh": "OpenAI 最受期待产品的意外落幕：Sora 为何沉寂",
      "summary_en": "Hacker News (via WSJ): A Wall Street Journal investigation into the sudden decline of Sora, OpenAI's AI video generation tool once billed as its biggest product since ChatGPT. The story traces internal priorities, competitive pressure from Kling and other players, and OpenAI's pivot toward other revenue streams.",
      "summary_zh": "Hacker News（WSJ）：《华尔街日报》深度调查 Sora 的意外没落——这款曾被誉为 OpenAI 继 ChatGPT 后最受期待产品的 AI 视频生成工具，因内部优先级调整、Kling 等竞品压力及 OpenAI 向其他收入来源转型而迅速沉寂。",
      "tags": [
        "OpenAI",
        "AI视频",
        "产品策略"
      ],
      "source_name": "Hacker News",
      "source_url": "https://www.wsj.com/tech/ai/the-sudden-fall-of-openais-most-hyped-product-since-chatgpt",
      "published_at": "2026-03-30T01:23:17Z",
      "collected_at": "2026-03-30T03:08:00Z",
      "importance": 4,
      "merged_sources": []
    },
    {
      "id": "b0489665",
      "lang": "zh",
      "title_zh": "Agentic AI 安全指南：龙虾如何被三层硬核架构「焊死」",
      "summary_zh": "量子位：随着高权限 AI 代理应用爆发，本文提供一份面向开发者的 Agentic AI 安全实战指南，深入剖析自主性失控的根源，并介绍三层硬核安全架构：过程黑箱穿透、价值对齐保障与权限最小化原则，帮助开发者在生产环境中构建可控、可审计的 AI 代理系统。",
      "tags": [
        "AI安全",
        "AI代理",
        "开发者工具"
      ],
      "source_name": "量子位",
      "source_url": "https://www.qbitai.com/2026/03/393226.html",
      "published_at": "2026-03-30T00:41:45Z",
      "collected_at": "2026-03-30T03:08:00Z",
      "importance": 4,
      "merged_sources": []
    },
    {
      "id": "729eb8ee",
      "lang": "en",
      "title_en": "ScaleOps raises $130M to improve computing efficiency amid AI demand",
      "title_zh": "ScaleOps 融资 1.3 亿美元，自动化优化 AI 基础设施效率",
      "summary_en": "TechCrunch: ScaleOps raised $130M in a Series C round to tackle GPU shortages and soaring AI cloud costs by automating Kubernetes infrastructure optimization in real time, helping companies reduce compute waste amid surging AI workload demand.",
      "summary_zh": "TechCrunch：ScaleOps 完成 1.3 亿美元 C 轮融资，通过实时自动化 Kubernetes 基础设施优化，帮助企业应对 AI 需求激增带来的 GPU 短缺与云计算成本飙升问题，减少计算资源浪费。",
      "tags": [
        "融资",
        "AI基础设施"
      ],
      "source_name": "TechCrunch",
      "source_url": "https://techcrunch.com/2026/03/30/scaleops-130m-series-c-kubernetes-efficiency-ai-demand-funding/",
      "published_at": "2026-03-30T00:00:00Z",
      "collected_at": "2026-03-31T03:10:00Z",
      "importance": 3,
      "merged_sources": []
    },
    {
      "id": "198ab0ea",
      "lang": "en",
      "title_en": "Starcloud raises $170 million Series A to build data centers in space",
      "title_zh": "Starcloud 完成 1.7 亿美元 A 轮融资，计划建造太空数据中心",
      "summary_en": "TechCrunch: Starcloud raised $170M in a Series A round to build AI data centers in space, becoming the fastest Y Combinator startup to reach unicorn status just 17 months after demo day. The company aims to leverage orbital infrastructure to meet surging AI compute demand.",
      "summary_zh": "TechCrunch：Starcloud 完成 1.7 亿美元 A 轮融资，计划在太空建造 AI 数据中心，成为 YC 史上最快达到独角兽估值的初创公司（Demo Day 后仅 17 个月）。公司旨在通过轨道基础设施满足 AI 算力需求。",
      "tags": [
        "融资",
        "AI基础设施"
      ],
      "source_name": "TechCrunch",
      "source_url": "https://techcrunch.com/2026/03/30/starcloud-raises-170-million-series-ato-build-data-centers-in-space/",
      "published_at": "2026-03-30T00:00:00Z",
      "collected_at": "2026-03-31T03:10:00Z",
      "importance": 3,
      "merged_sources": []
    },
    {
      "id": "7012a6b0",
      "lang": "en",
      "title_en": "As more Americans adopt AI tools, fewer say they can trust the results",
      "title_zh": "美国 AI 使用率上升，但信任度反而下滑",
      "summary_en": "TechCrunch: A new poll finds that AI adoption is rising across the U.S., but trust in AI outputs is declining simultaneously. Most Americans remain concerned about AI transparency, regulation, and the technology's broader societal impact despite increased usage.",
      "summary_zh": "TechCrunch：最新民调显示，美国 AI 工具使用率持续上升，但用户对 AI 结果的信任度却同步下降。多数美国人对 AI 的透明度、监管及其社会影响表示担忧。",
      "tags": [
        "行业观察",
        "AI治理"
      ],
      "source_name": "TechCrunch",
      "source_url": "https://techcrunch.com/2026/03/30/ai-trust-adoption-poll-more-americans-adopt-tools-fewer-say-they-can-trust-the-results/",
      "published_at": "2026-03-30T00:00:00Z",
      "collected_at": "2026-03-31T03:10:00Z",
      "importance": 3,
      "merged_sources": []
    },
    {
      "id": "95a48935",
      "lang": "en",
      "title_en": "15% of Americans say they'd be willing to work for an AI boss, according to new poll",
      "title_zh": "调查：仅 15% 美国人愿意接受 AI 担任直属上司",
      "summary_en": "TechCrunch: A Quinnipiac University poll finds that only 15% of Americans say they'd be willing to have an AI program as their direct workplace supervisor, highlighting widespread hesitancy toward AI authority in professional settings.",
      "summary_zh": "TechCrunch：昆尼皮亚克大学民调显示，仅 15% 的美国人表示愿意接受 AI 程序担任直属上司，反映公众对 AI 在职场中行使管理权力仍持普遍观望态度。",
      "tags": [
        "行业观察"
      ],
      "source_name": "TechCrunch",
      "source_url": "https://techcrunch.com/2026/03/30/ai-work-boss-supervisor-us-quinnipiac-poll/",
      "published_at": "2026-03-30T00:00:00Z",
      "collected_at": "2026-03-31T03:10:00Z",
      "importance": 2,
      "merged_sources": []
    },
    {
      "id": "599447a1",
      "lang": "en",
      "title_en": "Popular AI gateway startup LiteLLM ditches controversial startup Delve",
      "title_zh": "AI 网关 LiteLLM 与安全供应商 Delve 切断合作",
      "summary_en": "TechCrunch: LiteLLM, a widely-used AI gateway, severed its partnership with security compliance startup Delve after Delve was hit by credential-stealing malware last week, raising concerns about supply chain security risks in the AI tooling ecosystem.",
      "summary_zh": "TechCrunch：广泛使用的 AI 网关 LiteLLM 宣布终止与安全合规初创公司 Delve 的合作。Delve 上周遭凭据窃取恶意软件攻击，事件引发对 AI 工具供应链安全风险的广泛关注。",
      "tags": [
        "AI安全",
        "行业观察"
      ],
      "source_name": "TechCrunch",
      "source_url": "https://techcrunch.com/2026/03/30/popular-ai-gateway-startup-litellm-ditches-controversial-startup-delve/",
      "published_at": "2026-03-30T00:00:00Z",
      "collected_at": "2026-03-31T03:10:00Z",
      "importance": 3,
      "merged_sources": []
    }
  ]
}