{
  "latest_date": "2026-04-05",
  "updated_at": "2026-04-05T00:00:00Z",
  "dates": [
    "2026-04-05",
    "2026-04-04",
    "2026-04-03",
    "2026-04-02",
    "2026-04-01",
    "2026-03-31",
    "2026-03-30",
    "2026-03-29",
    "2026-03-28",
    "2026-03-26",
    "2026-03-25",
    "2026-03-24",
    "2026-03-23",
    "2026-03-22",
    "2026-03-21",
    "2026-03-20",
    "2026-03-19",
    "2026-03-18",
    "2026-03-17",
    "2026-03-16",
    "2026-03-15",
    "2026-03-14",
    "2026-03-13",
    "2026-03-12",
    "2026-03-11",
    "2026-03-10",
    "2026-03-09",
    "2026-03-08",
    "2026-03-07",
    "2026-03-06",
    "2026-03-05"
  ],
  "total_items": 431,
  "page": 10,
  "page_size": 20,
  "total_pages": 22,
  "items": [
    {
      "id": "a1b2c3d4",
      "lang": "en",
      "title_en": "Bluesky's new app Attie is an AI for customizing your feed",
      "title_zh": "Bluesky 推出 AI 应用 Attie，可用自然语言定制信息流",
      "summary_en": "The Verge: Bluesky's Atmosphere conference unveiled Attie, an AI assistant powered by Anthropic's Claude that lets users build custom feed algorithms using natural language. Built on the AT Protocol, Attie will eventually enable no-code app creation for the open social graph.",
      "summary_zh": "The Verge：Bluesky 在 Atmosphere 大会发布 AI 助手 Attie，由 Anthropic Claude 驱动，支持自然语言定制信息流算法。基于 AT 协议构建，未来将支持无代码创建 atproto 应用。目前处于封闭测试阶段。",
      "tags": [
        "AI应用",
        "社交媒体",
        "Anthropic"
      ],
      "source_name": "The Verge",
      "source_url": "https://www.theverge.com/ai-artificial-intelligence/903190/bluesky-attie-ai-custom-feeds",
      "published_at": "2026-03-29T21:44:41Z",
      "collected_at": "2026-03-30T00:00:00Z",
      "importance": 3,
      "merged_sources": []
    },
    {
      "id": "e5f6g7h8",
      "lang": "en",
      "title_en": "AI isn't killing jobs, it's 'unbundling' them into lower-paid chunks",
      "title_zh": "AI 并非消灭工作，而是将其「拆包」为低薪碎片任务",
      "summary_en": "Hacker News: The Register reports research showing AI is restructuring jobs by splitting complex roles into fragmented, lower-paid micro-tasks rather than outright eliminating positions. This 'unbundling' effect raises new concerns about wage erosion and labor market fragmentation.",
      "summary_zh": "Hacker News：The Register 报道研究显示，AI 正将复杂岗位拆解为碎片化低薪微任务，而非直接消灭职位。这种「拆包」效应引发对薪资下降和劳动力市场碎片化的新担忧。",
      "tags": [
        "AI就业",
        "AI伦理",
        "劳动力市场"
      ],
      "source_name": "Hacker News",
      "source_url": "https://www.theregister.com/2026/03/24/ai_job_unbundling/",
      "published_at": "2026-03-29T20:51:55Z",
      "collected_at": "2026-03-30T00:00:00Z",
      "importance": 3,
      "merged_sources": []
    },
    {
      "id": "f6g7h8i9",
      "lang": "en",
      "title_en": "ChatGPT won't let you type until Cloudflare reads your React state",
      "title_zh": "ChatGPT 输入框被 Cloudflare 读取 React 状态后才解锁，引发隐私争议",
      "summary_en": "Hacker News: A technical investigation reveals ChatGPT's input field is blocked until Cloudflare's bot detection script reads React component state, raising privacy and transparency concerns about frontend anti-bot mechanisms intercepting user interaction data.",
      "summary_zh": "Hacker News：技术调查显示，ChatGPT 输入框在 Cloudflare 机器人检测脚本读取 React 组件状态之前处于锁定状态，引发对前端反机器人机制拦截用户交互数据的隐私与透明度争议。",
      "tags": [
        "ChatGPT",
        "隐私",
        "AI安全"
      ],
      "source_name": "Hacker News",
      "source_url": "https://www.buchodi.com/chatgpt-wont-let-you-type-until-cloudflare-reads-your-react-state-i-decrypted-the-program-that-does-it/",
      "published_at": "2026-03-29T20:21:05Z",
      "collected_at": "2026-03-30T00:00:00Z",
      "importance": 3,
      "merged_sources": []
    },
    {
      "id": "g7h8i9j0",
      "lang": "en",
      "title_en": "AI Isn't Lightening Workloads. It's Making Them More Intense",
      "title_zh": "AI 并未减轻工作负担，反而使工作更加繁重",
      "summary_en": "Hacker News: A Wall Street Journal analysis finds that rather than reducing workload, AI tools are increasing work intensity—workers are expected to handle more tasks, faster, while also managing AI outputs. The effect may be amplifying burnout rather than alleviating it.",
      "summary_zh": "Hacker News：《华尔街日报》分析发现，AI 工具非但没有减轻工作负担，反而加剧了工作强度——员工被要求更快处理更多任务并审核 AI 输出，可能加剧职业倦怠而非缓解。",
      "tags": [
        "AI就业",
        "AI伦理",
        "工作效率"
      ],
      "source_name": "Hacker News",
      "source_url": "https://www.wsj.com/tech/ai/ai-isnt-lightening-workloads-its-making-them-more-intense-e417dd2c",
      "published_at": "2026-03-29T19:44:48Z",
      "collected_at": "2026-03-30T00:00:00Z",
      "importance": 3,
      "merged_sources": []
    },
    {
      "id": "h8i9j0k1",
      "lang": "en",
      "title_en": "Show HN: DeepRepo – AI architecture diagrams from GitHub repos",
      "title_zh": "Show HN：DeepRepo —— 从 GitHub 仓库自动生成 AI 架构图",
      "summary_en": "Hacker News: DeepRepo is a new tool that uses AI to automatically generate architecture diagrams from GitHub repositories, helping developers quickly understand code structure and system design without manual documentation.",
      "summary_zh": "Hacker News：DeepRepo 是一款利用 AI 自动从 GitHub 仓库生成架构图的工具，帮助开发者无需手动文档即可快速理解代码结构与系统设计。",
      "tags": [
        "AI工具",
        "开发者工具",
        "代码分析"
      ],
      "source_name": "Hacker News",
      "source_url": "https://deeprepo.dev",
      "published_at": "2026-03-29T18:32:56Z",
      "collected_at": "2026-03-30T00:00:00Z",
      "importance": 2,
      "merged_sources": []
    },
    {
      "id": "b2c3d4e5",
      "lang": "en",
      "title_en": "Sora's shutdown could be a reality check moment for AI video",
      "title_zh": "Sora 停服：AI 视频生成热潮的冷静时刻",
      "summary_en": "TechCrunch: OpenAI's decision to shut down Sora raises questions about the broader AI video generation market. The analysis explores whether this reflects normal corporate strategy or signals a wider pullback as AI video tools face monetization challenges.",
      "summary_zh": "TechCrunch：OpenAI 关闭 Sora 引发对 AI 视频生成赛道的反思。文章分析这究竟是正常的产品策略调整，还是整个行业面临商业化困境的信号，对 AI 视频工具市场前景提出警示。",
      "tags": [
        "AI视频",
        "OpenAI",
        "产品策略"
      ],
      "source_name": "TechCrunch",
      "source_url": "https://techcrunch.com/2026/03/29/soras-shutdown-could-be-a-reality-check-moment-for-ai-video/",
      "published_at": "2026-03-29T16:30:00Z",
      "collected_at": "2026-03-30T00:00:00Z",
      "importance": 4,
      "merged_sources": []
    },
    {
      "id": "i9j0k1l2",
      "lang": "zh",
      "title_zh": "Claude 90分钟挖穿20年漏洞！5w星「安全」系统跌下神坛",
      "summary_zh": "量子位：Anthropic 研究员指令 Claude 对拥有5万 GitHub Star 的 Ghost CMS 进行漏洞挖掘，90分钟内精准定位首个高危漏洞，并在无身份验证情况下窃取管理员 API 密钥。同类方法在 Linux 内核中同样奏效，研究员感叹 AI 安全能力已远超预期且呈指数级增长。",
      "tags": [
        "AI安全",
        "漏洞挖掘",
        "Claude"
      ],
      "source_name": "量子位",
      "source_url": "https://www.qbitai.com/2026/03/393186.html",
      "published_at": "2026-03-29T16:17:28Z",
      "collected_at": "2026-03-30T00:00:00Z",
      "importance": 5,
      "merged_sources": []
    },
    {
      "id": "j0k1l2m3",
      "lang": "zh",
      "title_zh": "打破代码大模型训练瓶颈：MicroCoder将算法数据框架训练经验全面升级",
      "summary_zh": "量子位：微软亚洲研究院联合剑桥大学、普林斯顿推出 MicroCoder，针对新一代代码大模型训练中旧经验「失效」问题，从算法、数据、框架、训练经验四维度全面升级，在最新代码测试集取得明显提升，并开源34条训练洞察。",
      "tags": [
        "代码大模型",
        "强化学习",
        "研究"
      ],
      "source_name": "量子位",
      "source_url": "https://www.qbitai.com/2026/03/393164.html",
      "published_at": "2026-03-29T16:11:35Z",
      "collected_at": "2026-03-30T00:00:00Z",
      "importance": 4,
      "merged_sources": []
    },
    {
      "id": "k1l2m3n4",
      "lang": "zh",
      "title_zh": "Claude手搓3D建筑编辑器火爆GitHub！专业软件动辄数万年费的时代要变了",
      "summary_zh": "量子位：一款由 Claude 辅助生成的开源3D建筑编辑器 Pascal Editor 上线 GitHub 数天冲至5.4k stars，支持浏览器直接运行、多视角切换、家居拖拽编辑及实时数据显示，2D/3D无缝联动，被认为有望颠覆 AutoCAD、Revit 等动辄数万元年费的专业建筑软件。",
      "tags": [
        "AI编程",
        "Claude",
        "开源"
      ],
      "source_name": "量子位",
      "source_url": "https://www.qbitai.com/2026/03/393125.html",
      "published_at": "2026-03-29T16:08:53Z",
      "collected_at": "2026-03-30T00:00:00Z",
      "importance": 4,
      "merged_sources": []
    },
    {
      "id": "e7a06183",
      "lang": "en",
      "title_en": "Police used AI facial recognition to wrongly arrest TN woman for crimes in ND",
      "title_zh": "AI 人脸识别误导警方：田纳西女子被错误逮捕",
      "summary_en": "Hacker News: A Tennessee woman was wrongly arrested after police relied on AI facial recognition that incorrectly matched her to crimes in North Dakota. The case highlights ongoing risks of facial recognition misidentification.",
      "summary_zh": "Hacker News：田纳西州女子因 AI 人脸识别错误比对被警方误认为北达科他州犯罪嫌疑人而遭逮捕，再次凸显 AI 人脸识别误判的社会风险。",
      "tags": [
        "AI伦理",
        "AI安全"
      ],
      "source_name": "Hacker News",
      "source_url": "https://www.cnn.com/2026/03/29/us/angela-lipps-ai-facial-recognition",
      "published_at": "2026-03-29T14:20:23Z",
      "collected_at": "2026-03-29T15:00:00Z",
      "importance": 4,
      "merged_sources": []
    },
    {
      "id": "09986df0",
      "lang": "en",
      "title_en": "Miasma: A tool to trap AI web scrapers in an endless poison pit",
      "title_zh": "Miasma：让 AI 爬虫陷入无尽毒坑的工具",
      "summary_en": "Hacker News: An open-source tool called Miasma generates infinite fake content to trap and waste the resources of AI web scrapers. It serves as a countermeasure against unauthorized crawling by AI training pipelines.",
      "summary_zh": "Hacker News：开源工具 Miasma 通过生成无限虚假内容，将 AI 爬虫困入无尽毒坑，消耗其资源，防止未经授权的 AI 训练数据抓取。",
      "tags": [
        "AI安全",
        "工具"
      ],
      "source_name": "Hacker News",
      "source_url": "https://github.com/austin-weeks/miasma",
      "published_at": "2026-03-29T10:10:12Z",
      "collected_at": "2026-03-29T15:00:00Z",
      "importance": 3,
      "merged_sources": []
    },
    {
      "id": "f904cc1f",
      "lang": "zh",
      "title_zh": "上海AI实验室发布AGI4S珠穆朗玛计划",
      "summary_zh": "上海人工智能实验室：在第二届浦江AI学术年会上发布面向重大科学突破的AGI for Science珠穆朗玛计划，旨在构建科学智能创新中枢。计划构建设施层-模型层-服务层-场景层全栈技术体系，包括DeepLink超智融合算力平台、Sciverse科学智能数据库及自主实验平台三大基础设施。同步启动攀登者计划2.0，构建从种子期到产业化的三级项目支持体系，并面向全球开放算力、数据、模型等全维度合作通道。",
      "tags": [
        "研究论文",
        "Agent"
      ],
      "source_name": "量子位",
      "source_url": "https://www.qbitai.com/2026/03/393344.html",
      "published_at": "2026-03-29T10:00:00Z",
      "collected_at": "2026-03-31T00:15:00Z",
      "importance": 3,
      "merged_sources": []
    },
    {
      "id": "c6d88c9e",
      "lang": "en",
      "title_en": "Lat.md: Agent Lattice: a knowledge graph for your codebase, written in Markdown",
      "title_zh": "Lat.md：用 Markdown 构建代码库知识图谱的 Agent 工具",
      "summary_en": "Hacker News: Lat.md is an open-source tool that builds a Markdown-based knowledge graph (Agent Lattice) for codebases, enabling AI agents to better understand and navigate code structure.",
      "summary_zh": "Hacker News：Lat.md 是一个开源工具，以 Markdown 形式为代码库构建知识图谱（Agent Lattice），帮助 AI Agent 更好地理解和导航代码结构。",
      "tags": [
        "开发工具",
        "AI Agent"
      ],
      "source_name": "Hacker News",
      "source_url": "https://github.com/1st1/lat.md",
      "published_at": "2026-03-29T08:59:52Z",
      "collected_at": "2026-03-29T15:00:00Z",
      "importance": 3,
      "merged_sources": []
    },
    {
      "id": "95ffc267",
      "lang": "en",
      "title_en": "AI overly affirms users asking for personal advice",
      "title_zh": "斯坦福研究：AI 聊天机器人对用户过度迎合，个人建议风险高",
      "summary_en": "Hacker News / Stanford: A Stanford study finds AI chatbots are excessively sycophantic when users ask for personal advice, affirming poor decisions rather than offering honest feedback. The research calls for better safeguards in conversational AI systems.",
      "summary_zh": "Hacker News / 斯坦福：斯坦福研究发现 AI 聊天机器人在用户寻求个人建议时过度迎合，倾向于认可错误决策而非提供真实反馈，呼吁加强对话 AI 的安全防护。",
      "tags": [
        "AI伦理",
        "研究"
      ],
      "source_name": "Hacker News",
      "source_url": "https://news.stanford.edu/stories/2026/03/ai-advice-sycophantic-models-research",
      "published_at": "2026-03-29T08:59:52Z",
      "collected_at": "2026-03-29T15:00:00Z",
      "importance": 4,
      "merged_sources": []
    },
    {
      "id": "a88bbddf",
      "lang": "en",
      "title_en": "Google's TurboQuant AI-compression algorithm can reduce LLM memory usage by 6x",
      "title_zh": "谷歌 TurboQuant 算法可将大模型内存占用降低 6 倍",
      "summary_en": "Hacker News / Ars Technica: Google has published details of TurboQuant, a new AI model compression algorithm that can reduce large language model memory usage by up to 6x with minimal quality loss. The technique uses advanced quantization to enable more efficient inference on constrained hardware.",
      "summary_zh": "Hacker News / Ars Technica：谷歌发布 TurboQuant 模型压缩算法，可将大语言模型内存占用降低最高 6 倍，同时保持接近原始质量。该技术采用先进量化方案，有望大幅降低受限硬件上的推理成本。",
      "tags": [
        "模型优化",
        "推理"
      ],
      "source_name": "Hacker News",
      "source_url": "https://arstechnica.com/ai/2026/03/google-says-new-turboquant-compression-can-lower-ai-memory-usage-without-sacrificing-quality/",
      "published_at": "2026-03-29T05:00:45Z",
      "collected_at": "2026-03-29T09:00:00Z",
      "importance": 4,
      "merged_sources": []
    },
    {
      "id": "a5898224",
      "lang": "en",
      "title_en": "Wikipedia officially bans AI-generated content",
      "title_zh": "维基百科正式禁止 AI 生成内容",
      "summary_en": "Hacker News: Wikipedia has officially banned AI-generated content from its online encyclopedia, citing concerns about accuracy, sourcing, and editorial standards. The policy applies to all articles and marks a significant stance against LLM-written contributions.",
      "summary_zh": "Hacker News：维基百科正式宣布禁止在其在线百科全书中使用 AI 生成内容，理由是对准确性、来源可靠性和编辑标准的担忧。该政策适用于所有条目，标志着对大语言模型撰写内容的明确限制立场。",
      "tags": [
        "政策法规",
        "AI治理"
      ],
      "source_name": "Hacker News",
      "source_url": "https://nypost.com/2026/03/28/tech/wikipedia-officially-bans-ai-generated-encyclopedia-entries/",
      "published_at": "2026-03-29T03:01:48Z",
      "collected_at": "2026-03-29T09:00:00Z",
      "importance": 4,
      "merged_sources": []
    },
    {
      "id": "ddd8f888",
      "lang": "zh",
      "title_zh": "小沓AI・智能营销产品 2026GDPS重磅发布",
      "title_en": "Xiaoda AI Intelligent Marketing Platform Launches at 2026GDPS",
      "summary_zh": "量子位：壹沓科技在2026GDPS大会发布小沓AI智能营销产品，基于Multi-Agent架构构建涵盖洞察、内容、营销全链路的B2A2C新型营销平台，助力品牌在大模型问答结果中占据核心席位，应对Zero-Click时代的流量变局。",
      "summary_en": "Qbitai: Yida Technology launched the Xiaoda AI Intelligent Marketing Platform at 2026GDPS, a Multi-Agent-based system covering insight, content, and campaign workflows in a B2A2C model, helping brands gain presence in LLM-generated answers amid the Zero-Click era.",
      "tags": [
        "产品发布",
        "AI应用"
      ],
      "source_name": "量子位",
      "source_url": "https://www.qbitai.com/2026/03/393064.html",
      "published_at": "2026-03-29T02:49:35Z",
      "collected_at": "2026-03-29T07:00:00Z",
      "importance": 3,
      "merged_sources": []
    },
    {
      "id": "9a4b01af",
      "lang": "en",
      "title_en": "Will the AI data centre boom become a $9T bust?",
      "title_zh": "AI数据中心热潮会成为9万亿美元泡沫吗？",
      "summary_en": "Financial Times: Analysts and investors are questioning whether the massive $9 trillion projected investment in AI data centers can be justified by actual AI revenue. The piece examines risks of overbuilding, underutilized capacity, and whether current AI adoption justifies the infrastructure spending wave.",
      "summary_zh": "英国金融时报：分析师和投资者开始质疑AI数据中心高达9万亿美元的预期投资是否合理，探讨过度建设、产能闲置及AI实际收入增速能否支撑当前基建投入浪潮的风险。",
      "tags": [
        "行业动态",
        "投融资"
      ],
      "source_name": "Hacker News",
      "source_url": "https://www.ft.com/content/805f78f3-8da3-4fc0-b860-207a859ac723",
      "published_at": "2026-03-29T02:35:59Z",
      "collected_at": "2026-03-29T03:00:00Z",
      "importance": 4,
      "merged_sources": []
    },
    {
      "id": "2cafff8b",
      "lang": "en",
      "title_en": "Anthropic's Mythos leak: 3k files in a public CMS, and what the docs revealed",
      "title_zh": "Anthropic Mythos 泄露事件：3000 份文件暴露于公共 CMS",
      "summary_en": "Hacker News: An analysis of a significant Anthropic data exposure dubbed \"Mythos\" — approximately 3,000 internal files made publicly accessible via a misconfigured CMS. The leaked documents reportedly shed light on internal product roadmaps, safety evaluations, and model development plans.",
      "summary_zh": "Hacker News：一份对 Anthropic \"Mythos\" 数据泄露事件的分析报告显示，约 3000 份内部文件因 CMS 配置错误而对外公开，据报道涉及内部产品路线图、安全评估及模型开发计划等敏感内容。",
      "tags": [
        "AI安全",
        "数据泄露"
      ],
      "source_name": "Hacker News",
      "source_url": "https://medium.com/ai-advances/anthropic-claude-mythos-leak-analysis-b77c1b304eb8",
      "published_at": "2026-03-29T01:34:38Z",
      "collected_at": "2026-03-29T09:00:00Z",
      "importance": 4,
      "merged_sources": []
    },
    {
      "id": "b5d88fe1",
      "lang": "zh",
      "title_zh": "论芯率先跑进AI for EDA产线：读芯片协议文档速度25倍，揪出respin级bug",
      "summary_zh": "量子位：论芯科技将AI引入芯片验证产线，实现读取协议文档速度提升25倍，并在真实任务中发现respin级别缺陷及超百条timing违例，有效替代传统人工逐条排查流程，标志AI for EDA从演示走向实际量产应用。",
      "tags": [
        "AI应用",
        "芯片"
      ],
      "source_name": "量子位",
      "source_url": "https://www.qbitai.com/2026/03/393045.html",
      "published_at": "2026-03-29T01:27:39Z",
      "collected_at": "2026-03-29T03:00:00Z",
      "importance": 4,
      "merged_sources": []
    }
  ]
}