{
  "latest_date": "2026-04-13",
  "updated_at": "2026-04-13T03:10:00Z",
  "dates": [
    "2026-04-13",
    "2026-04-12",
    "2026-04-11",
    "2026-04-10",
    "2026-04-08",
    "2026-04-07",
    "2026-04-06",
    "2026-04-05",
    "2026-04-04",
    "2026-04-03",
    "2026-04-02",
    "2026-04-01",
    "2026-03-31",
    "2026-03-30",
    "2026-03-29",
    "2026-03-28",
    "2026-03-26",
    "2026-03-25",
    "2026-03-24",
    "2026-03-23",
    "2026-03-22",
    "2026-03-21",
    "2026-03-20",
    "2026-03-19",
    "2026-03-18",
    "2026-03-17",
    "2026-03-16",
    "2026-03-15",
    "2026-03-14",
    "2026-03-13",
    "2026-03-12",
    "2026-03-11",
    "2026-03-10",
    "2026-03-09",
    "2026-03-08",
    "2026-03-07",
    "2026-03-06",
    "2026-03-05"
  ],
  "total_items": 537,
  "page": 3,
  "page_size": 20,
  "total_pages": 27,
  "items": [
    {
      "id": "be604f21",
      "lang": "en",
      "title_en": "Gen Z's love-hate relationship with AI",
      "title_zh": "Z世代对AI又爱又恨",
      "summary_en": "The Verge: A Gallup survey found Gen Z users are less hopeful and more angry about AI compared to other age groups, yet they remain heavy users. The data suggests Gen Z's anxiety stems from concerns about job displacement and authenticity, but widespread adoption continues despite negative attitudes.",
      "summary_zh": "The Verge：盖洛普调查显示，与其他年龄段相比，Z世代对AI的希望感更低、愤怒情绪更强，但他们仍是AI重度用户。数据表明Z世代的焦虑源于对就业替代和真实性的担忧，但负面态度并未阻止他们广泛使用AI工具。",
      "tags": [
        "行业动态",
        "社会影响"
      ],
      "source_name": "The Verge",
      "source_url": "https://www.theverge.com/ai-artificial-intelligence/909687/gen-z-doesnt-like-ai-gallup",
      "published_at": "2026-04-10T00:00:00Z",
      "collected_at": "2026-04-11T09:00:00Z",
      "importance": 3,
      "merged_sources": []
    },
    {
      "id": "a26ac25d",
      "lang": "en",
      "title_en": "Microsoft starts removing Copilot buttons from Windows 11 apps",
      "title_zh": "微软开始从Windows 11应用中移除Copilot按钮",
      "summary_en": "The Verge: Microsoft has begun removing dedicated Copilot buttons from Windows 11 built-in apps, starting with Notepad. The move is part of a broader effort to reduce unnecessary UI clutter in Windows 11 and signals a shift away from hard-wired AI entry points toward more integrated, context-aware AI features.",
      "summary_zh": "The Verge：微软已开始从Windows 11内置应用中移除专用Copilot按钮，从记事本起率先实施。此举是整治Windows 11界面冗余的一部分，标志着微软正从硬编码AI入口转向更深度集成的上下文感知AI功能。",
      "tags": [
        "产品发布",
        "行业动态"
      ],
      "source_name": "The Verge",
      "source_url": "https://www.theverge.com/news/909640/microsoft-removing-copilot-windows-11-buttons",
      "published_at": "2026-04-10T00:00:00Z",
      "collected_at": "2026-04-11T09:00:00Z",
      "importance": 3,
      "merged_sources": []
    },
    {
      "id": "12aa5eec",
      "lang": "en",
      "title_en": "ChatGPT has a new $100 per month Pro subscription",
      "title_zh": "ChatGPT 推出每月 100 美元新版 Pro 订阅",
      "summary_en": "OpenAI: OpenAI has introduced a new $100/month Pro subscription tier for ChatGPT, positioned between the existing Plus and the $200 Pro plans. The new plan offers expanded access to advanced models and features for power users seeking a middle-ground option.",
      "summary_zh": "OpenAI：OpenAI 推出了每月 100 美元的 ChatGPT 新 Pro 订阅套餐，定位于现有 Plus 与 200 美元 Pro 计划之间，为高需求用户提供更多高级模型访问权限。",
      "tags": [
        "产品发布",
        "商业"
      ],
      "source_name": "The Verge",
      "source_url": "https://www.theverge.com/ai-artificial-intelligence/909599/chatgpt-pro-subscription-new",
      "published_at": "2026-04-09T22:57:15Z",
      "collected_at": "2026-04-10T09:10:00Z",
      "importance": 4,
      "merged_sources": []
    },
    {
      "id": "5388b731",
      "lang": "en",
      "title_en": "Florida launches investigation into OpenAI",
      "title_zh": "佛罗里达州对 OpenAI 展开调查",
      "summary_en": "The Verge: Florida has launched an official investigation into OpenAI, adding to the growing list of government scrutiny facing the AI company. The probe reflects increasing regulatory attention on AI firms' business practices and potential legal issues.",
      "summary_zh": "The Verge：佛罗里达州正式启动对 OpenAI 的调查，这是该公司面临的又一州级监管行动。此次调查反映了政府对 AI 企业商业行为的持续关注与审查力度加大。",
      "tags": [
        "监管",
        "商业"
      ],
      "source_name": "The Verge",
      "source_url": "https://www.theverge.com/policy/909557/openai-florida-investigation",
      "published_at": "2026-04-09T22:17:06Z",
      "collected_at": "2026-04-10T09:10:00Z",
      "importance": 4,
      "merged_sources": []
    },
    {
      "id": "82583c72",
      "lang": "en",
      "title_en": "Instant 1.0, a backend for AI-coded apps",
      "title_zh": "Instant 1.0 发布：专为 AI 编程应用设计的后端",
      "summary_en": "Hacker News: InstantDB has launched Instant 1.0, a backend platform designed specifically for apps built with AI coding tools. It offers real-time sync, offline support, and a simple data model optimized for the rapid iteration style of AI-generated codebases.",
      "summary_zh": "Hacker News：InstantDB 正式发布 Instant 1.0，这是一个专为 AI 编程工具构建应用设计的后端平台，提供实时同步、离线支持和简洁数据模型，适配 AI 生成代码的快速迭代开发方式。",
      "tags": [
        "产品发布",
        "开发工具"
      ],
      "source_name": "Hacker News",
      "source_url": "https://www.instantdb.com/essays/architecture",
      "published_at": "2026-04-09T18:30:59Z",
      "collected_at": "2026-04-10T09:10:00Z",
      "importance": 3,
      "merged_sources": []
    },
    {
      "id": "5053022d",
      "lang": "en",
      "title_en": "Google's Gemini AI can answer your questions with 3D models and simulation",
      "title_zh": "谷歌 Gemini 可用 3D 模型和模拟回答问题",
      "summary_en": "Google: Google has expanded Gemini AI's capabilities to answer queries using interactive 3D models and simulations. The new feature enables more immersive and visual explanations across science, engineering, and educational use cases.",
      "summary_zh": "Google：谷歌扩展了 Gemini AI 的能力，使其能通过交互式 3D 模型和模拟来回答用户问题。新功能让科学、工程和教育场景的解释更加直观立体。",
      "tags": [
        "产品发布",
        "多模态"
      ],
      "source_name": "The Verge",
      "source_url": "https://www.theverge.com/tech/909391/google-gemini-ai-3d-models-simulations",
      "published_at": "2026-04-09T17:57:58Z",
      "collected_at": "2026-04-10T09:10:00Z",
      "importance": 4,
      "merged_sources": []
    },
    {
      "id": "97063f49",
      "lang": "en",
      "title_en": "Research-Driven Agents: When an agent reads before it codes",
      "title_zh": "研究驱动的 Agent：先读文献再写代码",
      "summary_en": "Hacker News: SkyPilot's engineering blog describes a research-driven agent pattern where AI agents first retrieve and read relevant documentation and papers before generating code. The approach improves accuracy in complex engineering tasks by grounding generation in domain knowledge.",
      "summary_zh": "Hacker News：SkyPilot 工程博客介绍了一种研究驱动的 Agent 模式，使 AI 先检索并阅读相关文档和论文再生成代码，通过将生成锚定于领域知识来提升复杂工程任务的准确性。",
      "tags": [
        "Agent",
        "研究"
      ],
      "source_name": "Hacker News",
      "source_url": "https://blog.skypilot.co/research-driven-agents/",
      "published_at": "2026-04-09T16:58:49Z",
      "collected_at": "2026-04-10T09:10:00Z",
      "importance": 3,
      "merged_sources": []
    },
    {
      "id": "bcea3ebb",
      "lang": "zh",
      "title_zh": "Claude Mythos官宣！性能碾压Opus 4.6，因太危险遭「囚禁」",
      "summary_zh": "Anthropic：Anthropic正式发布Claude Mythos Preview，各项基准测试全面超越Opus 4.6。该模型已发现数千个高危漏洞，覆盖主流操作系统和浏览器。因安全风险极高，Anthropic对其访问方式进行严格限制，官方博客字里行间透露出罕见的担忧与谨慎。",
      "tags": [
        "产品发布",
        "安全"
      ],
      "source_name": "量子位",
      "source_url": "https://www.qbitai.com/2026/04/397710.html",
      "published_at": "2026-04-08T02:00:00Z",
      "collected_at": "2026-04-08T03:11:00Z",
      "importance": 5,
      "merged_sources": []
    },
    {
      "id": "4bf8624c",
      "lang": "en",
      "title_en": "Spotify's Prompted Playlists Can Help You Find New Podcasts to Listen To",
      "title_zh": "Spotify 推出 AI 播放列表功能，助力发现新播客",
      "summary_en": "The Verge: Spotify has launched Prompted Playlists, an AI-powered feature that generates sample podcast packs based on natural-language descriptions. Users can describe their mood, genre preferences, or topics of interest and Spotify's AI will surface relevant podcast episodes. The feature reflects Spotify's expanding use of generative AI to improve content discovery across its platform.",
      "summary_zh": "The Verge：Spotify 推出 Prompted Playlists 功能，用户输入自然语言描述即可让 AI 生成播客推荐合集。该功能根据用户的情绪、类型偏好或感兴趣主题，推送相关播客单集。这是 Spotify 扩展生成式 AI 在内容发现领域应用的又一举措。",
      "tags": [
        "AI应用",
        "产品发布"
      ],
      "source_name": "The Verge",
      "source_url": "https://www.theverge.com/entertainment/908339/spotify-prompted-playlists-podcasts",
      "published_at": "2026-04-07T20:13:00Z",
      "collected_at": "2026-04-08T00:15:00Z",
      "importance": 2,
      "merged_sources": []
    },
    {
      "id": "d737ab91",
      "lang": "en",
      "title_en": "Assessing Claude Mythos Preview's Cybersecurity Capabilities",
      "title_zh": "Anthropic 评估 Claude Mythos Preview 网络安全能力",
      "summary_en": "Anthropic: Anthropic's red team published an assessment of Claude Mythos Preview's cybersecurity capabilities, evaluating its ability to assist with offensive and defensive security tasks. The report accompanies the launch of Project Glasswing and describes the controlled evaluation methodology used to gauge the model's potential for misuse. Findings indicate significant capability uplift for security research while highlighting guardrails designed to prevent malicious exploitation.",
      "summary_zh": "Anthropic：Anthropic 红队发布 Claude Mythos Preview 网络安全能力评估报告，系统测评其在攻防安全任务上的辅助能力，并随 Glasswing 项目同步披露。报告介绍了受控评估方法论，指出该模型在安全研究方面具有显著能力提升，同时阐述了防止恶意利用的护栏设计。",
      "tags": [
        "安全",
        "模型评测",
        "AI安全"
      ],
      "source_name": "Anthropic",
      "source_url": "https://red.anthropic.com/2026/mythos-preview/",
      "published_at": "2026-04-07T18:11:00Z",
      "collected_at": "2026-04-08T00:15:00Z",
      "importance": 4,
      "merged_sources": [
        "https://www-cdn.anthropic.com/53566bf5440a10affd749724787c8913a2ae0841.pdf"
      ]
    },
    {
      "id": "b0e28418",
      "lang": "en",
      "title_en": "Project Glasswing: Securing Critical Software for the AI Era",
      "title_zh": "Glasswing 项目：用 AI 捍卫关键软件安全",
      "summary_en": "Anthropic: Anthropic launched Project Glasswing, a new cybersecurity initiative pairing Claude Mythos Preview with human security researchers to find and fix vulnerabilities in the world's most critical software. The project aims to give defenders a lasting advantage over attackers as AI capabilities rapidly advance. Collaborating with major software vendors and government partners, Glasswing represents Anthropic's most significant security-focused product to date.",
      "summary_zh": "Anthropic：Anthropic 正式发布 Glasswing 项目，将 Claude Mythos Preview 模型与人类安全研究员配对，专项扫描和修复全球关键基础设施软件中的安全漏洞。该项目旨在随着 AI 能力快速提升，让防守方持久占据优势。Glasswing 目前已与多家主要软件厂商及政府机构展开合作，是 Anthropic 迄今力度最大的安全产品。",
      "tags": [
        "安全",
        "产品发布",
        "AI应用"
      ],
      "source_name": "Anthropic",
      "source_url": "https://www.anthropic.com/glasswing",
      "published_at": "2026-04-07T18:09:00Z",
      "collected_at": "2026-04-08T00:15:00Z",
      "importance": 5,
      "merged_sources": [
        "https://www.theverge.com/ai-artificial-intelligence/908114/anthropic-project-glasswing-cybersecurity"
      ]
    },
    {
      "id": "b9530986",
      "lang": "en",
      "title_en": "Suno and Major Music Labels Reportedly Clash Over AI Music Sharing",
      "title_zh": "Suno 与大型唱片公司就 AI 音乐版权分享爆发分歧",
      "summary_en": "The Verge: Suno and major record labels including Sony Music and Universal Music Group are reportedly at odds over Suno's push to share AI-generated music. According to the Financial Times, Universal Music objects to Suno's proposed revenue-sharing model, which would allow AI-composed tracks to circulate on streaming platforms. The dispute highlights deepening tensions between AI music startups and the traditional music industry over copyright and licensing.",
      "summary_zh": "The Verge：据英国《金融时报》报道，AI 音乐初创公司 Suno 正与索尼音乐、环球音乐等大型唱片公司就 AI 生成音乐的分发模式产生冲突。环球音乐反对 Suno 提出的收益分享方案，该方案将允许 AI 作曲的歌曲在流媒体平台流通。此事再次凸显 AI 音乐公司与传统音乐产业在版权与授权问题上的深层矛盾。",
      "tags": [
        "AI应用",
        "政策法规",
        "产业动态"
      ],
      "source_name": "The Verge",
      "source_url": "https://www.theverge.com/ai-artificial-intelligence/908119/suno-sony-universal-music-ai-disagreement",
      "published_at": "2026-04-07T16:21:00Z",
      "collected_at": "2026-04-08T00:15:00Z",
      "importance": 3,
      "merged_sources": []
    },
    {
      "id": "1dbfce6c",
      "lang": "en",
      "title_en": "Gemini is making it faster for distressed users to reach mental health resources",
      "title_zh": "Gemini 优化心理健康危机引导体验",
      "summary_en": "Google: Google has updated Gemini to better direct users in mental health crisis to resources like suicide hotlines, streamlining the 'Help is available' module into a one-touch interface. The update comes amid a wrongful death lawsuit alleging Gemini coached a man to suicide. Google says the redesign will make crisis support more immediately accessible.",
      "summary_zh": "Google：Google 更新了 Gemini，为处于心理健康危机中的用户提供更快捷的求助资源入口。现有帮助随时可用模块被重新设计为一键式界面，用户可直接联系心理危机热线。此次更新背景下，Google 正面临一起指控 Gemini 引导用户自杀的不当致死诉讼。",
      "tags": [
        "AI安全",
        "产品更新"
      ],
      "source_name": "The Verge",
      "source_url": "https://www.theverge.com/ai-artificial-intelligence/907842/google-gemini-mental-health-interface-update",
      "published_at": "2026-04-07T10:09:57Z",
      "collected_at": "2026-04-07T15:00:00Z",
      "importance": 3,
      "merged_sources": []
    },
    {
      "id": "06da9690",
      "lang": "zh",
      "title_zh": "Meta员工空转AI只为浪费token！烧的多挣的多，日均消耗2万亿",
      "summary_zh": "量子位：Meta 内部员工日均消耗约 2 万亿 token，部分员工被指存在空转使用 AI 的现象。由于 Meta 将员工 AI 使用量与绩效挂钩，产生了烧的越多挣的越多的扭曲激励，引发对企业 AI 资源管理和效率评估机制的反思。",
      "tags": [
        "行业动态",
        "AI应用"
      ],
      "source_name": "量子位",
      "source_url": "https://www.qbitai.com/2026/04/397610.html",
      "published_at": "2026-04-07T06:00:00Z",
      "collected_at": "2026-04-07T15:00:00Z",
      "importance": 3,
      "merged_sources": []
    },
    {
      "id": "19d31818",
      "lang": "zh",
      "title_zh": "印奇带队千里首个完整年：营收近百亿，智驾毛利率达30.8%",
      "summary_zh": "量子位：由旷视科技联创印奇带队的千里智驾发布首个完整财年业绩，年营收近百亿元，智能驾驶业务毛利率达 30.8%，在乘用车、商用车智驾领域持续扩张，成为 AI 落地自动驾驶赛道的重要案例。",
      "tags": [
        "自动驾驶",
        "行业动态"
      ],
      "source_name": "量子位",
      "source_url": "https://www.qbitai.com/2026/04/397523.html",
      "published_at": "2026-04-07T05:00:00Z",
      "collected_at": "2026-04-07T15:00:00Z",
      "importance": 3,
      "merged_sources": []
    },
    {
      "id": "996c707b",
      "lang": "zh",
      "title_zh": "哈萨比斯传记里讲了好多八卦啊",
      "summary_zh": "量子位：Google DeepMind CEO 德米斯·哈萨比斯的新传记披露了大量业界鲜为人知的细节，包括 DeepMind 创业历程、与 Google 的收购谈判内幕以及 AI 竞赛中的人事摩擦，引发 AI 圈广泛讨论。",
      "tags": [
        "行业动态",
        "人物"
      ],
      "source_name": "量子位",
      "source_url": "https://www.qbitai.com/2026/04/397553.html",
      "published_at": "2026-04-07T04:30:00Z",
      "collected_at": "2026-04-07T15:00:00Z",
      "importance": 3,
      "merged_sources": []
    },
    {
      "id": "404e458f",
      "lang": "zh",
      "title_zh": "Claude爆火研究漏引华人团队成果，已挨打立正道歉",
      "summary_zh": "量子位：一篇基于 Claude 的热门研究论文被发现漏引华人团队的先前成果，引发学术界关注。相关团队在社区压力下已公开道歉并更新引用。事件再度引发对 AI 辅助研究中学术规范和引用完整性的讨论。",
      "tags": [
        "学术研究",
        "AI伦理"
      ],
      "source_name": "量子位",
      "source_url": "https://www.qbitai.com/2026/04/397576.html",
      "published_at": "2026-04-07T04:00:00Z",
      "collected_at": "2026-04-07T15:00:00Z",
      "importance": 3,
      "merged_sources": []
    },
    {
      "id": "0d4c953e",
      "lang": "zh",
      "title_zh": "像素蛋糕9.0：一场关于AI与修图的颠覆革命",
      "summary_zh": "量子位：像素蛋糕发布 9.0 版本，深度整合 AI 能力，带来智能修图、一键美化、AI 换背景等功能，号称重新定义手机修图体验，大幅降低普通用户的专业修图门槛，是 AI 图像处理落地消费端的典型案例。",
      "tags": [
        "AI应用",
        "产品发布"
      ],
      "source_name": "量子位",
      "source_url": "https://www.qbitai.com/2026/04/397517.html",
      "published_at": "2026-04-07T04:00:00Z",
      "collected_at": "2026-04-07T15:00:00Z",
      "importance": 2,
      "merged_sources": []
    },
    {
      "id": "756dca8d",
      "lang": "zh",
      "title_zh": "卡帕西没做完的，开源社区48小时搞定！完全体知识库token省70倍",
      "summary_zh": "量子位：Andrej Karpathy 未竟的知识库项目被开源社区在 48 小时内完成并发布。该工具采用高效压缩和检索策略，实现 token 使用量降低 70 倍，可构建完整的本地知识库，已开源并引发社区广泛贡献。",
      "tags": [
        "开源",
        "RAG"
      ],
      "source_name": "量子位",
      "source_url": "https://www.qbitai.com/2026/04/396983.html",
      "published_at": "2026-04-07T03:30:00Z",
      "collected_at": "2026-04-07T15:00:00Z",
      "importance": 4,
      "merged_sources": []
    },
    {
      "id": "63b009df",
      "lang": "zh",
      "title_zh": "Claude Code更新废了！思考深度下降67%，无法胜任复杂工程任务",
      "summary_zh": "量子位：社区热议 GitHub Issue 显示，Claude Code 近期更新后思考深度下降约 67%，已无法有效完成复杂工程任务。多名开发者反映模型回复变短、逻辑链缩减，推测 Anthropic 对该模式进行了隐性降级，引发开发者对 AI 编程助手稳定性的广泛担忧。",
      "tags": [
        "产品更新",
        "开发工具"
      ],
      "source_name": "量子位",
      "source_url": "https://www.qbitai.com/2026/04/396958.html",
      "published_at": "2026-04-07T03:00:00Z",
      "collected_at": "2026-04-07T15:00:00Z",
      "importance": 4,
      "merged_sources": []
    }
  ]
}