{
  "latest_date": "2026-04-08",
  "updated_at": "2026-04-08T00:15:00Z",
  "dates": [
    "2026-04-08",
    "2026-04-07",
    "2026-04-06",
    "2026-04-05",
    "2026-04-04",
    "2026-04-03",
    "2026-04-02",
    "2026-04-01",
    "2026-03-31",
    "2026-03-30",
    "2026-03-29",
    "2026-03-28",
    "2026-03-26",
    "2026-03-25",
    "2026-03-24",
    "2026-03-23",
    "2026-03-22",
    "2026-03-21",
    "2026-03-20",
    "2026-03-19",
    "2026-03-18",
    "2026-03-17",
    "2026-03-16",
    "2026-03-15",
    "2026-03-14",
    "2026-03-13",
    "2026-03-12",
    "2026-03-11",
    "2026-03-10",
    "2026-03-09",
    "2026-03-08",
    "2026-03-07",
    "2026-03-06",
    "2026-03-05"
  ],
  "total_items": 489,
  "page": 24,
  "page_size": 20,
  "total_pages": 25,
  "items": [
    {
      "id": "20f160f8",
      "lang": "zh",
      "title_zh": "卡帕西：编程从写文件变成管龙虾！IDE不会凉但得换个用法",
      "summary_zh": "Karpathy：新一代 IDE 将成为 Agent 管理中心，编程范式正从写代码转变为管理 AI Agent。",
      "tags": [
        "Agent"
      ],
      "source_name": "量子位",
      "source_url": "https://www.qbitai.com/2026/03/386668.html",
      "published_at": "2026-03-12T00:00:00Z",
      "collected_at": "2026-03-23T03:20:00Z",
      "importance": 2,
      "merged_sources": []
    },
    {
      "id": "42377cbd",
      "lang": "zh",
      "title_zh": "马斯克官宣数字AI员工！世界首富也来养龙虾，测试阶段员工把它当真人",
      "summary_zh": "马斯克：官宣「数字 Optimus」AI 员工，xAI 测试阶段员工已将其当真人对待；微软相关项目传出暂停消息。",
      "tags": [
        "Agent"
      ],
      "source_name": "量子位",
      "source_url": "https://www.qbitai.com/2026/03/386615.html",
      "published_at": "2026-03-12T00:00:00Z",
      "collected_at": "2026-03-23T03:20:00Z",
      "importance": 3,
      "merged_sources": []
    },
    {
      "id": "7af10b43",
      "lang": "zh",
      "title_zh": "爱诗科技完成3亿美元C轮融资，鼎晖领投，开启“实时交互”视频生成新纪元",
      "summary_zh": "爱诗科技：完成 3 亿美元 C 轮融资，鼎晖领投，主打实时交互式视频生成新方向。",
      "tags": [
        "融资"
      ],
      "source_name": "量子位",
      "source_url": "https://www.qbitai.com/2026/03/386664.html",
      "published_at": "2026-03-12T00:00:00Z",
      "collected_at": "2026-03-23T03:20:00Z",
      "importance": 3,
      "merged_sources": []
    },
    {
      "id": "a6aa0996",
      "lang": "en",
      "title_en": "Introducing The Anthropic Institute",
      "title_zh": "Anthropic 成立 Anthropic Institute",
      "summary_en": "Anthropic: Launching The Anthropic Institute, a new initiative to address the most significant challenges in AI safety and policy.",
      "summary_zh": "Anthropic：宣布成立 Anthropic Institute，专注应对 AI 安全与政策领域最重要的挑战。",
      "tags": [
        "产品发布"
      ],
      "source_name": "Anthropic",
      "source_url": "https://www.anthropic.com/news/the-anthropic-institute",
      "published_at": "2026-03-11T12:00:00Z",
      "collected_at": "2026-03-23T03:20:00Z",
      "importance": 4,
      "merged_sources": []
    },
    {
      "id": "d8e3008e",
      "lang": "en",
      "title_en": "How we compare model quality in Cursor",
      "title_zh": "CursorBench：Cursor 如何评估模型质量",
      "summary_en": "Cursor: Using a hybrid online-offline evaluation process called CursorBench to keep model quality assessments aligned with real developer workflows.",
      "summary_zh": "Cursor：通过线上线下混合评估体系 CursorBench，持续对齐模型质量评估与开发者真实使用场景。",
      "tags": [
        "研究论文"
      ],
      "source_name": "Cursor",
      "source_url": "https://cursor.com/blog/cursorbench",
      "published_at": "2026-03-11T12:00:00Z",
      "collected_at": "2026-03-23T03:20:00Z",
      "importance": 3,
      "merged_sources": []
    },
    {
      "id": "725939a3",
      "lang": "en",
      "title_en": "Over 30 new plugins join the Cursor Marketplace",
      "title_zh": "Cursor Marketplace 新增逾 30 款插件",
      "summary_en": "Cursor: More than 30 new plugins added to the Cursor Marketplace, enabling developers to extend Cursor with prebuilt capabilities.",
      "summary_zh": "Cursor：Marketplace 新增超过 30 款插件，开发者可直接安装预置能力扩展 Cursor 功能。",
      "tags": [
        "产品发布"
      ],
      "source_name": "Cursor",
      "source_url": "https://cursor.com/blog/new-plugins",
      "published_at": "2026-03-11T10:00:00Z",
      "collected_at": "2026-03-23T03:20:00Z",
      "importance": 3,
      "merged_sources": []
    },
    {
      "id": "c7c005d4",
      "lang": "zh",
      "title_zh": "ChatGPT和Claude争了个寂寞！用户重叠仅11%，中国应用霸榜移动端",
      "summary_zh": "a16z：发布 Top 100 GenAI 应用榜单，ChatGPT 与 Claude 用户重叠率仅11%，中国应用在移动端强势霸榜。",
      "tags": [
        "产品发布"
      ],
      "source_name": "量子位",
      "source_url": "https://www.qbitai.com/2026/03/386114.html",
      "published_at": "2026-03-11T00:00:00Z",
      "collected_at": "2026-03-23T03:20:00Z",
      "importance": 3,
      "merged_sources": []
    },
    {
      "id": "58eb1572",
      "lang": "zh",
      "title_zh": "LeCun三顾茅庐，谢赛宁终于入伙！新公司获投10亿美元",
      "summary_zh": "AMI：杨立昆（LeCun）旗下 AMI 获超10亿美元种子融资，公司成立仅两个半月，估值已达35亿美元。",
      "tags": [
        "融资"
      ],
      "source_name": "量子位",
      "source_url": "https://www.qbitai.com/2026/03/386308.html",
      "published_at": "2026-03-11T00:00:00Z",
      "collected_at": "2026-03-23T03:20:00Z",
      "importance": 3,
      "merged_sources": []
    },
    {
      "id": "e3fa19aa",
      "lang": "zh",
      "title_zh": "让龙虾看懂屏幕！谷歌多模态新成果，文本图像视频音频进同一空间",
      "summary_zh": "谷歌：发布首个原生多模态嵌入模型，将文本、图像、视频、音频统一映射至同一语义空间。",
      "tags": [
        "Agent"
      ],
      "source_name": "量子位",
      "source_url": "https://www.qbitai.com/2026/03/386485.html",
      "published_at": "2026-03-11T00:00:00Z",
      "collected_at": "2026-03-23T03:20:00Z",
      "importance": 2,
      "merged_sources": []
    },
    {
      "id": "a583cd07",
      "lang": "zh",
      "title_zh": "499上门装龙虾的人，开始赚299卸载龙虾的钱了",
      "summary_zh": "量子位：「卸虾」业务异军突起，专门帮用户卸载 MCP 服务的市场需求快速爆发。",
      "tags": [
        "Agent"
      ],
      "source_name": "量子位",
      "source_url": "https://www.qbitai.com/2026/03/386235.html",
      "published_at": "2026-03-11T00:00:00Z",
      "collected_at": "2026-03-23T03:20:00Z",
      "importance": 2,
      "merged_sources": []
    },
    {
      "id": "2c7edba2",
      "lang": "en",
      "title_en": "Anthropic to open Sydney office, its fourth in Asia-Pacific",
      "title_zh": "Anthropic 悉尼办公室：亚太区第四站",
      "summary_en": "Anthropic: Opening a Sydney office as its fourth location in Asia-Pacific, expanding global presence in the region.",
      "summary_zh": "Anthropic：在悉尼设立亚太区第四个办公室，持续扩大在该地区的全球布局。",
      "tags": [
        "产品发布"
      ],
      "source_name": "Anthropic",
      "source_url": "https://www.anthropic.com/news/sydney-fourth-office-asia-pacific",
      "published_at": "2026-03-10T12:00:00Z",
      "collected_at": "2026-03-23T03:20:00Z",
      "importance": 4,
      "merged_sources": []
    },
    {
      "id": "6859d61e",
      "lang": "zh",
      "title_zh": "OpenAI为龙虾紧急收购了一家23人公司",
      "summary_zh": "量子位：OpenAI 为 MCP（龙虾协议）紧急收购一家 23 人团队的公司，该公司成立两年估值已达8600万美元。",
      "tags": [
        "Agent"
      ],
      "source_name": "量子位",
      "source_url": "https://www.qbitai.com/2026/03/385637.html",
      "published_at": "2026-03-10T00:00:00Z",
      "collected_at": "2026-03-23T03:20:00Z",
      "importance": 3,
      "merged_sources": []
    },
    {
      "id": "5cd90b1f",
      "lang": "zh",
      "title_zh": "腾讯「鹅虾」紧急上线！一手实测：养虾门槛归零，QQ飞书钉钉全能接",
      "summary_zh": "腾讯：「鹅虾」MCP 服务紧急上线，支持 QQ、飞书、钉钉等主流平台，大幅降低 MCP 接入门槛。",
      "tags": [
        "Agent"
      ],
      "source_name": "量子位",
      "source_url": "https://www.qbitai.com/2026/03/385664.html",
      "published_at": "2026-03-10T00:00:00Z",
      "collected_at": "2026-03-23T03:20:00Z",
      "importance": 2,
      "merged_sources": []
    },
    {
      "id": "287e91bd",
      "lang": "zh",
      "title_zh": "Jeff Dean最新访谈：未来开发者人均50个智能体，写需求成核心技能",
      "summary_zh": "Jeff Dean：在最新访谈中预测未来开发者人均管理50个 AI Agent，并透露蒸馏是 Google Flash 系列模型突破的关键。",
      "tags": [
        "产品发布"
      ],
      "source_name": "量子位",
      "source_url": "https://www.qbitai.com/2026/03/385569.html",
      "published_at": "2026-03-10T00:00:00Z",
      "collected_at": "2026-03-23T03:20:00Z",
      "importance": 2,
      "merged_sources": []
    },
    {
      "id": "ead32d43",
      "lang": "zh",
      "title_zh": "只要1分钟！电脑装满血龙虾，现在跟下载APP似的",
      "summary_zh": "量子位：只需1分钟即可完成 MCP 服务部署，门槛大幅降低，并配套推出专属模型。",
      "tags": [
        "Agent"
      ],
      "source_name": "量子位",
      "source_url": "https://www.qbitai.com/2026/03/385097.html",
      "published_at": "2026-03-10T00:00:00Z",
      "collected_at": "2026-03-23T03:20:00Z",
      "importance": 2,
      "merged_sources": []
    },
    {
      "id": "098c40d8",
      "lang": "zh",
      "title_zh": "88岁图灵奖得主，用Claude一小时破解30年数学悬案",
      "summary_zh": "量子位：88岁图灵奖得主 Leslie Valiant 用 Claude 一小时破解了困扰30年的数学难题，并向 Claude 致谢。",
      "tags": [
        "产品发布"
      ],
      "source_name": "量子位",
      "source_url": "https://www.qbitai.com/2026/03/384890.html",
      "published_at": "2026-03-09T00:00:00Z",
      "collected_at": "2026-03-23T03:20:00Z",
      "importance": 3,
      "merged_sources": []
    },
    {
      "id": "01fd4663",
      "lang": "zh",
      "title_zh": "卡帕西开源Agent自进化训练框架，5分钟一轮实验，48h内揽星9.5k",
      "summary_zh": "量子位：Karpathy 开源 Agent 自进化训练框架，5分钟即可完成一轮实验，48小时内在 GitHub 收获9500星。",
      "tags": [
        "Agent",
        "研究论文",
        "开源"
      ],
      "source_name": "量子位",
      "source_url": "https://www.qbitai.com/2026/03/384953.html",
      "published_at": "2026-03-09T00:00:00Z",
      "collected_at": "2026-03-23T03:20:00Z",
      "importance": 2,
      "merged_sources": []
    },
    {
      "id": "3f0bc09b",
      "lang": "zh",
      "title_zh": "龙虾最佳适配模型，OpenClaw之父给出了推荐",
      "summary_zh": "量子位：MCP（龙虾协议）创始人推荐的最佳适配模型 Top 3 中，国产模型占据两席。",
      "tags": [
        "产品发布",
        "Agent"
      ],
      "source_name": "量子位",
      "source_url": "https://www.qbitai.com/2026/03/384837.html",
      "published_at": "2026-03-09T00:00:00Z",
      "collected_at": "2026-03-23T03:20:00Z",
      "importance": 2,
      "merged_sources": []
    },
    {
      "id": "69590a1c",
      "lang": "zh",
      "title_zh": "龙虾最大痛点被官方插件升级！对话永不忘记，GPT和Gemini最强模型都可接入",
      "summary_zh": "量子位：MCP 官方记忆插件重大升级，支持接入 GPT 和 Gemini 最强模型，实现对话永久记忆。",
      "tags": [
        "产品发布",
        "Agent"
      ],
      "source_name": "量子位",
      "source_url": "https://www.qbitai.com/2026/03/384907.html",
      "published_at": "2026-03-09T00:00:00Z",
      "collected_at": "2026-03-23T03:20:00Z",
      "importance": 4,
      "merged_sources": []
    },
    {
      "id": "79445b1c",
      "lang": "zh",
      "title_zh": "20岁大学生花10天VibeCoding一个开源项目，获盛大3000万投资",
      "summary_zh": "量子位：20岁大学生用10天 VibeCoding 完成开源项目，获盛大3000万元投资。",
      "tags": [
        "融资",
        "开源"
      ],
      "source_name": "量子位",
      "source_url": "https://www.qbitai.com/2026/03/384728.html",
      "published_at": "2026-03-08T00:00:00Z",
      "collected_at": "2026-03-23T03:20:00Z",
      "importance": 2,
      "merged_sources": []
    }
  ]
}